﻿AdmUnitId,BundeslandId,Datum,AnzFallNeu,AnzFallVortag,AnzFallErkrankung,AnzFallMeldung,KumFall,ObjectId
9162,9,2021/02/14 00:00:00+00,0,19,21,11,52853,278401
9162,9,2021/02/15 00:00:00+00,0,60,44,46,52913,278402
9162,9,2021/02/16 00:00:00+00,0,33,20,24,52946,278403
9162,9,2021/02/17 00:00:00+00,0,116,30,57,53062,278404
9162,9,2021/02/18 00:00:00+00,0,107,31,65,53169,278405
9162,9,2021/02/19 00:00:00+00,0,80,26,57,53249,278406
9162,9,2021/02/20 00:00:00+00,0,64,23,34,53313,278407
9162,9,2021/02/21 00:00:00+00,0,23,27,12,53336,278408
9162,9,2021/02/22 00:00:00+00,0,60,35,43,53396,278409
9162,9,2021/02/23 00:00:00+00,0,91,25,56,53487,278410
9162,9,2021/02/24 00:00:00+00,0,119,18,83,53606,278411
9162,9,2021/02/25 00:00:00+00,0,84,39,50,53690,278412
9162,9,2021/02/26 00:00:00+00,0,126,42,87,53816,278413
9162,9,2021/02/27 00:00:00+00,0,70,38,52,53886,278414
9162,9,2021/02/28 00:00:00+00,0,45,33,35,53931,278415
9162,9,2021/03/01 00:00:00+00,0,75,41,51,54006,278416
9162,9,2021/03/02 00:00:00+00,0,160,45,113,54166,278417
9162,9,2021/03/03 00:00:00+00,0,152,43,105,54318,278418
9162,9,2021/03/04 00:00:00+00,0,111,48,79,54429,278419
9162,9,2021/03/05 00:00:00+00,0,144,44,96,54573,278420
9162,9,2020/04/20 00:00:00+00,0,32,30,18,5210,278421
9162,9,2021/03/06 00:00:00+00,0,115,48,79,54688,278422
9162,9,2021/03/07 00:00:00+00,0,61,32,37,54749,278423
9162,9,2021/03/08 00:00:00+00,0,123,60,75,54872,278424
9162,9,2021/03/09 00:00:00+00,0,165,54,117,55037,278425
9162,9,2020/04/21 00:00:00+00,0,55,21,18,5265,278426
9162,9,2021/03/10 00:00:00+00,0,218,47,151,55255,278427
9162,9,2020/04/22 00:00:00+00,0,57,20,25,5322,278428
9162,9,2021/03/11 00:00:00+00,0,170,59,122,55425,278429
9162,9,2020/11/06 00:00:00+00,0,632,92,515,19877,278430
9162,9,2020/04/23 00:00:00+00,0,78,27,25,5400,278431
9162,9,2021/03/12 00:00:00+00,0,165,54,110,55590,278432
9162,9,2020/11/07 00:00:00+00,0,501,59,380,20378,278433
9162,9,2020/09/17 00:00:00+00,0,140,52,64,10484,278434
9162,9,2020/04/24 00:00:00+00,0,56,28,23,5456,278435
9162,9,2021/03/13 00:00:00+00,0,104,58,72,55694,278436
9162,9,2020/12/26 00:00:00+00,0,586,54,471,42606,278437
9162,9,2020/11/08 00:00:00+00,0,318,63,254,20696,278438
9162,9,2020/09/18 00:00:00+00,0,129,31,61,10613,278439
9162,9,2020/04/25 00:00:00+00,0,47,23,31,5503,278440
9162,9,2021/03/14 00:00:00+00,0,88,48,65,55782,278441
9162,9,2020/11/09 00:00:00+00,0,447,69,353,21143,278442
9162,9,2020/12/27 00:00:00+00,0,357,57,299,42963,278443
9162,9,2020/09/19 00:00:00+00,0,77,20,48,10690,278444
9162,9,2020/04/26 00:00:00+00,0,33,12,16,5536,278445
9162,9,2021/03/15 00:00:00+00,0,144,64,106,55926,278446
9162,9,2020/11/10 00:00:00+00,0,560,50,413,21703,278447
9162,9,2020/12/28 00:00:00+00,0,228,81,186,43191,278448
9162,9,2020/06/09 00:00:00+00,0,8,2,3,6566,278449
9162,9,2020/03/01 00:00:00+00,0,0,9,0,5,278450
9162,9,2020/07/29 00:00:00+00,0,17,8,8,7279,278451
9162,9,2020/09/20 00:00:00+00,0,60,29,23,10750,278452
9162,9,2020/09/21 00:00:00+00,0,97,38,65,10847,278453
9162,9,2020/09/22 00:00:00+00,0,93,30,67,10940,278454
9162,9,2020/09/23 00:00:00+00,0,107,31,63,11047,278455
9162,9,2020/09/24 00:00:00+00,0,90,39,46,11137,278456
9162,9,2020/09/25 00:00:00+00,0,68,29,39,11205,278457
9162,9,2020/09/26 00:00:00+00,0,74,29,49,11279,278458
9162,9,2020/09/27 00:00:00+00,0,43,30,27,11322,278459
9162,9,2020/09/28 00:00:00+00,0,106,47,67,11428,278460
9162,9,2020/09/29 00:00:00+00,0,85,34,49,11513,278461
9162,9,2020/09/30 00:00:00+00,0,81,48,45,11594,278462
9162,9,2020/10/01 00:00:00+00,0,83,33,34,11677,278463
9162,9,2020/10/02 00:00:00+00,0,64,49,36,11741,278464
9162,9,2020/10/03 00:00:00+00,0,99,36,49,11840,278465
9162,9,2020/10/04 00:00:00+00,0,23,34,5,11863,278466
9162,9,2020/10/05 00:00:00+00,0,63,48,41,11926,278467
9162,9,2020/10/06 00:00:00+00,0,119,50,66,12045,278468
9162,9,2020/10/07 00:00:00+00,0,129,52,74,12174,278469
9162,9,2020/10/08 00:00:00+00,0,139,62,73,12313,278470
9162,9,2020/10/09 00:00:00+00,0,159,60,102,12472,278471
9162,9,2020/10/10 00:00:00+00,0,93,49,44,12565,278472
9162,9,2020/10/11 00:00:00+00,0,54,66,39,12619,278473
9162,9,2020/10/12 00:00:00+00,0,112,78,68,12731,278474
9162,9,2020/10/13 00:00:00+00,0,156,86,92,12887,278475
9162,9,2020/10/14 00:00:00+00,0,173,98,92,13060,278476
9162,9,2020/10/15 00:00:00+00,0,192,75,97,13252,278477
9162,9,2020/10/16 00:00:00+00,0,198,82,108,13450,278478
9162,9,2020/10/17 00:00:00+00,0,177,85,94,13627,278479
9162,9,2020/10/18 00:00:00+00,0,94,66,55,13721,278480
9162,9,2020/10/19 00:00:00+00,0,134,86,67,13855,278481
9162,9,2020/10/20 00:00:00+00,0,194,78,107,14049,278482
9162,9,2020/10/21 00:00:00+00,0,318,75,206,14367,278483
9162,9,2020/10/22 00:00:00+00,0,319,75,233,14686,278484
9162,9,2020/10/23 00:00:00+00,0,240,79,181,14926,278485
9162,9,2020/10/24 00:00:00+00,0,215,75,182,15141,278486
9162,9,2020/10/25 00:00:00+00,0,289,76,236,15430,278487
9162,9,2020/10/26 00:00:00+00,0,227,95,186,15657,278488
9162,9,2020/10/27 00:00:00+00,0,328,66,273,15985,278489
9162,9,2020/10/28 00:00:00+00,0,359,90,281,16344,278490
9162,9,2020/10/29 00:00:00+00,0,457,67,338,16801,278491
9162,9,2020/10/30 00:00:00+00,0,366,71,266,17167,278492
9162,9,2020/10/31 00:00:00+00,0,202,68,141,17369,278493
9162,9,2020/11/01 00:00:00+00,0,258,73,192,17627,278494
9162,9,2020/11/02 00:00:00+00,0,331,107,247,17958,278495
9162,9,2020/11/03 00:00:00+00,0,498,85,403,18456,278496
9162,9,2020/11/04 00:00:00+00,0,359,76,318,18815,278497
9162,9,2020/11/05 00:00:00+00,0,430,88,350,19245,278498
9162,9,2021/03/16 00:00:00+00,0,201,80,141,56127,278499
9162,9,2020/04/27 00:00:00+00,0,79,29,47,5615,278500
9162,9,2020/06/10 00:00:00+00,0,9,5,3,6575,278501
9162,9,2020/12/29 00:00:00+00,0,538,54,445,43729,278502
9162,9,2020/03/02 00:00:00+00,0,3,10,0,8,278503
9162,9,2020/07/30 00:00:00+00,0,19,7,9,7298,278504
9162,9,2021/03/17 00:00:00+00,0,235,56,144,56362,278505
9162,9,2020/04/28 00:00:00+00,0,50,19,16,5665,278506
9162,9,2020/06/11 00:00:00+00,0,2,4,0,6577,278507
9162,9,2020/12/30 00:00:00+00,0,648,70,528,44377,278508
9162,9,2020/03/03 00:00:00+00,0,1,14,0,9,278509
9162,9,2020/07/31 00:00:00+00,0,17,7,8,7315,278510
9162,9,2020/11/11 00:00:00+00,0,610,56,472,22313,278511
9162,9,2021/03/18 00:00:00+00,0,208,60,137,56570,278512
9162,9,2020/04/29 00:00:00+00,0,41,17,23,5706,278513
9162,9,2020/06/12 00:00:00+00,0,12,5,6,6589,278514
9162,9,2020/12/31 00:00:00+00,0,346,51,285,44723,278515
9162,9,2020/03/04 00:00:00+00,0,3,8,1,12,278516
9162,9,2020/08/01 00:00:00+00,0,11,6,5,7326,278517
9162,9,2020/11/12 00:00:00+00,0,544,33,488,22857,278518
9162,9,2021/03/19 00:00:00+00,0,223,51,154,56793,278519
9162,9,2020/04/30 00:00:00+00,0,44,24,17,5750,278520
9162,9,2020/06/13 00:00:00+00,0,5,4,0,6594,278521
9162,9,2021/01/01 00:00:00+00,0,1,55,0,44724,278522
9162,9,2020/03/05 00:00:00+00,0,2,6,1,14,278523
9162,9,2020/08/02 00:00:00+00,0,9,6,6,7335,278524
9162,9,2020/11/13 00:00:00+00,0,415,44,360,23272,278525
9162,9,2021/03/20 00:00:00+00,0,147,54,102,56940,278526
9162,9,2020/05/01 00:00:00+00,0,59,26,32,5809,278527
9162,9,2020/06/14 00:00:00+00,0,11,0,9,6605,278528
9162,9,2021/01/02 00:00:00+00,0,337,71,276,45061,278529
9162,9,2020/03/06 00:00:00+00,0,13,19,8,27,278530
9162,9,2020/08/03 00:00:00+00,0,26,19,12,7361,278531
9162,9,2020/11/14 00:00:00+00,0,500,27,460,23772,278532
9162,9,2021/03/21 00:00:00+00,0,134,58,101,57074,278533
9162,9,2020/05/02 00:00:00+00,0,33,12,18,5842,278534
9162,9,2020/06/15 00:00:00+00,0,4,5,0,6609,278535
9162,9,2021/01/03 00:00:00+00,0,217,86,161,45278,278536
9162,9,2020/03/07 00:00:00+00,0,0,20,0,27,278537
9162,9,2020/08/04 00:00:00+00,0,18,7,11,7379,278538
9162,9,2020/11/15 00:00:00+00,0,198,28,185,23970,278539
9162,9,2021/03/22 00:00:00+00,0,101,79,76,57175,278540
9162,9,2020/05/03 00:00:00+00,0,25,20,5,5867,278541
9162,9,2020/06/16 00:00:00+00,0,9,4,3,6618,278542
9162,9,2021/01/04 00:00:00+00,0,286,73,215,45564,278543
9162,9,2020/03/08 00:00:00+00,0,0,26,0,27,278544
9162,9,2020/08/05 00:00:00+00,0,12,14,6,7391,278545
9162,9,2020/11/16 00:00:00+00,0,215,32,193,24185,278546
9162,9,2021/03/23 00:00:00+00,0,239,59,160,57414,278547
9162,9,2020/05/04 00:00:00+00,0,34,14,15,5901,278548
9162,9,2020/06/17 00:00:00+00,0,13,6,4,6631,278549
9162,9,2021/01/05 00:00:00+00,0,463,63,367,46027,278550
9162,9,2020/03/09 00:00:00+00,0,23,51,14,50,278551
9162,9,2020/08/06 00:00:00+00,0,35,11,18,7426,278552
9162,9,2020/11/17 00:00:00+00,0,575,37,537,24760,278553
9162,9,2021/03/24 00:00:00+00,0,278,72,198,57692,278554
9162,9,2020/05/05 00:00:00+00,0,30,21,10,5931,278555
9162,9,2020/06/18 00:00:00+00,0,4,3,2,6635,278556
9162,9,2021/01/06 00:00:00+00,0,344,51,277,46371,278557
9162,9,2020/03/10 00:00:00+00,0,31,63,21,81,278558
9162,9,2020/08/07 00:00:00+00,0,19,10,16,7445,278559
9162,9,2020/11/18 00:00:00+00,0,520,29,478,25280,278560
9162,9,2021/03/25 00:00:00+00,0,265,93,193,57957,278561
9162,9,2020/05/06 00:00:00+00,0,19,11,9,5950,278562
9162,9,2020/06/19 00:00:00+00,0,11,6,7,6646,278563
9162,9,2021/01/07 00:00:00+00,0,380,35,316,46751,278564
9162,9,2020/03/11 00:00:00+00,0,23,71,16,104,278565
9162,9,2020/08/08 00:00:00+00,0,8,19,5,7453,278566
9162,9,2020/11/19 00:00:00+00,0,668,35,624,25948,278567
9162,9,2021/03/26 00:00:00+00,0,296,76,206,58253,278568
9162,9,2020/05/07 00:00:00+00,0,30,20,11,5980,278569
9162,9,2020/06/20 00:00:00+00,0,22,8,20,6668,278570
9162,9,2021/01/08 00:00:00+00,0,515,53,444,47266,278571
9162,9,2020/03/12 00:00:00+00,0,18,89,11,122,278572
9162,9,2020/08/09 00:00:00+00,0,2,21,1,7455,278573
9162,9,2020/11/20 00:00:00+00,0,491,41,467,26439,278574
9162,9,2021/03/27 00:00:00+00,0,182,89,127,58435,278575
9162,9,2020/05/08 00:00:00+00,0,43,10,21,6023,278576
9162,9,2020/06/21 00:00:00+00,0,14,7,9,6682,278577
9162,9,2020/06/22 00:00:00+00,0,4,9,1,6686,278578
9162,9,2020/06/23 00:00:00+00,0,18,7,11,6704,278579
9162,9,2020/06/24 00:00:00+00,0,13,12,2,6717,278580
9162,9,2020/06/25 00:00:00+00,0,18,10,7,6735,278581
9162,9,2020/06/26 00:00:00+00,0,17,16,8,6752,278582
9162,9,2020/06/27 00:00:00+00,0,12,7,4,6764,278583
9162,9,2020/06/28 00:00:00+00,0,10,14,8,6774,278584
9162,9,2020/06/29 00:00:00+00,0,21,10,12,6795,278585
9162,9,2020/06/30 00:00:00+00,0,40,6,21,6835,278586
9162,9,2020/07/01 00:00:00+00,0,10,5,4,6845,278587
9162,9,2020/07/02 00:00:00+00,0,23,8,10,6868,278588
9162,9,2020/07/03 00:00:00+00,0,20,8,10,6888,278589
9162,9,2020/07/04 00:00:00+00,0,14,3,11,6902,278590
9162,9,2020/07/05 00:00:00+00,0,4,6,4,6906,278591
9162,9,2020/07/06 00:00:00+00,0,23,5,12,6929,278592
9162,9,2020/07/07 00:00:00+00,0,35,8,27,6964,278593
9162,9,2020/07/08 00:00:00+00,0,21,7,9,6985,278594
9162,9,2020/07/09 00:00:00+00,0,11,4,7,6996,278595
9162,9,2020/07/10 00:00:00+00,0,18,7,4,7014,278596
9162,9,2020/07/11 00:00:00+00,0,2,7,2,7016,278597
9162,9,2020/07/12 00:00:00+00,0,7,5,3,7023,278598
9162,9,2020/07/13 00:00:00+00,0,15,15,6,7038,278599
9162,9,2020/07/14 00:00:00+00,0,11,6,6,7049,278600
9162,9,2020/07/15 00:00:00+00,0,20,12,15,7069,278601
9162,9,2020/07/16 00:00:00+00,0,26,7,10,7095,278602
9162,9,2020/07/17 00:00:00+00,0,26,10,20,7121,278603
9162,9,2020/07/18 00:00:00+00,0,6,7,4,7127,278604
9162,9,2020/07/19 00:00:00+00,0,17,7,8,7144,278605
9162,9,2020/07/20 00:00:00+00,0,10,7,4,7154,278606
9162,9,2020/07/21 00:00:00+00,0,16,5,5,7170,278607
9162,9,2020/07/22 00:00:00+00,0,15,11,6,7185,278608
9162,9,2020/07/23 00:00:00+00,0,16,4,8,7201,278609
9162,9,2020/07/24 00:00:00+00,0,17,5,8,7218,278610
9162,9,2020/07/25 00:00:00+00,0,14,9,5,7232,278611
9162,9,2020/07/26 00:00:00+00,0,2,7,1,7234,278612
9162,9,2020/07/27 00:00:00+00,0,13,12,8,7247,278613
9162,9,2020/07/28 00:00:00+00,0,15,7,9,7262,278614
9162,9,2020/05/09 00:00:00+00,0,24,10,15,6047,278615
9162,9,2021/03/28 00:00:00+00,0,110,64,81,58545,278616
9162,9,2020/05/10 00:00:00+00,0,22,10,9,6069,278617
9162,9,2020/11/21 00:00:00+00,0,293,33,271,26732,278618
9162,9,2021/01/09 00:00:00+00,0,369,33,332,47635,278619
9162,9,2021/03/29 00:00:00+00,0,167,104,100,58712,278620
9162,9,2020/05/11 00:00:00+00,0,61,9,40,6130,278621
9162,9,2020/11/22 00:00:00+00,0,231,45,210,26963,278622
9162,9,2021/01/10 00:00:00+00,0,140,36,130,47775,278623
9162,9,2021/03/30 00:00:00+00,0,289,108,193,59001,278624
9162,9,2020/05/12 00:00:00+00,0,27,9,12,6157,278625
9162,9,2020/08/10 00:00:00+00,0,29,31,13,7484,278626
9162,9,2020/11/23 00:00:00+00,0,355,53,335,27318,278627
9162,9,2020/03/13 00:00:00+00,0,48,110,33,170,278628
9162,9,2021/01/11 00:00:00+00,0,204,49,184,47979,278629
9162,9,2021/03/31 00:00:00+00,0,313,88,208,59314,278630
9162,9,2020/05/13 00:00:00+00,0,35,4,14,6192,278631
9162,9,2020/08/11 00:00:00+00,0,43,28,26,7527,278632
9162,9,2020/11/24 00:00:00+00,0,497,59,455,27815,278633
9162,9,2020/03/14 00:00:00+00,0,64,110,44,234,278634
9162,9,2021/01/12 00:00:00+00,0,392,54,368,48371,278635
9162,9,2021/04/01 00:00:00+00,0,253,113,125,59567,278636
9162,9,2020/05/14 00:00:00+00,0,23,5,13,6215,278637
9162,9,2020/08/12 00:00:00+00,0,44,24,28,7571,278638
9162,9,2020/11/25 00:00:00+00,0,491,79,439,28306,278639
9162,9,2020/03/15 00:00:00+00,0,19,135,16,253,278640
9162,9,2021/01/13 00:00:00+00,0,366,50,333,48737,278641
9162,9,2021/04/02 00:00:00+00,0,181,90,95,59748,278642
9162,9,2020/05/15 00:00:00+00,0,18,7,12,6233,278643
9162,9,2020/08/13 00:00:00+00,0,55,28,33,7626,278644
9162,9,2020/11/26 00:00:00+00,0,620,72,552,28926,278645
9162,9,2020/03/16 00:00:00+00,0,67,155,35,320,278646
9162,9,2021/01/14 00:00:00+00,0,274,65,234,49011,278647
9162,9,2021/04/03 00:00:00+00,0,123,106,65,59871,278648
9162,9,2020/05/16 00:00:00+00,0,9,3,3,6242,278649
9162,9,2020/08/14 00:00:00+00,0,55,22,27,7681,278650
9162,9,2020/11/27 00:00:00+00,0,103,62,94,29029,278651
9162,9,2020/03/17 00:00:00+00,0,144,140,82,464,278652
9162,9,2021/01/15 00:00:00+00,0,267,68,223,49278,278653
9162,9,2021/04/04 00:00:00+00,0,118,116,57,59989,278654
9162,9,2020/05/17 00:00:00+00,0,11,4,5,6253,278655
9162,9,2020/08/15 00:00:00+00,0,27,19,14,7708,278656
9162,9,2020/11/28 00:00:00+00,0,268,67,230,29297,278657
9162,9,2020/03/18 00:00:00+00,0,212,153,110,676,278658
9162,9,2021/01/16 00:00:00+00,0,217,58,165,49495,278659
9162,9,2020/05/18 00:00:00+00,0,7,12,4,6260,278660
9162,9,2020/08/16 00:00:00+00,0,48,25,37,7756,278661
9162,9,2020/11/29 00:00:00+00,0,468,73,396,29765,278662
9162,9,2020/03/19 00:00:00+00,0,173,108,77,849,278663
9162,9,2021/01/17 00:00:00+00,0,86,65,75,49581,278664
9162,9,2020/05/19 00:00:00+00,0,12,6,10,6272,278665
9162,9,2020/08/17 00:00:00+00,0,86,35,50,7842,278666
9162,9,2020/11/30 00:00:00+00,0,417,97,335,30182,278667
9162,9,2020/03/20 00:00:00+00,0,195,127,86,1044,278668
9162,9,2021/01/18 00:00:00+00,0,135,78,106,49716,278669
9162,9,2020/05/20 00:00:00+00,0,20,7,9,6292,278670
9162,9,2020/08/18 00:00:00+00,0,61,33,33,7903,278671
9162,9,2020/03/21 00:00:00+00,0,176,83,65,1220,278672
9162,9,2020/12/01 00:00:00+00,0,430,91,352,30612,278673
9162,9,2021/01/19 00:00:00+00,0,238,80,181,49954,278674
9162,9,2020/05/21 00:00:00+00,0,19,5,8,6311,278675
9162,9,2020/08/19 00:00:00+00,0,88,24,53,7991,278676
9162,9,2020/03/22 00:00:00+00,0,88,85,37,1308,278677
9162,9,2020/12/02 00:00:00+00,0,483,94,394,31095,278678
9162,9,2021/01/20 00:00:00+00,0,252,48,185,50206,278679
9162,9,2020/05/22 00:00:00+00,0,21,7,17,6332,278680
9162,9,2020/08/20 00:00:00+00,0,86,16,56,8077,278681
9162,9,2020/03/23 00:00:00+00,0,93,117,44,1401,278682
9162,9,2020/12/03 00:00:00+00,0,619,106,519,31714,278683
9162,9,2021/01/21 00:00:00+00,0,176,58,127,50382,278684
9162,9,2020/05/23 00:00:00+00,0,2,6,1,6334,278685
9162,9,2020/08/21 00:00:00+00,0,71,35,45,8148,278686
9162,9,2020/03/24 00:00:00+00,0,170,61,80,1571,278687
9162,9,2020/12/04 00:00:00+00,0,239,98,186,31953,278688
9162,9,2021/01/22 00:00:00+00,0,178,50,138,50560,278689
9162,9,2020/05/24 00:00:00+00,0,6,10,2,6340,278690
9162,9,2020/08/22 00:00:00+00,0,31,22,21,8179,278691
9162,9,2020/03/25 00:00:00+00,0,239,111,103,1810,278692
9162,9,2020/12/05 00:00:00+00,0,208,105,167,32161,278693
9162,9,2021/01/23 00:00:00+00,0,131,45,89,50691,278694
9162,9,2020/05/25 00:00:00+00,0,14,5,5,6354,278695
9162,9,2020/08/23 00:00:00+00,0,41,31,25,8220,278696
9162,9,2020/03/26 00:00:00+00,0,258,66,102,2068,278697
9162,9,2020/12/06 00:00:00+00,0,538,79,443,32699,278698
9162,9,2021/01/24 00:00:00+00,0,60,60,48,50751,278699
9162,9,2020/05/26 00:00:00+00,0,46,12,25,6400,278700
9162,9,2020/08/24 00:00:00+00,0,87,34,52,8307,278701
9162,9,2020/08/25 00:00:00+00,0,85,38,54,8392,278702
9162,9,2020/08/26 00:00:00+00,0,105,36,69,8497,278703
9162,9,2020/08/27 00:00:00+00,0,108,19,55,8605,278704
9162,9,2020/08/28 00:00:00+00,0,65,26,44,8670,278705
9162,9,2020/08/29 00:00:00+00,0,53,15,29,8723,278706
9162,9,2020/08/30 00:00:00+00,0,26,17,17,8749,278707
9162,9,2020/08/31 00:00:00+00,0,71,29,35,8820,278708
9162,9,2020/09/01 00:00:00+00,0,83,45,59,8903,278709
9162,9,2020/09/02 00:00:00+00,0,69,31,47,8972,278710
9162,9,2020/09/03 00:00:00+00,0,88,36,51,9060,278711
9162,9,2020/09/04 00:00:00+00,0,116,35,81,9176,278712
9162,9,2020/09/05 00:00:00+00,0,104,30,66,9280,278713
9162,9,2020/09/06 00:00:00+00,0,61,28,38,9341,278714
9162,9,2020/09/07 00:00:00+00,0,92,58,55,9433,278715
9162,9,2020/09/08 00:00:00+00,0,91,54,57,9524,278716
9162,9,2020/09/09 00:00:00+00,0,118,45,69,9642,278717
9162,9,2020/09/10 00:00:00+00,0,100,50,50,9742,278718
9162,9,2020/09/11 00:00:00+00,0,74,55,32,9816,278719
9162,9,2020/09/12 00:00:00+00,0,61,32,22,9877,278720
9162,9,2020/09/13 00:00:00+00,0,49,43,23,9926,278721
9162,9,2020/09/14 00:00:00+00,0,100,76,49,10026,278722
9162,9,2020/09/15 00:00:00+00,0,168,54,96,10194,278723
9162,9,2020/09/16 00:00:00+00,0,150,51,84,10344,278724
9162,9,2020/12/07 00:00:00+00,0,610,108,506,33309,278725
9162,9,2020/05/27 00:00:00+00,0,34,5,20,6434,278726
9162,9,2020/12/08 00:00:00+00,0,489,122,381,33798,278727
9162,9,2021/01/25 00:00:00+00,0,92,80,61,50843,278728
9162,9,2020/05/28 00:00:00+00,0,6,6,2,6440,278729
9162,9,2020/12/09 00:00:00+00,0,590,81,477,34388,278730
9162,9,2020/03/27 00:00:00+00,0,258,110,109,2326,278731
9162,9,2021/01/26 00:00:00+00,0,197,51,141,51040,278732
9162,9,2020/05/29 00:00:00+00,0,14,4,9,6454,278733
9162,9,2020/12/10 00:00:00+00,0,374,74,303,34762,278734
9162,9,2020/03/28 00:00:00+00,0,139,79,58,2465,278735
9162,9,2021/01/27 00:00:00+00,0,173,62,122,51213,278736
9162,9,2020/05/30 00:00:00+00,0,33,3,28,6487,278737
9162,9,2020/12/11 00:00:00+00,0,593,97,490,35355,278738
9162,9,2020/03/29 00:00:00+00,0,178,65,74,2643,278739
9162,9,2021/01/28 00:00:00+00,0,133,70,93,51346,278740
9162,9,2020/05/31 00:00:00+00,0,5,5,3,6492,278741
9162,9,2020/12/12 00:00:00+00,0,383,96,322,35738,278742
9162,9,2020/03/30 00:00:00+00,0,118,69,46,2761,278743
9162,9,2021/01/29 00:00:00+00,0,140,59,93,51486,278744
9162,9,2020/06/01 00:00:00+00,0,0,3,0,6492,278745
9162,9,2020/12/13 00:00:00+00,0,394,68,336,36132,278746
9162,9,2020/03/31 00:00:00+00,0,310,68,119,3071,278747
9162,9,2021/01/30 00:00:00+00,0,113,42,79,51599,278748
9162,9,2020/06/02 00:00:00+00,0,5,7,1,6497,278749
9162,9,2020/12/14 00:00:00+00,0,526,102,420,36658,278750
9162,9,2020/04/01 00:00:00+00,0,231,90,87,3302,278751
9162,9,2021/01/31 00:00:00+00,0,47,44,24,51646,278752
9162,9,2020/06/03 00:00:00+00,0,12,4,7,6509,278753
9162,9,2020/12/15 00:00:00+00,0,870,76,727,37528,278754
9162,9,2020/04/02 00:00:00+00,0,143,49,53,3445,278755
9162,9,2021/02/01 00:00:00+00,0,78,32,39,51724,278756
9162,9,2020/06/04 00:00:00+00,0,8,8,3,6517,278757
9162,9,2020/12/16 00:00:00+00,0,644,74,534,38172,278758
9162,9,2020/04/03 00:00:00+00,0,177,57,85,3622,278759
9162,9,2021/02/02 00:00:00+00,0,100,37,70,51824,278760
9162,9,2020/06/05 00:00:00+00,0,14,8,6,6531,278761
9162,9,2020/12/17 00:00:00+00,0,815,77,682,38987,278762
9162,9,2020/04/04 00:00:00+00,0,134,49,59,3756,278763
9162,9,2021/02/03 00:00:00+00,0,110,40,71,51934,278764
9162,9,2020/06/06 00:00:00+00,0,5,5,3,6536,278765
9162,9,2020/12/18 00:00:00+00,0,704,70,601,39691,278766
9162,9,2020/04/05 00:00:00+00,0,84,47,27,3840,278767
9162,9,2021/02/04 00:00:00+00,0,132,34,92,52066,278768
9162,9,2020/06/07 00:00:00+00,0,9,6,5,6545,278769
9162,9,2020/04/06 00:00:00+00,0,118,51,40,3958,278770
9162,9,2021/02/05 00:00:00+00,0,141,35,91,52207,278771
9162,9,2020/12/19 00:00:00+00,0,600,64,510,40291,278772
9162,9,2020/06/08 00:00:00+00,0,13,10,4,6558,278773
9162,9,2020/04/07 00:00:00+00,0,141,48,40,4099,278774
9162,9,2020/12/20 00:00:00+00,0,208,63,178,40499,278775
9162,9,2021/02/06 00:00:00+00,0,68,27,42,52275,278776
9162,9,2020/04/08 00:00:00+00,0,154,50,65,4253,278777
9162,9,2020/12/21 00:00:00+00,0,265,77,213,40764,278778
9162,9,2021/02/07 00:00:00+00,0,30,18,20,52305,278779
9162,9,2020/04/09 00:00:00+00,0,112,48,48,4365,278780
9162,9,2020/12/22 00:00:00+00,0,363,58,322,41127,278781
9162,9,2021/02/08 00:00:00+00,0,71,38,51,52376,278782
9162,9,2020/04/10 00:00:00+00,0,98,27,22,4463,278783
9162,9,2020/12/23 00:00:00+00,0,604,74,505,41731,278784
9162,9,2021/02/09 00:00:00+00,0,146,37,92,52522,278785
9162,9,2020/04/11 00:00:00+00,0,104,38,41,4567,278786
9162,9,2020/12/24 00:00:00+00,0,289,59,246,42020,278787
9162,9,2021/02/10 00:00:00+00,0,100,25,59,52622,278788
9162,9,2020/04/12 00:00:00+00,0,72,35,16,4639,278789
9162,9,2020/12/25 00:00:00+00,0,0,44,0,42020,278790
9162,9,2021/02/11 00:00:00+00,0,94,28,71,52716,278791
9162,9,2020/04/13 00:00:00+00,0,61,37,27,4700,278792
9162,9,2021/02/12 00:00:00+00,0,74,27,45,52790,278793
9162,9,2020/04/14 00:00:00+00,0,86,34,32,4786,278794
9162,9,2021/02/13 00:00:00+00,0,44,33,26,52834,278795
9162,9,2020/04/15 00:00:00+00,0,109,32,42,4895,278796
9162,9,2020/04/16 00:00:00+00,0,95,29,34,4990,278797
9162,9,2020/04/17 00:00:00+00,0,93,26,37,5083,278798
9162,9,2020/04/18 00:00:00+00,0,46,22,14,5129,278799
9162,9,2020/04/19 00:00:00+00,0,49,22,22,5178,278800
9162,9,2021/09/02 00:00:00+00,0,335,145,168,79475,278801
9162,9,2021/09/03 00:00:00+00,0,253,144,137,79728,278802
9162,9,2021/09/04 00:00:00+00,0,206,138,113,79934,278803
9162,9,2021/09/05 00:00:00+00,0,120,123,65,80054,278804
9162,9,2021/09/06 00:00:00+00,0,223,169,87,80277,278805
9162,9,2021/09/07 00:00:00+00,0,340,160,121,80617,278806
9162,9,2021/09/08 00:00:00+00,0,337,171,142,80954,278807
9162,9,2021/09/09 00:00:00+00,0,279,153,106,81233,278808
9162,9,2021/09/10 00:00:00+00,0,254,167,115,81487,278809
9162,9,2021/09/11 00:00:00+00,0,222,160,83,81709,278810
9162,9,2021/09/12 00:00:00+00,0,142,126,47,81851,278811
9162,9,2021/09/13 00:00:00+00,0,227,168,73,82078,278812
9162,9,2021/09/14 00:00:00+00,0,444,136,157,82522,278813
9162,9,2021/09/15 00:00:00+00,0,373,121,183,82895,278814
9162,9,2021/09/16 00:00:00+00,0,301,149,158,83196,278815
9162,9,2021/09/17 00:00:00+00,0,293,122,128,83489,278816
9162,9,2021/09/18 00:00:00+00,0,183,98,94,83672,278817
9162,9,2021/09/19 00:00:00+00,0,105,110,51,83777,278818
9162,9,2021/09/20 00:00:00+00,0,278,157,131,84055,278819
9162,9,2021/09/21 00:00:00+00,0,315,136,158,84370,278820
9162,9,2021/09/22 00:00:00+00,0,289,129,117,84659,278821
9162,9,2021/09/23 00:00:00+00,0,275,134,116,84934,278822
9162,9,2021/09/24 00:00:00+00,0,218,156,107,85152,278823
9162,9,2021/09/25 00:00:00+00,0,164,119,68,85316,278824
9162,9,2021/09/26 00:00:00+00,0,139,123,52,85455,278825
9162,9,2021/09/27 00:00:00+00,0,274,180,99,85729,278826
9162,9,2021/09/28 00:00:00+00,0,379,169,169,86108,278827
9162,9,2021/09/29 00:00:00+00,0,271,152,121,86379,278828
9162,9,2021/09/30 00:00:00+00,0,244,131,101,86623,278829
9162,9,2021/10/01 00:00:00+00,0,281,147,118,86904,278830
9162,9,2021/10/02 00:00:00+00,0,171,129,71,87075,278831
9162,9,2021/10/03 00:00:00+00,0,132,112,56,87207,278832
9162,9,2021/10/04 00:00:00+00,0,236,168,94,87443,278833
9162,9,2021/10/05 00:00:00+00,0,320,168,139,87763,278834
9162,9,2021/10/06 00:00:00+00,0,295,132,122,88058,278835
9162,9,2021/10/07 00:00:00+00,0,291,117,123,88349,278836
9162,9,2021/10/08 00:00:00+00,0,226,139,102,88575,278837
9162,9,2021/10/09 00:00:00+00,0,190,148,85,88765,278838
9162,9,2021/10/10 00:00:00+00,0,92,148,31,88857,278839
9162,9,2021/10/11 00:00:00+00,0,164,195,65,89021,278840
9162,9,2021/10/12 00:00:00+00,0,358,207,115,89379,278841
9162,9,2021/10/13 00:00:00+00,0,333,176,122,89712,278842
9162,9,2021/10/14 00:00:00+00,0,328,196,131,90040,278843
9162,9,2021/10/15 00:00:00+00,0,396,231,173,90436,278844
9162,9,2021/10/16 00:00:00+00,0,246,177,113,90682,278845
9162,9,2021/10/17 00:00:00+00,0,132,179,53,90814,278846
9162,9,2021/10/18 00:00:00+00,0,353,238,175,91167,278847
9162,9,2021/10/19 00:00:00+00,0,596,223,289,91763,278848
9162,9,2021/10/20 00:00:00+00,0,425,246,196,92188,278849
9162,9,2021/10/21 00:00:00+00,0,522,202,258,92710,278850
9162,9,2022/03/21 00:00:00+00,0,4072,1206,3200,401369,278851
9162,9,2021/10/22 00:00:00+00,0,511,217,265,93221,278852
9162,9,2022/01/30 00:00:00+00,0,3788,1451,2239,219560,278853
9162,9,2021/05/25 00:00:00+00,0,91,45,40,72165,278854
9162,9,2021/04/05 00:00:00+00,0,88,135,48,60077,278855
9162,9,2021/05/26 00:00:00+00,0,103,49,28,72268,278856
9162,9,2022/01/31 00:00:00+00,0,5182,1718,3051,224742,278857
9162,9,2021/10/23 00:00:00+00,0,357,213,171,93578,278858
9162,9,2021/05/27 00:00:00+00,0,63,46,26,72331,278859
9162,9,2022/03/22 00:00:00+00,0,4697,1023,3533,406066,278860
9162,9,2022/02/01 00:00:00+00,0,4854,1753,3076,229596,278861
9162,9,2021/10/24 00:00:00+00,0,176,218,92,93754,278862
9162,9,2021/05/28 00:00:00+00,0,94,40,32,72425,278863
9162,9,2022/03/23 00:00:00+00,0,5216,883,3867,411282,278864
9162,9,2022/02/02 00:00:00+00,0,5834,1434,3649,235430,278865
9162,9,2021/10/25 00:00:00+00,0,456,278,230,94210,278866
9162,9,2021/05/29 00:00:00+00,0,39,27,18,72464,278867
9162,9,2022/03/24 00:00:00+00,0,5225,776,3933,416507,278868
9162,9,2022/02/03 00:00:00+00,0,7445,1247,4934,242875,278869
9162,9,2021/10/26 00:00:00+00,0,762,296,374,94972,278870
9162,9,2021/05/30 00:00:00+00,0,45,22,21,72509,278871
9162,9,2022/03/25 00:00:00+00,0,4157,758,3190,420664,278872
9162,9,2022/02/04 00:00:00+00,0,6164,1131,4188,249039,278873
9162,9,2021/10/27 00:00:00+00,0,551,285,264,95523,278874
9162,9,2021/05/31 00:00:00+00,0,45,29,15,72554,278875
9162,9,2022/03/26 00:00:00+00,0,2814,811,2197,423478,278876
9162,9,2022/02/05 00:00:00+00,0,3459,1102,2382,252498,278877
9162,9,2021/10/28 00:00:00+00,0,580,294,290,96103,278878
9162,9,2021/07/14 00:00:00+00,0,49,43,8,73995,278879
9162,9,2021/06/01 00:00:00+00,0,93,26,45,72647,278880
9162,9,2021/04/06 00:00:00+00,0,265,143,148,60342,278881
9162,9,2021/12/11 00:00:00+00,0,387,185,200,135219,278882
9162,9,2022/03/27 00:00:00+00,0,3271,848,2506,426749,278883
9162,9,2022/02/06 00:00:00+00,0,4216,1049,2826,256714,278884
9162,9,2021/10/29 00:00:00+00,0,659,280,304,96762,278885
9162,9,2021/06/02 00:00:00+00,0,63,35,30,72710,278886
9162,9,2021/07/15 00:00:00+00,0,53,28,9,74048,278887
9162,9,2021/04/07 00:00:00+00,0,426,131,239,60768,278888
9162,9,2021/12/12 00:00:00+00,0,266,194,161,135485,278889
9162,9,2022/03/28 00:00:00+00,0,4666,880,3497,431415,278890
9162,9,2022/02/07 00:00:00+00,0,4261,1128,2909,260975,278891
9162,9,2021/10/30 00:00:00+00,0,297,336,145,97059,278892
9162,9,2021/06/03 00:00:00+00,0,31,24,17,72741,278893
9162,9,2021/07/16 00:00:00+00,0,48,42,7,74096,278894
9162,9,2021/04/08 00:00:00+00,0,348,119,197,61116,278895
9162,9,2021/12/13 00:00:00+00,0,395,239,217,135880,278896
9162,9,2022/03/29 00:00:00+00,0,4840,811,3635,436255,278897
9162,9,2022/02/08 00:00:00+00,0,5199,965,3566,266174,278898
9162,9,2021/10/31 00:00:00+00,0,249,274,117,97308,278899
9162,9,2021/06/04 00:00:00+00,0,39,32,13,72780,278900
9162,9,2021/07/17 00:00:00+00,0,20,30,7,74116,278901
9162,9,2021/04/09 00:00:00+00,0,304,132,178,61420,278902
9162,9,2021/12/14 00:00:00+00,0,765,231,418,136645,278903
9162,9,2022/03/30 00:00:00+00,0,5183,648,3972,441438,278904
9162,9,2022/02/09 00:00:00+00,0,5066,842,3620,271240,278905
9162,9,2021/11/01 00:00:00+00,0,326,412,146,97634,278906
9162,9,2021/06/05 00:00:00+00,0,56,22,16,72836,278907
9162,9,2021/07/18 00:00:00+00,0,19,34,4,74135,278908
9162,9,2021/04/10 00:00:00+00,0,282,157,162,61702,278909
9162,9,2021/12/15 00:00:00+00,0,636,211,372,137281,278910
9162,9,2022/03/31 00:00:00+00,0,4012,485,3062,445450,278911
9162,9,2022/02/10 00:00:00+00,0,4675,726,3504,275915,278912
9162,9,2021/11/02 00:00:00+00,0,673,461,312,98307,278913
9162,9,2021/06/06 00:00:00+00,0,20,35,5,72856,278914
9162,9,2021/07/19 00:00:00+00,0,57,62,11,74192,278915
9162,9,2021/04/11 00:00:00+00,0,245,114,142,61947,278916
9162,9,2021/12/16 00:00:00+00,0,476,171,286,137757,278917
9162,9,2022/04/01 00:00:00+00,0,2926,554,2248,448376,278918
9162,9,2022/02/11 00:00:00+00,0,3746,824,2845,279661,278919
9162,9,2021/11/03 00:00:00+00,0,874,442,368,99181,278920
9162,9,2021/06/07 00:00:00+00,0,51,33,17,72907,278921
9162,9,2021/07/20 00:00:00+00,0,56,68,10,74248,278922
9162,9,2021/04/12 00:00:00+00,0,292,156,172,62239,278923
9162,9,2021/12/17 00:00:00+00,0,628,175,366,138385,278924
9162,9,2022/04/02 00:00:00+00,0,1843,472,1429,450219,278925
9162,9,2022/02/12 00:00:00+00,0,1661,844,1230,281322,278926
9162,9,2021/11/04 00:00:00+00,0,423,381,222,99604,278927
9162,9,2021/06/08 00:00:00+00,0,69,22,28,72976,278928
9162,9,2021/07/21 00:00:00+00,0,68,49,7,74316,278929
9162,9,2021/04/13 00:00:00+00,0,471,121,295,62710,278930
9162,9,2021/12/18 00:00:00+00,0,225,188,136,138610,278931
9162,9,2022/04/03 00:00:00+00,0,1584,499,1281,451803,278932
9162,9,2022/02/13 00:00:00+00,0,2025,823,1449,283347,278933
9162,9,2021/11/05 00:00:00+00,0,243,403,109,99847,278934
9162,9,2021/06/09 00:00:00+00,0,43,27,13,73019,278935
9162,9,2021/07/22 00:00:00+00,0,69,41,11,74385,278936
9162,9,2021/04/14 00:00:00+00,0,523,140,349,63233,278937
9162,9,2021/12/19 00:00:00+00,0,353,175,206,138963,278938
9162,9,2022/04/04 00:00:00+00,0,2010,588,1550,453813,278939
9162,9,2022/02/14 00:00:00+00,0,2562,1065,1727,285909,278940
9162,9,2021/11/06 00:00:00+00,0,118,378,60,99965,278941
9162,9,2021/06/10 00:00:00+00,0,56,26,20,73075,278942
9162,9,2021/07/23 00:00:00+00,0,62,45,8,74447,278943
9162,9,2021/04/15 00:00:00+00,0,401,133,233,63634,278944
9162,9,2021/12/20 00:00:00+00,0,350,214,211,139313,278945
9162,9,2022/04/05 00:00:00+00,0,2693,515,2061,456506,278946
9162,9,2022/02/15 00:00:00+00,0,3684,966,2652,289593,278947
9162,9,2021/11/07 00:00:00+00,0,83,374,37,100048,278948
9162,9,2021/06/11 00:00:00+00,0,21,20,10,73096,278949
9162,9,2021/07/24 00:00:00+00,0,39,41,8,74486,278950
9162,9,2021/04/16 00:00:00+00,0,389,150,240,64023,278951
9162,9,2021/12/21 00:00:00+00,0,641,189,358,139954,278952
9162,9,2022/04/06 00:00:00+00,0,3494,383,2764,460000,278953
9162,9,2022/02/16 00:00:00+00,0,4646,873,3360,294239,278954
9162,9,2021/11/08 00:00:00+00,0,282,501,157,100330,278955
9162,9,2021/11/09 00:00:00+00,0,469,498,266,100799,278956
9162,9,2021/11/10 00:00:00+00,0,841,468,464,101640,278957
9162,9,2021/11/11 00:00:00+00,0,1079,479,547,102719,278958
9162,9,2021/11/12 00:00:00+00,0,1313,495,724,104032,278959
9162,9,2021/11/13 00:00:00+00,0,1120,473,660,105152,278960
9162,9,2021/11/14 00:00:00+00,0,1235,491,687,106387,278961
9162,9,2021/11/15 00:00:00+00,0,1200,661,701,107587,278962
9162,9,2021/11/16 00:00:00+00,0,2189,581,1134,109776,278963
9162,9,2021/11/17 00:00:00+00,0,3308,482,1736,113084,278964
9162,9,2021/11/18 00:00:00+00,0,1477,477,832,114561,278965
9162,9,2021/11/19 00:00:00+00,0,1225,544,689,115786,278966
9162,9,2021/11/20 00:00:00+00,0,680,508,367,116466,278967
9162,9,2021/11/21 00:00:00+00,0,973,438,538,117439,278968
9162,9,2021/11/22 00:00:00+00,0,689,478,394,118128,278969
9162,9,2021/11/23 00:00:00+00,0,1446,488,819,119574,278970
9162,9,2021/11/24 00:00:00+00,0,1573,442,932,121147,278971
9162,9,2021/11/25 00:00:00+00,0,1352,399,744,122499,278972
9162,9,2021/11/26 00:00:00+00,0,781,404,429,123280,278973
9162,9,2021/11/27 00:00:00+00,0,829,391,467,124109,278974
9162,9,2021/11/28 00:00:00+00,0,782,305,454,124891,278975
9162,9,2021/11/29 00:00:00+00,0,572,405,307,125463,278976
9162,9,2021/11/30 00:00:00+00,0,1108,417,654,126571,278977
9162,9,2021/12/01 00:00:00+00,0,1500,442,848,128071,278978
9162,9,2021/12/02 00:00:00+00,0,1108,323,608,129179,278979
9162,9,2021/12/03 00:00:00+00,0,924,330,497,130103,278980
9162,9,2021/12/04 00:00:00+00,0,549,300,335,130652,278981
9162,9,2021/12/05 00:00:00+00,0,597,262,315,131249,278982
9162,9,2021/12/06 00:00:00+00,0,339,331,189,131588,278983
9162,9,2021/12/07 00:00:00+00,0,1217,266,671,132805,278984
9162,9,2021/12/08 00:00:00+00,0,833,254,455,133638,278985
9162,9,2021/12/09 00:00:00+00,0,641,199,391,134279,278986
9162,9,2021/12/10 00:00:00+00,0,553,251,315,134832,278987
9162,9,2021/12/22 00:00:00+00,0,543,180,307,140497,278988
9162,9,2022/04/07 00:00:00+00,0,3288,312,2574,463288,278989
9162,9,2021/06/12 00:00:00+00,0,26,25,9,73122,278990
9162,9,2021/12/23 00:00:00+00,0,414,234,238,140911,278991
9162,9,2022/04/08 00:00:00+00,0,2611,280,2118,465899,278992
9162,9,2021/04/17 00:00:00+00,0,269,181,169,64292,278993
9162,9,2021/07/25 00:00:00+00,0,18,39,3,74504,278994
9162,9,2021/06/13 00:00:00+00,0,16,14,7,73138,278995
9162,9,2021/12/24 00:00:00+00,0,348,240,195,141259,278996
9162,9,2022/04/09 00:00:00+00,0,1616,231,1322,467515,278997
9162,9,2021/04/18 00:00:00+00,0,184,131,106,64476,278998
9162,9,2021/07/26 00:00:00+00,0,67,64,10,74571,278999
9162,9,2022/02/17 00:00:00+00,0,4010,771,2916,298249,279000
9162,9,2021/06/14 00:00:00+00,0,39,20,10,73177,279001
9162,9,2021/12/25 00:00:00+00,0,12,242,6,141271,279002
9162,9,2022/04/10 00:00:00+00,0,1359,171,1086,468874,279003
9162,9,2021/04/19 00:00:00+00,0,247,183,128,64723,279004
9162,9,2021/07/27 00:00:00+00,0,88,49,15,74659,279005
9162,9,2022/02/18 00:00:00+00,0,3315,816,2422,301564,279006
9162,9,2021/06/15 00:00:00+00,0,47,15,12,73224,279007
9162,9,2021/12/26 00:00:00+00,0,414,281,225,141685,279008
9162,9,2022/04/11 00:00:00+00,0,1927,139,1598,470801,279009
9162,9,2021/04/20 00:00:00+00,0,538,171,293,65261,279010
9162,9,2021/07/28 00:00:00+00,0,59,39,18,74718,279011
9162,9,2022/02/19 00:00:00+00,0,1582,847,1106,303146,279012
9162,9,2021/06/16 00:00:00+00,0,27,17,8,73251,279013
9162,9,2021/12/27 00:00:00+00,0,644,391,319,142329,279014
9162,9,2022/04/12 00:00:00+00,0,2555,75,2209,473356,279015
9162,9,2021/04/21 00:00:00+00,0,421,189,204,65682,279016
9162,9,2021/07/29 00:00:00+00,0,71,39,19,74789,279017
9162,9,2022/02/20 00:00:00+00,0,1993,790,1325,305139,279018
9162,9,2021/06/17 00:00:00+00,0,29,15,16,73280,279019
9162,9,2021/12/28 00:00:00+00,0,613,352,302,142942,279020
9162,9,2022/04/13 00:00:00+00,0,2183,16,1994,475539,279021
9162,9,2021/04/22 00:00:00+00,0,369,162,181,66051,279022
9162,9,2021/07/30 00:00:00+00,0,63,42,16,74852,279023
9162,9,2022/02/21 00:00:00+00,0,2426,924,1630,307565,279024
9162,9,2021/06/18 00:00:00+00,0,21,17,9,73301,279025
9162,9,2021/12/29 00:00:00+00,0,624,332,332,143566,279026
9162,9,2022/04/14 00:00:00+00,0,2000,17,1950,477539,279027
9162,9,2021/04/23 00:00:00+00,0,346,150,174,66397,279028
9162,9,2021/07/31 00:00:00+00,0,59,48,12,74911,279029
9162,9,2022/02/22 00:00:00+00,0,3498,880,2427,311063,279030
9162,9,2021/06/19 00:00:00+00,0,15,14,3,73316,279031
9162,9,2021/12/30 00:00:00+00,0,682,335,312,144248,279032
9162,9,2022/04/15 00:00:00+00,0,1318,9,1300,478857,279033
9162,9,2021/04/24 00:00:00+00,0,165,154,79,66562,279034
9162,9,2021/08/01 00:00:00+00,0,25,38,5,74936,279035
9162,9,2022/02/23 00:00:00+00,0,3576,713,2560,314639,279036
9162,9,2021/06/20 00:00:00+00,0,7,15,2,73323,279037
9162,9,2021/12/31 00:00:00+00,0,421,319,213,144669,279038
9162,9,2022/04/16 00:00:00+00,0,1114,13,1099,479971,279039
9162,9,2021/04/25 00:00:00+00,0,190,132,69,66752,279040
9162,9,2021/08/02 00:00:00+00,0,56,61,13,74992,279041
9162,9,2022/02/24 00:00:00+00,0,3584,605,2679,318223,279042
9162,9,2021/06/21 00:00:00+00,0,11,25,3,73334,279043
9162,9,2022/01/01 00:00:00+00,0,8,471,5,144677,279044
9162,9,2022/04/17 00:00:00+00,0,969,9,960,480940,279045
9162,9,2021/04/26 00:00:00+00,0,302,191,136,67054,279046
9162,9,2021/08/03 00:00:00+00,0,62,50,9,75054,279047
9162,9,2022/02/25 00:00:00+00,0,2867,671,2066,321090,279048
9162,9,2021/06/22 00:00:00+00,0,43,15,7,73377,279049
9162,9,2022/01/02 00:00:00+00,0,617,591,292,145294,279050
9162,9,2022/04/18 00:00:00+00,0,915,9,905,481855,279051
9162,9,2021/04/27 00:00:00+00,0,430,184,185,67484,279052
9162,9,2021/08/04 00:00:00+00,0,67,59,13,75121,279053
9162,9,2022/02/26 00:00:00+00,0,1449,690,1026,322539,279054
9162,9,2022/04/19 00:00:00+00,0,1493,12,1479,483348,279055
9162,9,2021/06/23 00:00:00+00,0,23,21,5,73400,279056
9162,9,2021/04/28 00:00:00+00,0,400,129,192,67884,279057
9162,9,2021/08/05 00:00:00+00,0,46,44,9,75167,279058
9162,9,2022/01/03 00:00:00+00,0,805,839,410,146099,279059
9162,9,2022/02/27 00:00:00+00,0,1815,694,1342,324354,279060
9162,9,2022/04/20 00:00:00+00,0,1987,14,1978,485335,279061
9162,9,2021/06/24 00:00:00+00,0,22,17,6,73422,279062
9162,9,2021/04/29 00:00:00+00,0,301,92,138,68185,279063
9162,9,2021/08/06 00:00:00+00,0,104,46,22,75271,279064
9162,9,2022/01/04 00:00:00+00,0,1073,644,530,147172,279065
9162,9,2022/02/28 00:00:00+00,0,2477,844,1713,326831,279066
9162,9,2022/04/21 00:00:00+00,0,1751,16,1735,487086,279067
9162,9,2021/06/25 00:00:00+00,0,21,11,5,73443,279068
9162,9,2021/04/30 00:00:00+00,0,274,145,130,68459,279069
9162,9,2021/08/07 00:00:00+00,0,46,47,9,75317,279070
9162,9,2022/01/05 00:00:00+00,0,1344,649,718,148516,279071
9162,9,2022/03/01 00:00:00+00,0,1971,978,1357,328802,279072
9162,9,2022/04/22 00:00:00+00,0,1285,18,1268,488371,279073
9162,9,2021/06/26 00:00:00+00,0,16,12,4,73459,279074
9162,9,2021/05/01 00:00:00+00,0,185,137,101,68644,279075
9162,9,2021/08/08 00:00:00+00,0,19,58,5,75336,279076
9162,9,2022/01/06 00:00:00+00,0,1278,652,692,149794,279077
9162,9,2022/03/02 00:00:00+00,0,3984,870,2827,332786,279078
9162,9,2022/04/23 00:00:00+00,0,1112,12,1104,489483,279079
9162,9,2021/06/27 00:00:00+00,0,18,12,4,73477,279080
9162,9,2021/06/28 00:00:00+00,0,32,34,11,73509,279081
9162,9,2021/06/29 00:00:00+00,0,33,25,8,73542,279082
9162,9,2021/06/30 00:00:00+00,0,38,39,7,73580,279083
9162,9,2021/07/01 00:00:00+00,0,22,14,6,73602,279084
9162,9,2021/07/02 00:00:00+00,0,33,25,6,73635,279085
9162,9,2021/07/03 00:00:00+00,0,18,20,7,73653,279086
9162,9,2021/07/04 00:00:00+00,0,11,17,3,73664,279087
9162,9,2021/07/05 00:00:00+00,0,22,27,1,73686,279088
9162,9,2021/07/06 00:00:00+00,0,34,43,7,73720,279089
9162,9,2021/07/07 00:00:00+00,0,22,21,3,73742,279090
9162,9,2021/07/08 00:00:00+00,0,45,32,11,73787,279091
9162,9,2021/07/09 00:00:00+00,0,37,24,4,73824,279092
9162,9,2021/07/10 00:00:00+00,0,20,20,6,73844,279093
9162,9,2021/07/11 00:00:00+00,0,14,38,1,73858,279094
9162,9,2021/07/12 00:00:00+00,0,36,41,11,73894,279095
9162,9,2021/07/13 00:00:00+00,0,52,33,12,73946,279096
9162,9,2022/01/07 00:00:00+00,0,1464,681,772,151258,279097
9162,9,2022/03/03 00:00:00+00,0,3326,828,2400,336112,279098
9162,9,2022/01/08 00:00:00+00,0,1094,817,612,152352,279099
9162,9,2021/08/09 00:00:00+00,0,67,80,15,75403,279100
9162,9,2022/03/04 00:00:00+00,0,2733,856,2006,338845,279101
9162,9,2022/01/09 00:00:00+00,0,1032,869,564,153384,279102
9162,9,2021/08/10 00:00:00+00,0,116,60,19,75519,279103
9162,9,2021/05/02 00:00:00+00,0,180,111,71,68824,279104
9162,9,2022/03/05 00:00:00+00,0,1429,924,1007,340274,279105
9162,9,2022/01/10 00:00:00+00,0,1748,1142,1022,155132,279106
9162,9,2021/08/11 00:00:00+00,0,78,70,12,75597,279107
9162,9,2021/05/03 00:00:00+00,0,175,148,60,68999,279108
9162,9,2022/03/06 00:00:00+00,0,2289,1033,1606,342563,279109
9162,9,2022/01/11 00:00:00+00,0,2316,1061,1257,157448,279110
9162,9,2022/04/24 00:00:00+00,0,1136,12,1130,490619,279111
9162,9,2021/08/12 00:00:00+00,0,72,74,15,75669,279112
9162,9,2021/05/04 00:00:00+00,0,298,133,98,69297,279113
9162,9,2022/03/07 00:00:00+00,0,2630,1337,1904,345193,279114
9162,9,2022/01/12 00:00:00+00,0,2373,964,1338,159821,279115
9162,9,2022/04/25 00:00:00+00,0,1333,36,1323,491952,279116
9162,9,2021/08/13 00:00:00+00,0,59,79,8,75728,279117
9162,9,2021/05/05 00:00:00+00,0,354,139,134,69651,279118
9162,9,2022/03/08 00:00:00+00,0,3710,1309,2617,348903,279119
9162,9,2022/01/13 00:00:00+00,0,2220,1028,1202,162041,279120
9162,9,2022/04/26 00:00:00+00,0,1888,34,1863,493840,279121
9162,9,2021/08/14 00:00:00+00,0,77,73,17,75805,279122
9162,9,2021/05/06 00:00:00+00,0,261,103,116,69912,279123
9162,9,2022/03/09 00:00:00+00,0,4278,1013,3105,353181,279124
9162,9,2022/01/14 00:00:00+00,0,2236,1106,1228,164277,279125
9162,9,2022/04/27 00:00:00+00,0,1601,58,1586,495441,279126
9162,9,2021/08/15 00:00:00+00,0,46,80,8,75851,279127
9162,9,2021/05/07 00:00:00+00,0,181,99,70,70093,279128
9162,9,2022/03/10 00:00:00+00,0,4488,1007,3303,357669,279129
9162,9,2022/01/15 00:00:00+00,0,1809,1337,1048,166086,279130
9162,9,2022/04/28 00:00:00+00,0,1327,88,1306,496768,279131
9162,9,2021/08/16 00:00:00+00,0,116,122,23,75967,279132
9162,9,2021/05/08 00:00:00+00,0,126,93,47,70219,279133
9162,9,2022/03/11 00:00:00+00,0,3995,1000,2926,361664,279134
9162,9,2022/01/16 00:00:00+00,0,1773,1547,1055,167859,279135
9162,9,2022/04/29 00:00:00+00,0,961,112,908,497729,279136
9162,9,2021/08/17 00:00:00+00,0,149,86,35,76116,279137
9162,9,2021/05/09 00:00:00+00,0,70,76,27,70289,279138
9162,9,2022/03/12 00:00:00+00,0,3154,1038,2377,364818,279139
9162,9,2022/01/17 00:00:00+00,0,2247,1816,1240,170106,279140
9162,9,2022/04/30 00:00:00+00,0,1149,189,1094,498878,279141
9162,9,2021/08/18 00:00:00+00,0,142,101,36,76258,279142
9162,9,2021/05/10 00:00:00+00,0,131,108,48,70420,279143
9162,9,2022/01/18 00:00:00+00,0,3326,1836,1823,173432,279144
9162,9,2022/03/13 00:00:00+00,0,3495,1081,2561,368313,279145
9162,9,2022/05/01 00:00:00+00,0,863,296,849,499741,279146
9162,9,2021/08/19 00:00:00+00,0,122,84,39,76380,279147
9162,9,2021/05/11 00:00:00+00,0,251,91,88,70671,279148
9162,9,2022/01/19 00:00:00+00,0,3341,1790,1772,176773,279149
9162,9,2022/03/14 00:00:00+00,0,3885,1317,2841,372198,279150
9162,9,2022/05/02 00:00:00+00,0,960,370,926,500701,279151
9162,9,2021/08/20 00:00:00+00,0,178,83,67,76558,279152
9162,9,2021/05/12 00:00:00+00,0,191,81,70,70862,279153
9162,9,2022/01/20 00:00:00+00,0,4228,1573,2312,181001,279154
9162,9,2022/03/15 00:00:00+00,0,4540,1229,3241,376738,279155
9162,9,2022/05/03 00:00:00+00,0,1605,470,1243,502306,279156
9162,9,2021/08/21 00:00:00+00,0,128,109,51,76686,279157
9162,9,2021/05/13 00:00:00+00,0,109,72,39,70971,279158
9162,9,2022/01/21 00:00:00+00,0,4631,1790,2658,185632,279159
9162,9,2022/03/16 00:00:00+00,0,4807,1047,3517,381545,279160
9162,9,2022/05/04 00:00:00+00,0,1711,408,1158,504017,279161
9162,9,2021/08/22 00:00:00+00,0,68,100,19,76754,279162
9162,9,2021/05/14 00:00:00+00,0,131,79,43,71102,279163
9162,9,2022/01/22 00:00:00+00,0,2411,1780,1311,188043,279164
9162,9,2022/03/17 00:00:00+00,0,4668,898,3555,386213,279165
9162,9,2022/05/05 00:00:00+00,0,1462,342,1007,505479,279166
9162,9,2021/08/23 00:00:00+00,0,182,133,61,76936,279167
9162,9,2021/05/15 00:00:00+00,0,58,67,20,71160,279168
9162,9,2022/01/23 00:00:00+00,0,3481,1884,2035,191524,279169
9162,9,2022/03/18 00:00:00+00,0,4370,953,3359,390583,279170
9162,9,2022/05/06 00:00:00+00,0,1266,357,859,506745,279171
9162,9,2021/08/24 00:00:00+00,0,272,103,104,77208,279172
9162,9,2021/05/16 00:00:00+00,0,100,81,36,71260,279173
9162,9,2022/01/24 00:00:00+00,0,5189,2127,2902,196713,279174
9162,9,2022/03/19 00:00:00+00,0,2821,909,2169,393404,279175
9162,9,2022/05/07 00:00:00+00,0,923,370,612,507668,279176
9162,9,2021/08/25 00:00:00+00,0,249,135,137,77457,279177
9162,9,2021/05/17 00:00:00+00,0,119,76,52,71379,279178
9162,9,2022/01/25 00:00:00+00,0,4822,1959,2579,201535,279179
9162,9,2022/03/20 00:00:00+00,0,3893,983,2962,397297,279180
9162,9,2022/05/08 00:00:00+00,0,626,435,385,508294,279181
9162,9,2021/08/26 00:00:00+00,0,270,109,133,77727,279182
9162,9,2021/05/18 00:00:00+00,0,163,65,59,71542,279183
9162,9,2022/01/26 00:00:00+00,0,4478,1699,2436,206013,279184
9162,9,2022/05/09 00:00:00+00,0,1001,441,608,509295,279185
9162,9,2021/08/27 00:00:00+00,0,169,107,99,77896,279186
9162,9,2021/05/19 00:00:00+00,0,143,66,51,71685,279187
9162,9,2022/01/27 00:00:00+00,0,3762,1524,2297,209775,279188
9162,9,2021/08/28 00:00:00+00,0,201,123,100,78097,279189
9162,9,2021/05/20 00:00:00+00,0,155,42,55,71840,279190
9162,9,2022/01/28 00:00:00+00,0,3812,1534,2315,213587,279191
9162,9,2021/08/29 00:00:00+00,0,120,104,67,78217,279192
9162,9,2021/05/21 00:00:00+00,0,83,38,35,71923,279193
9162,9,2022/01/29 00:00:00+00,0,2185,1525,1323,215772,279194
9162,9,2021/08/30 00:00:00+00,0,279,137,134,78496,279195
9162,9,2021/05/22 00:00:00+00,0,60,49,23,71983,279196
9162,9,2021/08/31 00:00:00+00,0,338,129,178,78834,279197
9162,9,2021/05/23 00:00:00+00,0,37,48,13,72020,279198
9162,9,2021/09/01 00:00:00+00,0,306,123,188,79140,279199
9162,9,2021/05/24 00:00:00+00,0,54,56,32,72074,279200
9162,9,2022/06/29 00:00:00+00,0,2213,456,1496,553591,279201
9162,9,2022/10/07 00:00:00+00,0,2839,59,2786,666793,279202
9162,9,2023/04/25 00:00:00+00,0,38,1,37,720871,279203
9162,9,2022/06/30 00:00:00+00,0,2262,414,1503,555853,279204
9162,9,2022/10/08 00:00:00+00,0,1560,51,1546,668353,279205
9162,9,2023/01/15 00:00:00+00,0,0,2,0,708709,279206
9162,9,2022/07/01 00:00:00+00,0,1617,502,1122,557470,279207
9162,9,2023/04/26 00:00:00+00,0,21,0,21,720892,279208
9162,9,2022/10/09 00:00:00+00,0,2268,40,2224,670621,279209
9162,9,2023/03/06 00:00:00+00,0,226,8,210,718128,279210
9162,9,2023/01/16 00:00:00+00,0,286,9,268,708995,279211
9162,9,2022/07/02 00:00:00+00,0,21,502,12,557491,279212
9162,9,2023/04/27 00:00:00+00,0,31,1,30,720923,279213
9162,9,2022/10/10 00:00:00+00,0,3220,52,3131,673841,279214
9162,9,2023/03/07 00:00:00+00,0,127,6,120,718255,279215
9162,9,2023/01/17 00:00:00+00,0,156,5,149,709151,279216
9162,9,2022/07/03 00:00:00+00,0,26,582,16,557517,279217
9162,9,2023/04/28 00:00:00+00,0,22,0,21,720945,279218
9162,9,2022/10/11 00:00:00+00,0,2742,44,2659,676583,279219
9162,9,2023/03/08 00:00:00+00,0,129,4,124,718384,279220
9162,9,2023/01/18 00:00:00+00,0,180,9,167,709331,279221
9162,9,2022/07/04 00:00:00+00,0,2780,702,1897,560297,279222
9162,9,2023/04/29 00:00:00+00,0,0,3,0,720945,279223
9162,9,2022/10/12 00:00:00+00,0,1981,36,1909,678564,279224
9162,9,2023/03/09 00:00:00+00,0,113,4,108,718497,279225
9162,9,2023/01/19 00:00:00+00,0,118,5,111,709449,279226
9162,9,2022/07/05 00:00:00+00,1,2765,591,1900,563063,279227
9162,9,2023/04/30 00:00:00+00,0,0,1,0,720945,279228
9162,9,2022/10/13 00:00:00+00,0,1576,37,1529,680140,279229
9162,9,2023/03/10 00:00:00+00,0,118,3,111,718615,279230
9162,9,2023/01/20 00:00:00+00,0,142,11,136,709591,279231
9162,9,2022/07/06 00:00:00+00,1,2391,488,1681,565455,279232
9162,9,2023/05/01 00:00:00+00,0,0,1,0,720945,279233
9162,9,2022/10/14 00:00:00+00,0,1335,25,1292,681475,279234
9162,9,2023/03/11 00:00:00+00,0,0,6,0,718615,279235
9162,9,2022/05/10 00:00:00+00,0,1505,432,992,510800,279236
9162,9,2023/01/21 00:00:00+00,0,0,2,0,709591,279237
9162,9,2022/07/07 00:00:00+00,0,2806,492,1965,568261,279238
9162,9,2023/05/02 00:00:00+00,0,52,1,51,720997,279239
9162,9,2022/10/15 00:00:00+00,0,973,18,950,682448,279240
9162,9,2023/03/12 00:00:00+00,0,0,2,0,718615,279241
9162,9,2023/01/22 00:00:00+00,0,0,6,0,709591,279242
9162,9,2022/05/11 00:00:00+00,0,1540,314,1002,512340,279243
9162,9,2022/07/08 00:00:00+00,0,1768,431,1297,570029,279244
9162,9,2023/05/03 00:00:00+00,0,37,0,32,721034,279245
9162,9,2022/08/18 00:00:00+00,0,622,75,506,618961,279246
9162,9,2022/10/16 00:00:00+00,0,2,23,2,682450,279247
9162,9,2023/03/13 00:00:00+00,0,168,4,163,718783,279248
9162,9,2023/01/23 00:00:00+00,0,245,9,228,709836,279249
9162,9,2022/05/12 00:00:00+00,0,1272,315,893,513612,279250
9162,9,2022/07/09 00:00:00+00,0,36,472,29,570065,279251
9162,9,2023/05/04 00:00:00+00,35,0,0,35,721069,279252
9162,9,2022/08/19 00:00:00+00,0,492,83,415,619453,279253
9162,9,2022/10/17 00:00:00+00,0,1259,23,1211,683709,279254
9162,9,2023/03/14 00:00:00+00,0,129,4,126,718912,279255
9162,9,2023/01/24 00:00:00+00,0,200,7,190,710036,279256
9162,9,2022/05/13 00:00:00+00,0,1022,257,694,514634,279257
9162,9,2022/07/10 00:00:00+00,0,26,569,17,570091,279258
9162,9,2022/08/20 00:00:00+00,0,1,60,1,619454,279260
9162,9,2022/10/18 00:00:00+00,0,1271,24,1242,684980,279261
9162,9,2023/03/15 00:00:00+00,0,123,4,118,719035,279262
9162,9,2023/01/25 00:00:00+00,0,184,7,178,710220,279263
9162,9,2022/05/14 00:00:00+00,0,796,265,499,515430,279264
9162,9,2022/07/11 00:00:00+00,0,2603,637,1860,572694,279265
9162,9,2022/08/21 00:00:00+00,0,1,82,0,619455,279267
9162,9,2022/10/19 00:00:00+00,0,961,21,933,685941,279268
9162,9,2023/03/16 00:00:00+00,0,106,4,100,719141,279269
9162,9,2023/01/26 00:00:00+00,0,188,8,181,710408,279270
9162,9,2022/05/15 00:00:00+00,0,559,287,338,515989,279271
9162,9,2022/07/12 00:00:00+00,0,2894,569,2131,575588,279272
9162,9,2022/11/26 00:00:00+00,0,18,6,18,697120,279273
9162,9,2022/08/22 00:00:00+00,0,747,93,578,620202,279275
9162,9,2022/10/20 00:00:00+00,0,719,9,691,686660,279276
9162,9,2023/03/17 00:00:00+00,0,78,6,73,719219,279277
9162,9,2023/01/27 00:00:00+00,0,154,11,141,710562,279278
9162,9,2022/05/16 00:00:00+00,0,814,276,510,516803,279279
9162,9,2022/07/13 00:00:00+00,0,2449,576,1770,578037,279280
9162,9,2022/11/27 00:00:00+00,0,0,10,0,697120,279281
9162,9,2022/08/23 00:00:00+00,0,649,80,529,620851,279283
9162,9,2022/10/21 00:00:00+00,0,660,8,649,687320,279284
9162,9,2023/03/18 00:00:00+00,0,0,3,0,719219,279285
9162,9,2023/01/28 00:00:00+00,0,0,4,0,710562,279286
9162,9,2022/05/17 00:00:00+00,0,942,249,637,517745,279287
9162,9,2022/07/14 00:00:00+00,0,2173,572,1535,580210,279288
9162,9,2022/11/28 00:00:00+00,0,519,4,496,697639,279289
9162,9,2022/08/24 00:00:00+00,0,493,97,409,621344,279291
9162,9,2022/10/22 00:00:00+00,0,439,8,435,687759,279292
9162,9,2023/03/19 00:00:00+00,0,0,6,0,719219,279293
9162,9,2023/01/29 00:00:00+00,0,0,8,0,710562,279294
9162,9,2022/05/18 00:00:00+00,0,891,231,616,518636,279295
9162,9,2022/07/15 00:00:00+00,0,2336,540,1702,582546,279296
9162,9,2022/11/29 00:00:00+00,0,307,7,299,697946,279297
9162,9,2022/08/25 00:00:00+00,0,537,80,417,621881,279299
9162,9,2022/10/23 00:00:00+00,0,0,11,0,687759,279300
9162,9,2023/03/20 00:00:00+00,0,168,3,156,719387,279301
9162,9,2023/01/30 00:00:00+00,0,378,12,363,710940,279302
9162,9,2022/05/19 00:00:00+00,0,866,203,584,519502,279303
9162,9,2022/07/16 00:00:00+00,0,5,552,4,582551,279304
9162,9,2022/11/30 00:00:00+00,0,269,7,264,698215,279305
9162,9,2022/08/26 00:00:00+00,0,380,83,315,622261,279307
9162,9,2023/03/21 00:00:00+00,0,127,3,121,719514,279308
9162,9,2022/10/24 00:00:00+00,0,716,24,693,688475,279309
9162,9,2022/05/20 00:00:00+00,0,772,184,500,520274,279310
9162,9,2023/01/31 00:00:00+00,0,313,8,298,711253,279311
9162,9,2022/07/17 00:00:00+00,0,8,614,5,582559,279312
9162,9,2022/12/01 00:00:00+00,0,281,9,271,698496,279313
9162,9,2022/08/27 00:00:00+00,0,1,72,1,622262,279315
9162,9,2023/03/22 00:00:00+00,0,69,2,67,719583,279316
9162,9,2022/10/25 00:00:00+00,0,703,10,694,689178,279317
9162,9,2022/05/21 00:00:00+00,0,439,177,274,520713,279318
9162,9,2023/02/01 00:00:00+00,0,221,12,214,711474,279319
9162,9,2022/07/18 00:00:00+00,0,2900,578,2097,585459,279320
9162,9,2022/12/02 00:00:00+00,0,197,3,192,698693,279322
9162,9,2023/03/23 00:00:00+00,0,87,3,84,719670,279323
9162,9,2022/08/28 00:00:00+00,0,0,88,0,622262,279324
9162,9,2022/10/26 00:00:00+00,0,534,10,518,689712,279325
9162,9,2023/02/02 00:00:00+00,0,231,10,220,711705,279326
9162,9,2022/07/19 00:00:00+00,0,3138,584,2133,588597,279327
9162,9,2022/05/22 00:00:00+00,0,313,194,182,521026,279328
9162,9,2022/12/03 00:00:00+00,0,0,8,0,698693,279330
9162,9,2022/08/29 00:00:00+00,0,920,80,694,623182,279331
9162,9,2022/10/27 00:00:00+00,0,473,10,460,690185,279332
9162,9,2023/03/24 00:00:00+00,0,91,0,88,719761,279333
9162,9,2023/02/03 00:00:00+00,0,216,12,208,711921,279334
9162,9,2023/02/04 00:00:00+00,0,0,8,0,711921,279335
9162,9,2023/02/05 00:00:00+00,0,0,6,0,711921,279336
9162,9,2023/02/06 00:00:00+00,0,363,12,346,712284,279337
9162,9,2023/02/07 00:00:00+00,0,296,12,282,712580,279338
9162,9,2023/02/08 00:00:00+00,0,347,14,333,712927,279339
9162,9,2023/02/09 00:00:00+00,0,285,7,271,713212,279340
9162,9,2023/02/10 00:00:00+00,0,280,11,268,713492,279341
9162,9,2023/02/11 00:00:00+00,0,0,7,0,713492,279342
9162,9,2023/02/12 00:00:00+00,0,1,16,0,713493,279343
9162,9,2023/02/13 00:00:00+00,0,469,20,446,713962,279344
9162,9,2023/02/14 00:00:00+00,0,352,3,326,714314,279345
9162,9,2023/02/15 00:00:00+00,0,307,11,303,714621,279346
9162,9,2023/02/16 00:00:00+00,0,280,8,269,714901,279347
9162,9,2023/02/17 00:00:00+00,0,215,10,207,715116,279348
9162,9,2023/02/18 00:00:00+00,0,0,10,0,715116,279349
9162,9,2023/02/19 00:00:00+00,0,0,15,0,715116,279350
9162,9,2023/02/20 00:00:00+00,0,491,24,457,715607,279351
9162,9,2023/02/21 00:00:00+00,0,238,14,225,715845,279352
9162,9,2023/02/22 00:00:00+00,0,398,12,370,716243,279353
9162,9,2023/02/23 00:00:00+00,0,266,12,253,716509,279354
9162,9,2023/02/24 00:00:00+00,0,230,4,220,716739,279355
9162,9,2023/02/25 00:00:00+00,0,0,5,0,716739,279356
9162,9,2023/02/26 00:00:00+00,0,0,8,0,716739,279357
9162,9,2023/02/27 00:00:00+00,0,269,9,252,717008,279358
9162,9,2023/02/28 00:00:00+00,0,304,11,289,717312,279359
9162,9,2023/03/01 00:00:00+00,0,303,8,293,717615,279360
9162,9,2023/03/02 00:00:00+00,0,168,4,156,717783,279361
9162,9,2023/03/03 00:00:00+00,0,119,5,117,717902,279362
9162,9,2023/03/04 00:00:00+00,0,0,5,0,717902,279363
9162,9,2023/03/05 00:00:00+00,0,0,7,0,717902,279364
9162,9,2022/08/30 00:00:00+00,0,630,78,503,623812,279365
9162,9,2022/07/20 00:00:00+00,0,3115,507,2228,591712,279366
9162,9,2023/03/25 00:00:00+00,0,0,2,0,719761,279368
9162,9,2022/07/21 00:00:00+00,0,2803,447,2056,594515,279369
9162,9,2022/08/31 00:00:00+00,0,509,66,415,624321,279371
9162,9,2023/03/26 00:00:00+00,0,0,0,0,719761,279372
9162,9,2022/07/22 00:00:00+00,0,2103,398,1461,596618,279373
9162,9,2022/09/01 00:00:00+00,0,407,62,331,624728,279375
9162,9,2023/03/27 00:00:00+00,0,106,4,100,719867,279376
9162,9,2022/12/04 00:00:00+00,0,0,11,0,698693,279377
9162,9,2022/05/23 00:00:00+00,0,542,186,341,521568,279378
9162,9,2022/07/23 00:00:00+00,0,8,381,6,596626,279379
9162,9,2022/09/02 00:00:00+00,0,354,56,296,625082,279381
9162,9,2023/03/28 00:00:00+00,0,53,3,50,719920,279382
9162,9,2022/12/05 00:00:00+00,0,453,7,441,699146,279383
9162,9,2022/05/24 00:00:00+00,0,777,228,530,522345,279384
9162,9,2022/07/24 00:00:00+00,0,18,322,15,596644,279385
9162,9,2022/09/03 00:00:00+00,0,9,78,8,625091,279387
9162,9,2023/03/29 00:00:00+00,0,61,2,57,719981,279388
9162,9,2022/12/06 00:00:00+00,0,392,13,380,699538,279389
9162,9,2022/05/25 00:00:00+00,0,590,214,357,522935,279390
9162,9,2022/07/25 00:00:00+00,0,2599,322,1912,599243,279391
9162,9,2022/09/04 00:00:00+00,0,8,69,5,625099,279393
9162,9,2023/03/30 00:00:00+00,0,68,5,65,720049,279394
9162,9,2022/12/07 00:00:00+00,0,320,16,307,699858,279395
9162,9,2022/05/26 00:00:00+00,0,451,170,289,523386,279396
9162,9,2022/10/28 00:00:00+00,0,303,9,292,690488,279397
9162,9,2022/07/26 00:00:00+00,0,2205,292,1536,601448,279399
9162,9,2022/09/05 00:00:00+00,0,858,87,696,625957,279400
9162,9,2023/03/31 00:00:00+00,0,28,2,28,720077,279401
9162,9,2022/12/08 00:00:00+00,0,289,9,276,700147,279402
9162,9,2022/05/27 00:00:00+00,0,333,168,187,523719,279403
9162,9,2022/07/27 00:00:00+00,0,2459,200,1842,603907,279404
9162,9,2022/10/29 00:00:00+00,0,310,5,302,690798,279405
9162,9,2022/09/06 00:00:00+00,0,628,95,530,626585,279407
9162,9,2023/04/01 00:00:00+00,0,0,3,0,720077,279408
9162,9,2022/12/09 00:00:00+00,0,284,9,279,700431,279409
9162,9,2022/05/28 00:00:00+00,0,547,186,322,524266,279410
9162,9,2022/07/28 00:00:00+00,0,1608,160,1202,605515,279411
9162,9,2022/10/30 00:00:00+00,0,0,10,0,690798,279412
9162,9,2022/09/07 00:00:00+00,0,479,81,394,627064,279414
9162,9,2023/04/02 00:00:00+00,0,0,3,0,720077,279415
9162,9,2022/12/10 00:00:00+00,0,0,12,0,700431,279416
9162,9,2022/05/29 00:00:00+00,0,313,192,180,524579,279417
9162,9,2022/07/29 00:00:00+00,0,1185,152,971,606700,279418
9162,9,2022/10/31 00:00:00+00,0,346,7,334,691144,279419
9162,9,2022/09/08 00:00:00+00,0,418,67,333,627482,279421
9162,9,2023/04/03 00:00:00+00,0,84,2,78,720161,279422
9162,9,2022/12/11 00:00:00+00,0,0,6,0,700431,279423
9162,9,2022/05/30 00:00:00+00,0,393,230,251,524972,279424
9162,9,2022/07/30 00:00:00+00,0,7,156,7,606707,279425
9162,9,2022/11/01 00:00:00+00,0,0,9,0,691144,279426
9162,9,2022/09/09 00:00:00+00,0,416,71,346,627898,279428
9162,9,2023/04/04 00:00:00+00,0,121,3,115,720282,279429
9162,9,2022/12/12 00:00:00+00,0,545,15,518,700976,279430
9162,9,2022/05/31 00:00:00+00,0,871,249,583,525843,279431
9162,9,2022/07/31 00:00:00+00,0,7,135,6,606714,279432
9162,9,2022/11/02 00:00:00+00,0,580,8,562,691724,279433
9162,9,2022/09/10 00:00:00+00,0,6,83,5,627904,279435
9162,9,2023/04/05 00:00:00+00,0,56,1,54,720338,279436
9162,9,2022/12/13 00:00:00+00,0,401,13,386,701377,279437
9162,9,2022/06/01 00:00:00+00,0,743,246,487,526586,279438
9162,9,2022/08/01 00:00:00+00,0,1932,166,1525,608646,279439
9162,9,2022/11/03 00:00:00+00,0,340,5,332,692064,279440
9162,9,2022/09/11 00:00:00+00,0,14,82,11,627918,279442
9162,9,2023/04/06 00:00:00+00,0,28,3,27,720366,279443
9162,9,2022/12/14 00:00:00+00,0,346,12,329,701723,279444
9162,9,2022/06/02 00:00:00+00,0,623,208,409,527209,279445
9162,9,2022/08/02 00:00:00+00,0,1354,139,1117,610000,279446
9162,9,2022/11/04 00:00:00+00,0,349,7,344,692413,279447
9162,9,2022/09/12 00:00:00+00,0,831,87,643,628749,279449
9162,9,2023/04/07 00:00:00+00,0,0,1,0,720366,279450
9162,9,2022/12/15 00:00:00+00,0,299,14,285,702022,279451
9162,9,2022/06/03 00:00:00+00,0,689,222,442,527898,279452
9162,9,2022/08/03 00:00:00+00,0,1013,103,829,611013,279453
9162,9,2022/11/05 00:00:00+00,0,1,4,1,692414,279454
9162,9,2022/09/13 00:00:00+00,0,683,111,568,629432,279456
9162,9,2023/04/08 00:00:00+00,0,0,1,0,720366,279457
9162,9,2022/12/16 00:00:00+00,0,262,13,250,702284,279458
9162,9,2022/06/04 00:00:00+00,0,2,273,1,527900,279459
9162,9,2022/06/05 00:00:00+00,0,7,305,2,527907,279460
9162,9,2022/06/06 00:00:00+00,0,8,306,2,527915,279461
9162,9,2022/06/07 00:00:00+00,0,1568,335,952,529483,279462
9162,9,2022/06/08 00:00:00+00,0,1412,333,887,530895,279463
9162,9,2022/06/09 00:00:00+00,0,1140,295,708,532035,279464
9162,9,2022/06/10 00:00:00+00,0,956,257,648,532991,279465
9162,9,2022/06/11 00:00:00+00,0,0,277,0,532991,279466
9162,9,2022/06/12 00:00:00+00,0,7,283,4,532998,279467
9162,9,2022/06/13 00:00:00+00,0,1603,386,1033,534601,279468
9162,9,2022/06/14 00:00:00+00,0,1399,343,900,536000,279469
9162,9,2022/06/15 00:00:00+00,0,1210,302,775,537210,279470
9162,9,2022/06/16 00:00:00+00,0,2,334,2,537212,279471
9162,9,2022/06/17 00:00:00+00,0,1273,355,824,538485,279472
9162,9,2022/06/18 00:00:00+00,0,15,386,10,538500,279473
9162,9,2022/06/19 00:00:00+00,0,11,447,5,538511,279474
9162,9,2022/06/20 00:00:00+00,0,1513,499,1006,540024,279475
9162,9,2022/06/21 00:00:00+00,0,1820,491,1158,541844,279476
9162,9,2022/06/22 00:00:00+00,1,2241,413,1397,544086,279477
9162,9,2022/06/23 00:00:00+00,0,1937,363,1296,546023,279478
9162,9,2022/06/24 00:00:00+00,0,1171,462,799,547194,279479
9162,9,2022/06/25 00:00:00+00,0,3,436,0,547197,279480
9162,9,2022/06/26 00:00:00+00,0,1,535,0,547198,279481
9162,9,2022/06/27 00:00:00+00,0,2220,629,1412,549418,279482
9162,9,2022/06/28 00:00:00+00,0,1960,554,1210,551378,279483
9162,9,2022/11/06 00:00:00+00,0,1,7,1,692415,279485
9162,9,2023/04/09 00:00:00+00,0,0,1,0,720366,279486
9162,9,2022/08/04 00:00:00+00,0,763,98,654,611776,279487
9162,9,2022/11/07 00:00:00+00,0,604,9,589,693019,279489
9162,9,2023/04/10 00:00:00+00,0,0,1,0,720366,279490
9162,9,2022/08/05 00:00:00+00,0,794,77,667,612570,279491
9162,9,2022/11/08 00:00:00+00,0,389,3,380,693408,279493
9162,9,2022/12/17 00:00:00+00,0,0,8,0,702284,279494
9162,9,2022/09/14 00:00:00+00,0,590,110,476,630022,279495
9162,9,2023/04/11 00:00:00+00,0,107,2,98,720473,279496
9162,9,2022/08/06 00:00:00+00,0,12,111,10,612582,279497
9162,9,2022/11/09 00:00:00+00,0,331,8,325,693739,279499
9162,9,2022/12/18 00:00:00+00,0,0,5,0,702284,279500
9162,9,2022/09/15 00:00:00+00,0,619,101,507,630641,279501
9162,9,2023/04/12 00:00:00+00,0,45,2,43,720518,279502
9162,9,2022/08/07 00:00:00+00,0,5,82,2,612587,279503
9162,9,2022/11/10 00:00:00+00,0,256,6,250,693995,279505
9162,9,2022/12/19 00:00:00+00,0,613,32,577,702897,279506
9162,9,2022/09/16 00:00:00+00,0,520,127,444,631161,279507
9162,9,2023/04/13 00:00:00+00,0,38,2,35,720556,279508
9162,9,2022/08/08 00:00:00+00,0,1290,124,1065,613877,279509
9162,9,2022/11/11 00:00:00+00,0,200,8,196,694195,279511
9162,9,2022/12/20 00:00:00+00,0,463,14,445,703360,279512
9162,9,2022/09/17 00:00:00+00,0,1,121,1,631162,279513
9162,9,2023/04/14 00:00:00+00,0,32,3,29,720588,279514
9162,9,2022/08/09 00:00:00+00,0,793,98,654,614670,279515
9162,9,2022/11/12 00:00:00+00,0,37,8,36,694232,279517
9162,9,2022/12/21 00:00:00+00,0,441,15,429,703801,279518
9162,9,2022/09/18 00:00:00+00,0,13,118,9,631175,279519
9162,9,2023/04/15 00:00:00+00,0,0,2,0,720588,279520
9162,9,2022/08/10 00:00:00+00,0,595,84,473,615265,279521
9162,9,2022/11/13 00:00:00+00,0,0,6,0,694232,279523
9162,9,2022/12/22 00:00:00+00,0,369,20,347,704170,279524
9162,9,2022/09/19 00:00:00+00,0,1203,163,898,632378,279525
9162,9,2023/04/16 00:00:00+00,0,0,1,0,720588,279526
9162,9,2022/08/11 00:00:00+00,0,565,53,456,615830,279527
9162,9,2022/11/14 00:00:00+00,0,436,9,420,694668,279529
9162,9,2022/12/23 00:00:00+00,0,349,14,334,704519,279530
9162,9,2022/09/20 00:00:00+00,0,890,171,718,633268,279531
9162,9,2023/04/17 00:00:00+00,0,66,3,60,720654,279532
9162,9,2022/08/12 00:00:00+00,0,537,78,451,616367,279533
9162,9,2022/11/15 00:00:00+00,0,244,12,238,694912,279535
9162,9,2022/12/24 00:00:00+00,0,0,6,0,704519,279536
9162,9,2022/09/21 00:00:00+00,0,806,224,654,634074,279537
9162,9,2023/04/18 00:00:00+00,0,39,5,38,720693,279538
9162,9,2022/08/13 00:00:00+00,0,1,82,1,616368,279539
9162,9,2022/11/16 00:00:00+00,0,247,6,238,695159,279541
9162,9,2022/12/25 00:00:00+00,0,0,10,0,704519,279542
9162,9,2022/09/22 00:00:00+00,0,909,212,751,634983,279543
9162,9,2023/04/19 00:00:00+00,0,36,6,31,720729,279544
9162,9,2022/08/14 00:00:00+00,0,0,70,0,616368,279545
9162,9,2022/11/17 00:00:00+00,0,235,6,230,695394,279547
9162,9,2022/12/26 00:00:00+00,0,0,13,0,704519,279548
9162,9,2022/09/23 00:00:00+00,0,1088,223,888,636071,279549
9162,9,2023/04/20 00:00:00+00,0,30,1,26,720759,279550
9162,9,2022/08/15 00:00:00+00,0,5,105,2,616373,279551
9162,9,2022/11/18 00:00:00+00,0,191,6,187,695585,279553
9162,9,2022/12/27 00:00:00+00,0,786,15,750,705305,279554
9162,9,2022/09/24 00:00:00+00,0,979,220,777,637050,279555
9162,9,2023/04/21 00:00:00+00,0,24,1,24,720783,279556
9162,9,2022/08/16 00:00:00+00,0,1158,105,928,617531,279557
9162,9,2022/11/19 00:00:00+00,0,18,7,16,695603,279559
9162,9,2022/12/28 00:00:00+00,0,368,10,356,705673,279560
9162,9,2022/09/25 00:00:00+00,0,28,103,24,637078,279561
9162,9,2023/04/22 00:00:00+00,0,0,1,0,720783,279562
9162,9,2022/08/17 00:00:00+00,0,808,81,666,618339,279563
9162,9,2022/11/20 00:00:00+00,0,0,7,0,695603,279565
9162,9,2022/12/29 00:00:00+00,0,329,12,320,706002,279566
9162,9,2022/09/26 00:00:00+00,0,1993,86,1488,639071,279567
9162,9,2023/04/23 00:00:00+00,0,0,2,0,720783,279568
9162,9,2022/11/21 00:00:00+00,0,496,19,476,696099,279569
9162,9,2022/12/30 00:00:00+00,0,199,8,189,706201,279570
9162,9,2022/09/27 00:00:00+00,0,3042,79,2922,642113,279571
9162,9,2023/04/24 00:00:00+00,0,50,1,41,720833,279572
9162,9,2022/11/22 00:00:00+00,0,322,4,310,696421,279573
9162,9,2022/12/31 00:00:00+00,0,7,7,7,706208,279574
9162,9,2022/09/28 00:00:00+00,0,3146,56,3060,645259,279575
9162,9,2022/11/23 00:00:00+00,0,270,10,266,696691,279576
9162,9,2023/01/01 00:00:00+00,0,7,10,7,706215,279577
9162,9,2022/09/29 00:00:00+00,0,1995,55,1939,647254,279578
9162,9,2022/11/24 00:00:00+00,0,274,8,265,696965,279579
9162,9,2023/01/02 00:00:00+00,0,368,12,355,706583,279580
9162,9,2022/09/30 00:00:00+00,0,1880,55,1846,649134,279581
9162,9,2022/10/01 00:00:00+00,0,1558,66,1529,650692,279582
9162,9,2022/10/02 00:00:00+00,0,28,65,25,650720,279583
9162,9,2022/10/03 00:00:00+00,0,71,92,70,650791,279584
9162,9,2022/10/04 00:00:00+00,1,3019,89,2871,653811,279585
9162,9,2022/10/05 00:00:00+00,0,5963,73,5815,659774,279586
9162,9,2022/10/06 00:00:00+00,0,4180,44,4060,663954,279587
9162,9,2022/11/25 00:00:00+00,0,137,11,135,697102,279588
9162,9,2023/01/03 00:00:00+00,0,256,6,242,706839,279589
9162,9,2023/01/04 00:00:00+00,0,294,2,284,707133,279590
9162,9,2023/01/05 00:00:00+00,0,158,10,154,707291,279591
9162,9,2023/01/06 00:00:00+00,0,0,2,0,707291,279592
9162,9,2023/01/07 00:00:00+00,0,0,11,0,707291,279593
9162,9,2023/01/08 00:00:00+00,0,1,10,0,707292,279594
9162,9,2023/01/09 00:00:00+00,0,555,11,527,707847,279595
9162,9,2023/01/10 00:00:00+00,0,305,9,294,708152,279596
9162,9,2023/01/11 00:00:00+00,0,250,5,241,708402,279597
9162,9,2023/01/12 00:00:00+00,0,191,2,183,708593,279598
9162,9,2023/01/13 00:00:00+00,0,116,9,115,708709,279599
9162,9,2023/01/14 00:00:00+00,0,0,5,0,708709,279600
