﻿AdmUnitId,BundeslandId,Datum,AnzFallNeu,AnzFallVortag,AnzFallErkrankung,AnzFallMeldung,KumFall,ObjectId
9162,9,2020/05/30 00:00:00+00,0,33,3,28,6487,282805
9162,9,2020/05/31 00:00:00+00,0,5,5,3,6492,282808
9162,9,2020/04/10 00:00:00+00,0,98,27,22,4463,282809
9162,9,2020/06/01 00:00:00+00,0,0,3,0,6492,282811
9162,9,2020/09/07 00:00:00+00,0,92,58,55,9433,282812
9162,9,2020/04/11 00:00:00+00,0,104,38,41,4567,282813
9162,9,2020/06/02 00:00:00+00,0,5,7,1,6497,282815
9162,9,2020/09/08 00:00:00+00,0,91,54,57,9524,282817
9162,9,2020/04/12 00:00:00+00,0,72,35,16,4639,282818
9162,9,2020/06/03 00:00:00+00,0,12,4,7,6509,282820
9162,9,2020/09/09 00:00:00+00,0,118,45,69,9642,282822
9162,9,2020/04/13 00:00:00+00,0,61,37,27,4700,282824
9162,9,2020/07/19 00:00:00+00,0,17,7,8,7144,282825
9162,9,2020/06/04 00:00:00+00,0,8,8,3,6517,282828
9162,9,2020/09/10 00:00:00+00,0,100,50,50,9742,282830
9162,9,2020/04/14 00:00:00+00,0,86,34,32,4786,282832
9162,9,2020/07/20 00:00:00+00,0,10,7,4,7154,282834
9162,9,2020/06/05 00:00:00+00,0,14,8,6,6531,282836
9162,9,2020/09/11 00:00:00+00,0,74,55,32,9816,282838
9162,9,2020/04/15 00:00:00+00,0,109,32,42,4895,282840
9162,9,2020/07/21 00:00:00+00,0,16,5,5,7170,282842
9162,9,2020/06/06 00:00:00+00,0,5,5,3,6536,282844
9162,9,2020/09/12 00:00:00+00,0,61,32,22,9877,282846
9162,9,2020/04/16 00:00:00+00,0,95,29,34,4990,282848
9162,9,2020/07/22 00:00:00+00,0,15,11,6,7185,282850
9162,9,2020/06/07 00:00:00+00,0,9,6,5,6545,282852
9162,9,2020/09/13 00:00:00+00,0,49,43,23,9926,282854
9162,9,2020/04/17 00:00:00+00,0,93,26,37,5083,282856
9162,9,2020/07/23 00:00:00+00,0,16,4,8,7201,282858
9162,9,2020/06/08 00:00:00+00,0,13,10,4,6558,282860
9162,9,2020/09/14 00:00:00+00,0,100,76,49,10026,282862
9162,9,2020/04/18 00:00:00+00,0,46,22,14,5129,282864
9162,9,2020/07/24 00:00:00+00,0,17,5,8,7218,282866
9162,9,2020/06/09 00:00:00+00,0,8,2,3,6566,282868
9162,9,2020/09/15 00:00:00+00,0,168,54,96,10194,282870
9162,9,2020/04/19 00:00:00+00,0,49,22,22,5178,282872
9162,9,2020/07/25 00:00:00+00,0,14,9,5,7232,282874
9162,9,2020/06/10 00:00:00+00,0,9,5,3,6575,282876
9162,9,2020/09/16 00:00:00+00,0,150,51,84,10344,282878
9162,9,2020/04/20 00:00:00+00,0,32,30,18,5210,282880
9162,9,2020/07/26 00:00:00+00,0,2,7,1,7234,282882
9162,9,2020/06/11 00:00:00+00,0,2,4,0,6577,282884
9162,9,2020/09/17 00:00:00+00,0,140,52,64,10484,282886
9162,9,2020/04/21 00:00:00+00,0,55,21,18,5265,282888
9162,9,2020/07/27 00:00:00+00,0,13,12,8,7247,282890
9162,9,2020/06/12 00:00:00+00,0,12,5,6,6589,282892
9162,9,2020/03/01 00:00:00+00,0,0,9,0,5,282893
9162,9,2020/09/18 00:00:00+00,0,129,31,61,10613,282894
9162,9,2020/04/22 00:00:00+00,0,57,20,25,5322,282896
9162,9,2020/07/28 00:00:00+00,0,15,7,9,7262,282898
9162,9,2020/06/13 00:00:00+00,0,5,4,0,6594,282900
9162,9,2020/03/02 00:00:00+00,0,3,10,0,8,282901
9162,9,2020/09/19 00:00:00+00,0,77,20,48,10690,282902
9162,9,2020/04/23 00:00:00+00,0,78,27,25,5400,282904
9162,9,2020/04/24 00:00:00+00,0,56,28,23,5456,282905
9162,9,2020/04/25 00:00:00+00,0,47,23,31,5503,282906
9162,9,2020/04/26 00:00:00+00,0,33,12,16,5536,282907
9162,9,2020/04/27 00:00:00+00,0,79,29,47,5615,282908
9162,9,2020/04/28 00:00:00+00,0,50,19,16,5665,282909
9162,9,2020/04/29 00:00:00+00,0,41,17,23,5706,282910
9162,9,2020/04/30 00:00:00+00,0,44,24,17,5750,282911
9162,9,2020/05/01 00:00:00+00,0,59,26,32,5809,282912
9162,9,2020/05/02 00:00:00+00,0,33,12,18,5842,282913
9162,9,2020/05/03 00:00:00+00,0,25,20,5,5867,282914
9162,9,2020/05/04 00:00:00+00,0,34,14,15,5901,282915
9162,9,2020/05/05 00:00:00+00,0,30,21,10,5931,282916
9162,9,2020/05/06 00:00:00+00,0,19,11,9,5950,282917
9162,9,2020/05/07 00:00:00+00,0,30,20,11,5980,282918
9162,9,2020/05/08 00:00:00+00,0,43,10,21,6023,282919
9162,9,2020/05/09 00:00:00+00,0,24,10,15,6047,282920
9162,9,2020/05/10 00:00:00+00,0,22,10,9,6069,282921
9162,9,2020/05/11 00:00:00+00,0,61,9,40,6130,282922
9162,9,2020/05/12 00:00:00+00,0,27,9,12,6157,282923
9162,9,2020/05/13 00:00:00+00,0,35,4,14,6192,282924
9162,9,2020/05/14 00:00:00+00,0,23,5,13,6215,282925
9162,9,2020/05/15 00:00:00+00,0,18,7,12,6233,282926
9162,9,2020/05/16 00:00:00+00,0,9,3,3,6242,282927
9162,9,2020/05/17 00:00:00+00,0,11,4,5,6253,282928
9162,9,2020/05/18 00:00:00+00,0,7,12,4,6260,282929
9162,9,2020/05/19 00:00:00+00,0,12,6,10,6272,282930
9162,9,2020/05/20 00:00:00+00,0,20,7,9,6292,282931
9162,9,2020/05/21 00:00:00+00,0,19,5,8,6311,282932
9162,9,2020/05/22 00:00:00+00,0,21,7,17,6332,282933
9162,9,2020/05/23 00:00:00+00,0,2,6,1,6334,282934
9162,9,2020/05/24 00:00:00+00,0,6,10,2,6340,282935
9162,9,2020/05/25 00:00:00+00,0,14,5,5,6354,282936
9162,9,2020/05/26 00:00:00+00,0,46,12,25,6400,282937
9162,9,2020/05/27 00:00:00+00,0,34,5,20,6434,282938
9162,9,2020/05/28 00:00:00+00,0,6,6,2,6440,282939
9162,9,2020/05/29 00:00:00+00,0,14,4,9,6454,282940
9162,9,2020/09/20 00:00:00+00,0,60,29,23,10750,282941
9162,9,2020/03/03 00:00:00+00,0,1,14,0,9,282943
9162,9,2020/09/21 00:00:00+00,0,97,38,65,10847,282945
9162,9,2020/06/14 00:00:00+00,0,11,0,9,6605,282946
9162,9,2020/03/04 00:00:00+00,0,3,8,1,12,282948
9162,9,2020/09/22 00:00:00+00,0,93,30,67,10940,282950
9162,9,2020/06/15 00:00:00+00,0,4,5,0,6609,282951
9162,9,2020/07/29 00:00:00+00,0,17,8,8,7279,282954
9162,9,2020/03/05 00:00:00+00,0,2,6,1,14,282955
9162,9,2020/09/23 00:00:00+00,0,107,31,63,11047,282957
9162,9,2020/06/16 00:00:00+00,0,9,4,3,6618,282958
9162,9,2020/07/30 00:00:00+00,0,19,7,9,7298,282961
9162,9,2020/03/06 00:00:00+00,0,13,19,8,27,282962
9162,9,2020/09/24 00:00:00+00,0,90,39,46,11137,282964
9162,9,2020/06/17 00:00:00+00,0,13,6,4,6631,282965
9162,9,2020/07/31 00:00:00+00,0,17,7,8,7315,282968
9162,9,2020/03/07 00:00:00+00,0,0,20,0,27,282969
9162,9,2020/09/25 00:00:00+00,0,68,29,39,11205,282971
9162,9,2020/06/18 00:00:00+00,0,4,3,2,6635,282972
9162,9,2020/08/01 00:00:00+00,0,11,6,5,7326,282975
9162,9,2020/03/08 00:00:00+00,0,0,26,0,27,282976
9162,9,2020/09/26 00:00:00+00,0,74,29,49,11279,282978
9162,9,2020/06/19 00:00:00+00,0,11,6,7,6646,282979
9162,9,2020/08/02 00:00:00+00,0,9,6,6,7335,282982
9162,9,2020/03/09 00:00:00+00,0,23,51,14,50,282983
9162,9,2020/09/27 00:00:00+00,0,43,30,27,11322,282985
9162,9,2020/06/20 00:00:00+00,0,22,8,20,6668,282986
9162,9,2020/08/03 00:00:00+00,0,26,19,12,7361,282989
9162,9,2020/03/10 00:00:00+00,0,31,63,21,81,282990
9162,9,2020/09/28 00:00:00+00,0,106,47,67,11428,282992
9162,9,2020/06/21 00:00:00+00,0,14,7,9,6682,282993
9162,9,2020/08/04 00:00:00+00,0,18,7,11,7379,282996
9162,9,2020/03/11 00:00:00+00,0,23,71,16,104,282997
9162,9,2020/09/29 00:00:00+00,0,85,34,49,11513,282999
9162,9,2020/06/22 00:00:00+00,0,4,9,1,6686,283000
9162,9,2020/08/05 00:00:00+00,0,12,14,6,7391,283003
9162,9,2020/03/12 00:00:00+00,0,18,89,11,122,283004
9162,9,2020/09/30 00:00:00+00,0,81,48,45,11594,283006
9162,9,2020/06/23 00:00:00+00,0,18,7,11,6704,283007
9162,9,2020/08/06 00:00:00+00,0,35,11,18,7426,283010
9162,9,2020/03/13 00:00:00+00,0,48,110,33,170,283011
9162,9,2020/10/01 00:00:00+00,0,83,33,34,11677,283013
9162,9,2020/06/24 00:00:00+00,0,13,12,2,6717,283014
9162,9,2020/08/07 00:00:00+00,0,19,10,16,7445,283017
9162,9,2020/03/14 00:00:00+00,0,64,110,44,234,283018
9162,9,2020/10/02 00:00:00+00,0,64,49,36,11741,283020
9162,9,2020/06/25 00:00:00+00,0,18,10,7,6735,283021
9162,9,2020/08/08 00:00:00+00,0,8,19,5,7453,283024
9162,9,2020/03/15 00:00:00+00,0,19,135,16,253,283025
9162,9,2020/10/03 00:00:00+00,0,99,36,49,11840,283027
9162,9,2020/06/26 00:00:00+00,0,17,16,8,6752,283028
9162,9,2020/06/27 00:00:00+00,0,12,7,4,6764,283055
9162,9,2020/08/09 00:00:00+00,0,2,21,1,7455,283056
9162,9,2020/06/28 00:00:00+00,0,10,14,8,6774,283058
9162,9,2020/10/04 00:00:00+00,0,23,34,5,11863,283059
9162,9,2020/08/10 00:00:00+00,0,29,31,13,7484,283060
9162,9,2020/06/29 00:00:00+00,0,21,10,12,6795,283062
9162,9,2020/10/05 00:00:00+00,0,63,48,41,11926,283063
9162,9,2020/08/11 00:00:00+00,0,43,28,26,7527,283064
9162,9,2020/03/16 00:00:00+00,0,67,155,35,320,283066
9162,9,2020/06/30 00:00:00+00,0,40,6,21,6835,283068
9162,9,2020/10/06 00:00:00+00,0,119,50,66,12045,283069
9162,9,2020/08/12 00:00:00+00,0,44,24,28,7571,283070
9162,9,2020/03/17 00:00:00+00,0,144,140,82,464,283072
9162,9,2020/07/01 00:00:00+00,0,10,5,4,6845,283074
9162,9,2020/10/07 00:00:00+00,0,129,52,74,12174,283075
9162,9,2020/08/13 00:00:00+00,0,55,28,33,7626,283076
9162,9,2020/03/18 00:00:00+00,0,212,153,110,676,283078
9162,9,2020/07/02 00:00:00+00,0,23,8,10,6868,283080
9162,9,2020/10/08 00:00:00+00,0,139,62,73,12313,283081
9162,9,2020/08/14 00:00:00+00,0,55,22,27,7681,283082
9162,9,2020/03/19 00:00:00+00,0,173,108,77,849,283084
9162,9,2020/07/03 00:00:00+00,0,20,8,10,6888,283086
9162,9,2020/10/09 00:00:00+00,0,159,60,102,12472,283087
9162,9,2020/08/15 00:00:00+00,0,27,19,14,7708,283088
9162,9,2020/03/20 00:00:00+00,0,195,127,86,1044,283090
9162,9,2020/07/04 00:00:00+00,0,14,3,11,6902,283092
9162,9,2020/10/10 00:00:00+00,0,93,49,44,12565,283093
9162,9,2020/08/16 00:00:00+00,0,48,25,37,7756,283094
9162,9,2020/03/21 00:00:00+00,0,176,83,65,1220,283096
9162,9,2020/07/05 00:00:00+00,0,4,6,4,6906,283098
9162,9,2020/10/11 00:00:00+00,0,54,66,39,12619,283099
9162,9,2020/08/17 00:00:00+00,0,86,35,50,7842,283100
9162,9,2020/03/22 00:00:00+00,0,88,85,37,1308,283102
9162,9,2020/07/06 00:00:00+00,0,23,5,12,6929,283104
9162,9,2020/10/12 00:00:00+00,0,112,78,68,12731,283105
9162,9,2020/08/18 00:00:00+00,0,61,33,33,7903,283106
9162,9,2020/03/23 00:00:00+00,0,93,117,44,1401,283108
9162,9,2020/07/07 00:00:00+00,0,35,8,27,6964,283110
9162,9,2020/10/13 00:00:00+00,0,156,86,92,12887,283111
9162,9,2020/08/19 00:00:00+00,0,88,24,53,7991,283112
9162,9,2020/03/24 00:00:00+00,0,170,61,80,1571,283114
9162,9,2020/07/08 00:00:00+00,0,21,7,9,6985,283116
9162,9,2020/10/14 00:00:00+00,0,173,98,92,13060,283117
9162,9,2020/08/20 00:00:00+00,0,86,16,56,8077,283118
9162,9,2020/03/25 00:00:00+00,0,239,111,103,1810,283120
9162,9,2020/07/09 00:00:00+00,0,11,4,7,6996,283122
9162,9,2020/10/15 00:00:00+00,0,192,75,97,13252,283123
9162,9,2020/08/21 00:00:00+00,0,71,35,45,8148,283124
9162,9,2020/03/26 00:00:00+00,0,258,66,102,2068,283126
9162,9,2020/07/10 00:00:00+00,0,18,7,4,7014,283128
9162,9,2020/10/16 00:00:00+00,0,198,82,108,13450,283129
9162,9,2020/08/22 00:00:00+00,0,31,22,21,8179,283130
9162,9,2020/03/27 00:00:00+00,0,258,110,109,2326,283132
9162,9,2020/07/11 00:00:00+00,0,2,7,2,7016,283134
9162,9,2020/10/17 00:00:00+00,0,177,85,94,13627,283135
9162,9,2020/08/23 00:00:00+00,0,41,31,25,8220,283136
9162,9,2020/03/28 00:00:00+00,0,139,79,58,2465,283138
9162,9,2020/07/12 00:00:00+00,0,7,5,3,7023,283140
9162,9,2020/10/18 00:00:00+00,0,94,66,55,13721,283141
9162,9,2020/08/24 00:00:00+00,0,87,34,52,8307,283142
9162,9,2020/03/29 00:00:00+00,0,178,65,74,2643,283144
9162,9,2020/07/13 00:00:00+00,0,15,15,6,7038,283146
9162,9,2020/10/19 00:00:00+00,0,134,86,67,13855,283147
9162,9,2020/08/25 00:00:00+00,0,85,38,54,8392,283148
9162,9,2020/03/30 00:00:00+00,0,118,69,46,2761,283150
9162,9,2020/07/14 00:00:00+00,0,11,6,6,7049,283152
9162,9,2020/10/20 00:00:00+00,0,194,78,107,14049,283153
9162,9,2020/08/26 00:00:00+00,0,105,36,69,8497,283154
9162,9,2020/08/27 00:00:00+00,0,108,19,55,8605,283155
9162,9,2020/08/28 00:00:00+00,0,65,26,44,8670,283156
9162,9,2020/08/29 00:00:00+00,0,53,15,29,8723,283157
9162,9,2020/08/30 00:00:00+00,0,26,17,17,8749,283158
9162,9,2020/08/31 00:00:00+00,0,71,29,35,8820,283159
9162,9,2020/09/01 00:00:00+00,0,83,45,59,8903,283160
9162,9,2020/09/02 00:00:00+00,0,69,31,47,8972,283161
9162,9,2020/09/03 00:00:00+00,0,88,36,51,9060,283162
9162,9,2020/09/04 00:00:00+00,0,116,35,81,9176,283163
9162,9,2020/09/05 00:00:00+00,0,104,30,66,9280,283164
9162,9,2020/09/06 00:00:00+00,0,61,28,38,9341,283165
9162,9,2020/10/21 00:00:00+00,0,318,75,206,14367,283166
9162,9,2020/03/31 00:00:00+00,0,310,68,119,3071,283167
9162,9,2020/10/22 00:00:00+00,0,319,75,233,14686,283169
9162,9,2020/07/15 00:00:00+00,0,20,12,15,7069,283170
9162,9,2020/04/01 00:00:00+00,0,231,90,87,3302,283171
9162,9,2020/10/23 00:00:00+00,0,240,79,181,14926,283173
9162,9,2020/07/16 00:00:00+00,0,26,7,10,7095,283174
9162,9,2020/04/02 00:00:00+00,0,143,49,53,3445,283175
9162,9,2020/10/24 00:00:00+00,0,215,75,182,15141,283178
9162,9,2020/07/17 00:00:00+00,0,26,10,20,7121,283179
9162,9,2020/04/03 00:00:00+00,0,177,57,85,3622,283180
9162,9,2020/10/25 00:00:00+00,0,289,76,236,15430,283182
9162,9,2020/07/18 00:00:00+00,0,6,7,4,7127,283183
9162,9,2020/04/04 00:00:00+00,0,134,49,59,3756,283184
9162,9,2020/10/26 00:00:00+00,0,227,95,186,15657,283186
9162,9,2020/04/05 00:00:00+00,0,84,47,27,3840,283187
9162,9,2020/04/06 00:00:00+00,0,118,51,40,3958,283189
9162,9,2020/04/07 00:00:00+00,0,141,48,40,4099,283191
9162,9,2020/04/08 00:00:00+00,0,154,50,65,4253,283193
9162,9,2020/04/09 00:00:00+00,0,112,48,48,4365,283195
9162,9,2021/02/04 00:00:00+00,0,132,34,92,52067,283201
9162,9,2021/02/05 00:00:00+00,0,140,35,90,52207,283202
9162,9,2021/02/06 00:00:00+00,0,68,27,42,52275,283203
9162,9,2021/02/07 00:00:00+00,0,30,18,20,52305,283204
9162,9,2021/02/08 00:00:00+00,0,71,38,51,52376,283205
9162,9,2021/02/09 00:00:00+00,0,146,37,92,52522,283206
9162,9,2021/02/10 00:00:00+00,0,100,25,59,52622,283207
9162,9,2021/02/11 00:00:00+00,0,94,28,71,52716,283208
9162,9,2021/02/12 00:00:00+00,0,74,27,45,52790,283209
9162,9,2021/02/13 00:00:00+00,0,44,33,26,52834,283210
9162,9,2021/02/14 00:00:00+00,0,19,21,11,52853,283211
9162,9,2021/02/15 00:00:00+00,0,60,44,46,52913,283212
9162,9,2021/02/16 00:00:00+00,0,33,20,24,52946,283213
9162,9,2021/02/17 00:00:00+00,0,116,30,57,53062,283214
9162,9,2021/02/18 00:00:00+00,0,107,31,65,53169,283215
9162,9,2021/02/19 00:00:00+00,0,80,26,57,53249,283216
9162,9,2021/02/20 00:00:00+00,0,64,23,34,53313,283217
9162,9,2021/02/21 00:00:00+00,0,23,27,12,53336,283218
9162,9,2021/02/22 00:00:00+00,0,60,35,43,53396,283219
9162,9,2021/02/23 00:00:00+00,0,91,25,56,53487,283220
9162,9,2021/02/24 00:00:00+00,0,119,18,83,53606,283221
9162,9,2021/02/25 00:00:00+00,0,84,39,50,53690,283222
9162,9,2021/02/26 00:00:00+00,0,126,42,87,53816,283223
9162,9,2021/02/27 00:00:00+00,0,70,38,52,53886,283224
9162,9,2021/02/28 00:00:00+00,0,45,33,35,53931,283225
9162,9,2021/03/01 00:00:00+00,0,75,41,51,54006,283226
9162,9,2021/03/02 00:00:00+00,0,160,45,113,54166,283227
9162,9,2021/03/03 00:00:00+00,0,152,43,105,54318,283228
9162,9,2021/03/04 00:00:00+00,0,111,48,79,54429,283229
9162,9,2021/03/05 00:00:00+00,0,144,44,96,54573,283230
9162,9,2021/03/06 00:00:00+00,0,115,48,79,54688,283231
9162,9,2021/03/07 00:00:00+00,0,61,32,37,54749,283232
9162,9,2021/03/08 00:00:00+00,0,123,60,75,54872,283233
9162,9,2021/03/09 00:00:00+00,0,165,54,117,55037,283234
9162,9,2021/03/10 00:00:00+00,0,218,47,151,55255,283235
9162,9,2021/03/11 00:00:00+00,0,170,59,122,55425,283236
9162,9,2021/03/12 00:00:00+00,0,165,54,110,55590,283237
9162,9,2021/03/13 00:00:00+00,0,104,58,72,55694,283238
9162,9,2021/03/14 00:00:00+00,0,88,48,65,55782,283239
9162,9,2021/03/15 00:00:00+00,0,144,64,106,55926,283240
9162,9,2021/03/16 00:00:00+00,0,201,80,141,56127,283241
9162,9,2021/03/17 00:00:00+00,0,235,56,144,56362,283242
9162,9,2021/03/18 00:00:00+00,0,208,60,137,56570,283243
9162,9,2021/03/19 00:00:00+00,0,223,51,154,56793,283244
9162,9,2021/03/20 00:00:00+00,0,147,54,102,56940,283245
9162,9,2021/03/21 00:00:00+00,0,134,58,101,57074,283246
9162,9,2021/03/22 00:00:00+00,0,101,79,76,57175,283247
9162,9,2021/03/23 00:00:00+00,0,239,59,160,57414,283248
9162,9,2021/03/24 00:00:00+00,0,278,72,198,57692,283249
9162,9,2021/03/25 00:00:00+00,0,265,93,193,57957,283250
9162,9,2020/10/27 00:00:00+00,0,328,66,273,15985,283251
9162,9,2020/10/28 00:00:00+00,0,359,90,281,16344,283252
9162,9,2020/10/29 00:00:00+00,0,457,67,338,16801,283253
9162,9,2020/10/30 00:00:00+00,0,366,71,266,17167,283254
9162,9,2020/10/31 00:00:00+00,0,202,68,141,17369,283255
9162,9,2020/11/01 00:00:00+00,0,258,73,192,17627,283256
9162,9,2020/11/02 00:00:00+00,0,331,107,247,17958,283257
9162,9,2020/11/03 00:00:00+00,0,498,85,403,18456,283258
9162,9,2020/11/04 00:00:00+00,0,359,76,318,18815,283259
9162,9,2020/11/05 00:00:00+00,0,431,88,351,19246,283260
9162,9,2020/11/06 00:00:00+00,0,632,92,515,19878,283261
9162,9,2020/11/07 00:00:00+00,0,501,59,380,20379,283262
9162,9,2020/11/08 00:00:00+00,0,318,63,254,20697,283263
9162,9,2020/11/09 00:00:00+00,0,447,69,353,21144,283264
9162,9,2020/11/10 00:00:00+00,0,560,50,413,21704,283265
9162,9,2020/11/11 00:00:00+00,0,610,56,472,22314,283266
9162,9,2020/11/12 00:00:00+00,0,544,33,488,22858,283267
9162,9,2020/11/13 00:00:00+00,0,415,44,360,23273,283268
9162,9,2020/11/14 00:00:00+00,0,500,27,460,23773,283269
9162,9,2020/11/15 00:00:00+00,0,198,28,185,23971,283270
9162,9,2020/11/16 00:00:00+00,0,215,32,193,24186,283271
9162,9,2020/11/17 00:00:00+00,0,575,37,537,24761,283272
9162,9,2020/11/18 00:00:00+00,0,520,29,478,25281,283273
9162,9,2020/11/19 00:00:00+00,0,668,35,624,25949,283274
9162,9,2020/12/16 00:00:00+00,0,644,74,534,38173,283275
9162,9,2020/11/20 00:00:00+00,0,491,41,467,26440,283276
9162,9,2020/11/21 00:00:00+00,0,293,33,271,26733,283277
9162,9,2020/11/22 00:00:00+00,0,231,45,210,26964,283278
9162,9,2020/11/23 00:00:00+00,0,355,53,335,27319,283279
9162,9,2020/11/24 00:00:00+00,0,497,59,455,27816,283280
9162,9,2020/11/25 00:00:00+00,0,491,79,439,28307,283281
9162,9,2020/11/26 00:00:00+00,0,620,72,552,28927,283282
9162,9,2020/11/27 00:00:00+00,0,103,62,94,29030,283283
9162,9,2020/11/28 00:00:00+00,0,268,67,230,29298,283284
9162,9,2020/11/29 00:00:00+00,0,468,73,396,29766,283285
9162,9,2020/11/30 00:00:00+00,0,417,97,335,30183,283286
9162,9,2020/12/01 00:00:00+00,0,430,91,352,30613,283287
9162,9,2020/12/02 00:00:00+00,0,483,94,394,31096,283288
9162,9,2020/12/03 00:00:00+00,0,619,106,519,31715,283289
9162,9,2020/12/04 00:00:00+00,0,239,98,186,31954,283290
9162,9,2020/12/05 00:00:00+00,0,208,105,167,32162,283291
9162,9,2020/12/06 00:00:00+00,0,538,79,443,32700,283292
9162,9,2020/12/07 00:00:00+00,0,610,108,506,33310,283293
9162,9,2020/12/08 00:00:00+00,0,489,122,381,33799,283294
9162,9,2020/12/09 00:00:00+00,0,590,81,477,34389,283295
9162,9,2020/12/10 00:00:00+00,0,374,74,303,34763,283296
9162,9,2020/12/11 00:00:00+00,0,593,97,490,35356,283297
9162,9,2020/12/12 00:00:00+00,0,383,96,322,35739,283298
9162,9,2020/12/13 00:00:00+00,0,394,68,336,36133,283299
9162,9,2020/12/14 00:00:00+00,0,526,102,420,36659,283300
9162,9,2020/12/15 00:00:00+00,0,870,76,727,37529,283301
9162,9,2021/10/12 00:00:00+00,0,358,207,115,89379,283302
9162,9,2021/08/23 00:00:00+00,0,182,133,61,76936,283303
9162,9,2021/05/15 00:00:00+00,0,58,67,20,71160,283304
9162,9,2021/07/04 00:00:00+00,0,11,17,3,73664,283305
9162,9,2021/03/26 00:00:00+00,0,296,76,206,58253,283306
9162,9,2020/12/17 00:00:00+00,0,815,77,682,38988,283307
9162,9,2021/03/27 00:00:00+00,0,182,89,127,58435,283308
9162,9,2021/05/16 00:00:00+00,0,100,81,36,71260,283309
9162,9,2021/10/13 00:00:00+00,0,333,176,122,89712,283310
9162,9,2020/12/18 00:00:00+00,0,704,70,601,39692,283311
9162,9,2021/03/28 00:00:00+00,0,110,64,81,58545,283312
9162,9,2021/05/17 00:00:00+00,0,119,76,52,71379,283313
9162,9,2021/10/14 00:00:00+00,0,328,196,131,90040,283314
9162,9,2021/07/05 00:00:00+00,0,22,27,1,73686,283315
9162,9,2021/08/24 00:00:00+00,0,272,103,104,77208,283316
9162,9,2020/12/19 00:00:00+00,0,600,64,510,40292,283317
9162,9,2021/03/29 00:00:00+00,0,167,104,100,58712,283318
9162,9,2021/05/18 00:00:00+00,0,163,65,59,71542,283319
9162,9,2021/10/15 00:00:00+00,0,396,231,173,90436,283320
9162,9,2021/07/06 00:00:00+00,0,34,43,7,73720,283321
9162,9,2021/08/25 00:00:00+00,0,249,135,137,77457,283322
9162,9,2020/12/20 00:00:00+00,0,208,63,178,40500,283323
9162,9,2021/03/30 00:00:00+00,0,289,108,193,59001,283324
9162,9,2021/05/19 00:00:00+00,0,143,66,51,71685,283325
9162,9,2021/10/16 00:00:00+00,0,246,177,113,90682,283326
9162,9,2021/07/07 00:00:00+00,0,22,21,3,73742,283327
9162,9,2021/08/26 00:00:00+00,0,270,109,133,77727,283328
9162,9,2020/12/21 00:00:00+00,0,265,77,213,40765,283329
9162,9,2021/03/31 00:00:00+00,0,313,88,208,59314,283330
9162,9,2021/05/20 00:00:00+00,0,155,42,55,71840,283331
9162,9,2021/10/17 00:00:00+00,0,132,179,53,90814,283332
9162,9,2021/07/08 00:00:00+00,0,45,32,11,73787,283333
9162,9,2021/08/27 00:00:00+00,0,169,107,99,77896,283334
9162,9,2020/12/22 00:00:00+00,0,363,58,322,41128,283335
9162,9,2021/04/01 00:00:00+00,0,253,113,125,59567,283336
9162,9,2021/05/21 00:00:00+00,0,83,38,35,71923,283337
9162,9,2021/10/18 00:00:00+00,0,353,238,175,91167,283338
9162,9,2021/07/09 00:00:00+00,0,37,24,4,73824,283339
9162,9,2021/08/28 00:00:00+00,0,201,123,100,78097,283340
9162,9,2020/12/23 00:00:00+00,0,604,74,505,41732,283341
9162,9,2021/04/02 00:00:00+00,0,181,90,95,59748,283342
9162,9,2021/05/22 00:00:00+00,0,60,49,23,71983,283343
9162,9,2021/10/19 00:00:00+00,0,596,223,289,91763,283344
9162,9,2021/07/10 00:00:00+00,0,20,20,6,73844,283345
9162,9,2021/08/29 00:00:00+00,0,120,104,67,78217,283346
9162,9,2020/12/24 00:00:00+00,0,289,59,246,42021,283347
9162,9,2021/04/03 00:00:00+00,0,123,106,65,59871,283348
9162,9,2021/05/23 00:00:00+00,0,37,48,13,72020,283349
9162,9,2021/10/20 00:00:00+00,0,425,246,196,92188,283350
9162,9,2021/07/11 00:00:00+00,0,14,38,1,73858,283351
9162,9,2021/08/30 00:00:00+00,0,279,137,134,78496,283352
9162,9,2020/12/25 00:00:00+00,0,0,44,0,42021,283353
9162,9,2021/04/04 00:00:00+00,0,118,116,57,59989,283354
9162,9,2021/05/24 00:00:00+00,0,54,56,32,72074,283355
9162,9,2021/10/21 00:00:00+00,0,522,202,258,92710,283356
9162,9,2021/07/12 00:00:00+00,0,36,41,11,73894,283357
9162,9,2021/08/31 00:00:00+00,0,338,129,178,78834,283358
9162,9,2020/12/26 00:00:00+00,0,586,54,471,42607,283359
9162,9,2021/04/05 00:00:00+00,0,88,135,48,60077,283360
9162,9,2021/05/25 00:00:00+00,0,91,45,40,72165,283361
9162,9,2021/10/22 00:00:00+00,0,511,217,265,93221,283362
9162,9,2021/07/13 00:00:00+00,0,52,33,12,73946,283363
9162,9,2021/09/01 00:00:00+00,0,306,123,188,79140,283364
9162,9,2020/12/27 00:00:00+00,0,357,57,299,42964,283365
9162,9,2021/04/06 00:00:00+00,0,265,143,148,60342,283366
9162,9,2021/05/26 00:00:00+00,0,103,49,28,72268,283367
9162,9,2021/10/23 00:00:00+00,0,357,213,171,93578,283368
9162,9,2021/07/14 00:00:00+00,0,49,43,8,73995,283369
9162,9,2021/09/02 00:00:00+00,0,335,145,168,79475,283370
9162,9,2020/12/28 00:00:00+00,0,228,81,186,43192,283371
9162,9,2021/04/07 00:00:00+00,0,426,131,239,60768,283372
9162,9,2021/05/27 00:00:00+00,0,63,46,26,72331,283373
9162,9,2021/10/24 00:00:00+00,0,176,218,92,93754,283374
9162,9,2021/07/15 00:00:00+00,0,53,28,9,74048,283375
9162,9,2021/09/03 00:00:00+00,0,253,144,137,79728,283376
9162,9,2020/12/29 00:00:00+00,0,538,54,445,43730,283377
9162,9,2021/04/08 00:00:00+00,0,348,119,197,61116,283378
9162,9,2021/05/28 00:00:00+00,0,94,40,32,72425,283379
9162,9,2021/10/25 00:00:00+00,0,456,278,230,94210,283380
9162,9,2021/07/16 00:00:00+00,0,48,42,7,74096,283381
9162,9,2021/09/04 00:00:00+00,0,206,138,113,79934,283382
9162,9,2020/12/30 00:00:00+00,0,648,70,528,44378,283383
9162,9,2021/04/09 00:00:00+00,0,304,132,178,61420,283384
9162,9,2021/05/29 00:00:00+00,0,39,27,18,72464,283385
9162,9,2021/10/26 00:00:00+00,0,762,296,374,94972,283386
9162,9,2021/07/17 00:00:00+00,0,20,30,7,74116,283387
9162,9,2021/09/05 00:00:00+00,0,120,123,65,80054,283388
9162,9,2020/12/31 00:00:00+00,0,346,51,285,44724,283389
9162,9,2021/04/10 00:00:00+00,0,282,157,162,61702,283390
9162,9,2021/05/30 00:00:00+00,0,45,22,21,72509,283391
9162,9,2021/10/27 00:00:00+00,0,551,285,264,95523,283392
9162,9,2021/07/18 00:00:00+00,0,19,34,4,74135,283393
9162,9,2021/09/06 00:00:00+00,0,223,169,87,80277,283394
9162,9,2021/01/01 00:00:00+00,0,1,55,0,44725,283395
9162,9,2021/04/11 00:00:00+00,0,245,114,142,61947,283396
9162,9,2021/05/31 00:00:00+00,0,45,29,15,72554,283397
9162,9,2021/10/28 00:00:00+00,0,580,294,290,96103,283398
9162,9,2021/07/19 00:00:00+00,0,57,62,11,74192,283399
9162,9,2021/09/07 00:00:00+00,0,340,160,121,80617,283400
9162,9,2021/01/02 00:00:00+00,0,337,71,276,45062,283401
9162,9,2021/04/12 00:00:00+00,0,292,156,172,62239,283402
9162,9,2021/06/01 00:00:00+00,0,93,26,45,72647,283403
9162,9,2021/10/29 00:00:00+00,0,659,280,304,96762,283404
9162,9,2021/07/20 00:00:00+00,0,56,68,10,74248,283405
9162,9,2021/09/08 00:00:00+00,0,337,171,142,80954,283406
9162,9,2021/09/09 00:00:00+00,0,279,153,106,81233,283407
9162,9,2021/09/10 00:00:00+00,0,254,167,115,81487,283408
9162,9,2021/09/11 00:00:00+00,0,222,160,83,81709,283409
9162,9,2021/09/12 00:00:00+00,0,142,126,47,81851,283410
9162,9,2021/09/13 00:00:00+00,0,227,168,73,82078,283411
9162,9,2021/09/14 00:00:00+00,0,444,136,157,82522,283412
9162,9,2021/09/15 00:00:00+00,0,373,121,183,82895,283413
9162,9,2021/09/16 00:00:00+00,0,301,149,158,83196,283414
9162,9,2021/09/17 00:00:00+00,0,293,122,128,83489,283415
9162,9,2021/09/18 00:00:00+00,0,183,98,94,83672,283416
9162,9,2021/09/19 00:00:00+00,0,105,110,51,83777,283417
9162,9,2021/09/20 00:00:00+00,0,278,157,131,84055,283418
9162,9,2021/09/21 00:00:00+00,0,315,136,158,84370,283419
9162,9,2021/09/22 00:00:00+00,0,289,129,117,84659,283420
9162,9,2021/09/23 00:00:00+00,0,275,134,116,84934,283421
9162,9,2021/09/24 00:00:00+00,0,218,156,107,85152,283422
9162,9,2021/09/25 00:00:00+00,0,164,119,68,85316,283423
9162,9,2021/09/26 00:00:00+00,0,139,123,52,85455,283424
9162,9,2021/09/27 00:00:00+00,0,274,180,99,85729,283425
9162,9,2021/09/28 00:00:00+00,0,379,169,169,86108,283426
9162,9,2021/09/29 00:00:00+00,0,271,152,121,86379,283427
9162,9,2021/09/30 00:00:00+00,0,244,131,101,86623,283428
9162,9,2021/10/01 00:00:00+00,0,281,147,118,86904,283429
9162,9,2021/10/02 00:00:00+00,0,171,129,71,87075,283430
9162,9,2021/10/03 00:00:00+00,0,132,112,56,87207,283431
9162,9,2021/10/04 00:00:00+00,0,236,168,94,87443,283432
9162,9,2021/10/05 00:00:00+00,0,320,168,139,87763,283433
9162,9,2021/10/06 00:00:00+00,0,295,132,122,88058,283434
9162,9,2021/10/07 00:00:00+00,0,291,117,123,88349,283435
9162,9,2021/10/08 00:00:00+00,0,226,139,102,88575,283436
9162,9,2021/10/09 00:00:00+00,0,190,148,85,88765,283437
9162,9,2021/10/10 00:00:00+00,0,92,148,31,88857,283438
9162,9,2021/10/11 00:00:00+00,0,164,195,65,89021,283439
9162,9,2021/10/30 00:00:00+00,0,297,336,145,97059,283440
9162,9,2021/01/03 00:00:00+00,0,217,86,161,45279,283441
9162,9,2021/10/31 00:00:00+00,0,249,274,117,97308,283442
9162,9,2021/06/02 00:00:00+00,0,63,35,30,72710,283443
9162,9,2021/01/04 00:00:00+00,0,286,73,215,45565,283444
9162,9,2021/11/01 00:00:00+00,0,326,412,146,97634,283445
9162,9,2021/06/03 00:00:00+00,0,31,24,17,72741,283446
9162,9,2021/04/13 00:00:00+00,0,471,121,295,62710,283447
9162,9,2021/01/05 00:00:00+00,0,463,63,367,46028,283448
9162,9,2021/11/02 00:00:00+00,0,673,461,312,98307,283449
9162,9,2021/06/04 00:00:00+00,0,39,32,13,72780,283450
9162,9,2021/07/21 00:00:00+00,0,68,49,7,74316,283451
9162,9,2021/04/14 00:00:00+00,0,523,140,349,63233,283452
9162,9,2021/01/06 00:00:00+00,0,344,51,277,46372,283453
9162,9,2021/11/03 00:00:00+00,0,874,442,368,99181,283454
9162,9,2021/06/05 00:00:00+00,0,56,22,16,72836,283455
9162,9,2021/07/22 00:00:00+00,0,69,41,11,74385,283456
9162,9,2021/04/15 00:00:00+00,0,401,133,233,63634,283457
9162,9,2021/01/07 00:00:00+00,0,380,35,316,46752,283458
9162,9,2021/11/04 00:00:00+00,0,423,381,222,99604,283459
9162,9,2021/06/06 00:00:00+00,0,20,35,5,72856,283460
9162,9,2021/07/23 00:00:00+00,0,62,45,8,74447,283461
9162,9,2021/04/16 00:00:00+00,0,389,150,240,64023,283462
9162,9,2021/01/08 00:00:00+00,0,515,53,444,47267,283463
9162,9,2021/11/05 00:00:00+00,0,243,403,109,99847,283464
9162,9,2021/06/07 00:00:00+00,0,51,33,17,72907,283465
9162,9,2021/07/24 00:00:00+00,0,39,41,8,74486,283466
9162,9,2021/04/17 00:00:00+00,0,269,181,169,64292,283467
9162,9,2021/01/09 00:00:00+00,0,369,33,332,47636,283468
9162,9,2021/11/06 00:00:00+00,0,118,378,60,99965,283469
9162,9,2021/06/08 00:00:00+00,0,69,22,28,72976,283470
9162,9,2021/07/25 00:00:00+00,0,18,39,3,74504,283471
9162,9,2021/04/18 00:00:00+00,0,184,131,106,64476,283472
9162,9,2021/01/10 00:00:00+00,0,140,36,130,47776,283473
9162,9,2021/11/07 00:00:00+00,0,83,374,37,100048,283474
9162,9,2021/06/09 00:00:00+00,0,43,27,13,73019,283475
9162,9,2021/07/26 00:00:00+00,0,67,64,10,74571,283476
9162,9,2021/04/19 00:00:00+00,0,247,183,128,64723,283477
9162,9,2021/01/11 00:00:00+00,0,204,49,184,47980,283478
9162,9,2021/11/08 00:00:00+00,0,282,501,157,100330,283479
9162,9,2021/06/10 00:00:00+00,0,56,26,20,73075,283480
9162,9,2021/07/27 00:00:00+00,0,88,49,15,74659,283481
9162,9,2021/04/20 00:00:00+00,0,538,171,293,65261,283482
9162,9,2021/01/12 00:00:00+00,0,392,54,368,48372,283483
9162,9,2021/11/09 00:00:00+00,0,469,498,266,100799,283484
9162,9,2021/06/11 00:00:00+00,0,21,20,10,73096,283485
9162,9,2021/07/28 00:00:00+00,0,59,39,18,74718,283486
9162,9,2021/04/21 00:00:00+00,0,421,189,204,65682,283487
9162,9,2021/01/13 00:00:00+00,0,366,50,333,48738,283488
9162,9,2021/11/10 00:00:00+00,0,841,468,464,101640,283489
9162,9,2021/06/12 00:00:00+00,0,26,25,9,73122,283490
9162,9,2021/07/29 00:00:00+00,0,71,39,19,74789,283491
9162,9,2021/04/22 00:00:00+00,0,369,162,181,66051,283492
9162,9,2021/01/14 00:00:00+00,0,274,65,234,49012,283493
9162,9,2021/11/11 00:00:00+00,0,1079,479,547,102719,283494
9162,9,2021/06/13 00:00:00+00,0,16,14,7,73138,283495
9162,9,2021/07/30 00:00:00+00,0,63,42,16,74852,283496
9162,9,2021/04/23 00:00:00+00,0,346,150,174,66397,283497
9162,9,2021/01/15 00:00:00+00,0,267,68,223,49279,283498
9162,9,2021/11/12 00:00:00+00,0,1313,495,724,104032,283499
9162,9,2021/06/14 00:00:00+00,0,39,20,10,73177,283500
9162,9,2021/07/31 00:00:00+00,0,59,48,12,74911,283501
9162,9,2021/04/24 00:00:00+00,0,165,154,79,66562,283502
9162,9,2021/01/16 00:00:00+00,0,217,58,165,49496,283503
9162,9,2021/11/13 00:00:00+00,0,1120,473,660,105152,283504
9162,9,2021/06/15 00:00:00+00,0,47,15,12,73224,283505
9162,9,2021/08/01 00:00:00+00,0,25,38,5,74936,283506
9162,9,2021/04/25 00:00:00+00,0,190,132,69,66752,283507
9162,9,2021/01/17 00:00:00+00,0,86,65,75,49582,283508
9162,9,2021/11/14 00:00:00+00,0,1235,491,687,106387,283509
9162,9,2021/06/16 00:00:00+00,0,27,17,8,73251,283510
9162,9,2021/08/02 00:00:00+00,0,56,61,13,74992,283511
9162,9,2021/04/26 00:00:00+00,0,302,191,136,67054,283512
9162,9,2021/01/18 00:00:00+00,0,135,78,106,49717,283513
9162,9,2021/11/15 00:00:00+00,0,1200,661,701,107587,283514
9162,9,2021/06/17 00:00:00+00,0,29,15,16,73280,283515
9162,9,2021/08/03 00:00:00+00,0,62,50,9,75054,283516
9162,9,2021/04/27 00:00:00+00,0,430,184,185,67484,283517
9162,9,2021/01/19 00:00:00+00,0,238,80,181,49955,283518
9162,9,2021/11/16 00:00:00+00,0,2189,581,1134,109776,283519
9162,9,2021/06/18 00:00:00+00,0,21,17,9,73301,283520
9162,9,2021/08/04 00:00:00+00,0,67,59,13,75121,283521
9162,9,2021/04/28 00:00:00+00,0,400,129,192,67884,283522
9162,9,2021/01/20 00:00:00+00,0,252,48,185,50207,283523
9162,9,2021/11/17 00:00:00+00,0,3308,482,1736,113084,283524
9162,9,2021/06/19 00:00:00+00,0,15,14,3,73316,283525
9162,9,2021/08/05 00:00:00+00,0,46,44,9,75167,283526
9162,9,2021/04/29 00:00:00+00,0,301,92,138,68185,283527
9162,9,2021/01/21 00:00:00+00,0,176,58,127,50383,283528
9162,9,2021/11/18 00:00:00+00,0,1477,477,832,114561,283529
9162,9,2021/06/20 00:00:00+00,0,7,15,2,73323,283530
9162,9,2021/08/06 00:00:00+00,0,104,46,22,75271,283531
9162,9,2021/08/07 00:00:00+00,0,46,47,9,75317,283532
9162,9,2021/08/08 00:00:00+00,0,19,58,5,75336,283533
9162,9,2021/08/09 00:00:00+00,0,67,80,15,75403,283534
9162,9,2021/08/10 00:00:00+00,0,116,60,19,75519,283535
9162,9,2021/08/11 00:00:00+00,0,78,70,12,75597,283536
9162,9,2021/08/12 00:00:00+00,0,72,74,15,75669,283537
9162,9,2021/08/13 00:00:00+00,0,59,79,8,75728,283538
9162,9,2021/08/14 00:00:00+00,0,77,73,17,75805,283539
9162,9,2021/08/15 00:00:00+00,0,46,80,8,75851,283540
9162,9,2021/08/16 00:00:00+00,0,116,122,23,75967,283541
9162,9,2021/08/17 00:00:00+00,0,149,86,35,76116,283542
9162,9,2021/08/18 00:00:00+00,0,142,101,36,76258,283543
9162,9,2021/08/19 00:00:00+00,0,122,84,39,76380,283544
9162,9,2021/08/20 00:00:00+00,0,178,83,67,76558,283545
9162,9,2021/08/21 00:00:00+00,0,128,109,51,76686,283546
9162,9,2021/08/22 00:00:00+00,0,68,100,19,76754,283547
9162,9,2021/06/21 00:00:00+00,0,11,25,3,73334,283548
9162,9,2021/01/22 00:00:00+00,0,178,50,138,50561,283549
9162,9,2021/06/22 00:00:00+00,0,43,15,7,73377,283550
9162,9,2021/11/19 00:00:00+00,0,1225,544,689,115786,283551
9162,9,2021/01/23 00:00:00+00,0,131,45,89,50692,283552
9162,9,2021/06/23 00:00:00+00,0,23,21,5,73400,283553
9162,9,2021/11/20 00:00:00+00,0,680,508,367,116466,283554
9162,9,2021/04/30 00:00:00+00,0,274,145,130,68459,283555
9162,9,2021/01/24 00:00:00+00,0,60,60,48,50752,283556
9162,9,2021/06/24 00:00:00+00,0,22,17,6,73422,283557
9162,9,2021/11/21 00:00:00+00,0,973,438,538,117439,283558
9162,9,2021/05/01 00:00:00+00,0,185,137,101,68644,283559
9162,9,2021/01/25 00:00:00+00,0,92,80,61,50844,283560
9162,9,2021/06/25 00:00:00+00,0,21,11,5,73443,283561
9162,9,2021/11/22 00:00:00+00,0,689,478,394,118128,283562
9162,9,2021/05/02 00:00:00+00,0,180,111,71,68824,283563
9162,9,2021/01/26 00:00:00+00,0,197,51,141,51041,283564
9162,9,2021/06/26 00:00:00+00,0,16,12,4,73459,283565
9162,9,2021/11/23 00:00:00+00,0,1446,488,819,119574,283566
9162,9,2021/05/03 00:00:00+00,0,175,148,60,68999,283567
9162,9,2021/01/27 00:00:00+00,0,173,62,122,51214,283568
9162,9,2021/06/27 00:00:00+00,0,18,12,4,73477,283569
9162,9,2021/11/24 00:00:00+00,0,1573,442,932,121147,283570
9162,9,2021/05/04 00:00:00+00,0,298,133,98,69297,283571
9162,9,2021/01/28 00:00:00+00,0,133,70,93,51347,283572
9162,9,2021/06/28 00:00:00+00,0,32,34,11,73509,283573
9162,9,2021/11/25 00:00:00+00,0,1352,399,744,122499,283574
9162,9,2021/05/05 00:00:00+00,0,354,139,134,69651,283575
9162,9,2021/01/29 00:00:00+00,0,140,59,93,51487,283576
9162,9,2021/06/29 00:00:00+00,0,33,25,8,73542,283577
9162,9,2021/11/26 00:00:00+00,0,781,404,429,123280,283578
9162,9,2021/05/06 00:00:00+00,0,261,103,116,69912,283579
9162,9,2021/01/30 00:00:00+00,0,113,42,79,51600,283580
9162,9,2021/06/30 00:00:00+00,0,38,39,7,73580,283581
9162,9,2021/11/27 00:00:00+00,0,829,391,467,124109,283582
9162,9,2021/05/07 00:00:00+00,0,181,99,70,70093,283583
9162,9,2021/01/31 00:00:00+00,0,47,44,24,51647,283584
9162,9,2021/07/01 00:00:00+00,0,22,14,6,73602,283585
9162,9,2021/11/28 00:00:00+00,0,782,305,454,124891,283586
9162,9,2021/05/08 00:00:00+00,0,126,93,47,70219,283587
9162,9,2021/02/01 00:00:00+00,0,78,32,39,51725,283588
9162,9,2021/07/02 00:00:00+00,0,33,25,6,73635,283589
9162,9,2021/11/29 00:00:00+00,0,572,405,307,125463,283590
9162,9,2021/05/09 00:00:00+00,0,70,76,27,70289,283591
9162,9,2021/02/02 00:00:00+00,0,100,37,70,51825,283592
9162,9,2021/07/03 00:00:00+00,0,18,20,7,73653,283593
9162,9,2021/11/30 00:00:00+00,0,1108,417,654,126571,283594
9162,9,2021/05/10 00:00:00+00,0,131,108,48,70420,283595
9162,9,2021/02/03 00:00:00+00,0,110,40,71,51935,283596
9162,9,2021/05/11 00:00:00+00,0,251,91,88,70671,283597
9162,9,2021/05/12 00:00:00+00,0,191,81,70,70862,283598
9162,9,2021/05/13 00:00:00+00,0,109,72,39,70971,283599
9162,9,2021/05/14 00:00:00+00,0,131,79,43,71102,283600
9162,9,2022/09/27 00:00:00+00,0,3042,79,2922,642110,283601
9162,9,2022/09/28 00:00:00+00,0,3146,56,3060,645256,283602
9162,9,2022/09/29 00:00:00+00,0,1995,55,1939,647251,283603
9162,9,2022/09/30 00:00:00+00,0,1880,55,1846,649131,283604
9162,9,2022/10/01 00:00:00+00,0,1558,66,1529,650689,283605
9162,9,2022/10/02 00:00:00+00,0,28,65,25,650717,283606
9162,9,2022/10/03 00:00:00+00,0,71,92,70,650788,283607
9162,9,2022/10/04 00:00:00+00,0,3020,89,2871,653808,283608
9162,9,2022/10/05 00:00:00+00,0,5963,73,5815,659771,283609
9162,9,2022/10/06 00:00:00+00,0,4180,44,4060,663951,283610
9162,9,2022/10/07 00:00:00+00,0,2839,59,2786,666790,283611
9162,9,2022/10/08 00:00:00+00,0,1560,51,1546,668350,283612
9162,9,2022/10/09 00:00:00+00,0,2268,40,2224,670618,283613
9162,9,2022/10/10 00:00:00+00,0,3220,52,3131,673838,283614
9162,9,2022/10/11 00:00:00+00,0,2741,44,2658,676579,283615
9162,9,2022/10/12 00:00:00+00,0,1981,36,1909,678560,283616
9162,9,2022/10/13 00:00:00+00,0,1576,37,1529,680136,283617
9162,9,2022/10/14 00:00:00+00,0,1335,25,1292,681471,283618
9162,9,2022/10/15 00:00:00+00,0,973,18,950,682444,283619
9162,9,2022/10/16 00:00:00+00,0,2,23,2,682446,283620
9162,9,2022/10/17 00:00:00+00,0,1258,23,1210,683704,283621
9162,9,2022/10/18 00:00:00+00,0,1271,24,1242,684975,283622
9162,9,2022/10/19 00:00:00+00,0,961,21,933,685936,283623
9162,9,2022/10/20 00:00:00+00,0,719,9,691,686655,283624
9162,9,2022/10/21 00:00:00+00,0,660,8,649,687315,283625
9162,9,2022/10/22 00:00:00+00,0,439,8,435,687754,283626
9162,9,2022/10/23 00:00:00+00,0,0,11,0,687754,283627
9162,9,2022/10/24 00:00:00+00,0,716,24,693,688470,283628
9162,9,2022/10/25 00:00:00+00,0,703,10,694,689173,283629
9162,9,2022/10/26 00:00:00+00,0,534,10,518,689707,283630
9162,9,2022/10/27 00:00:00+00,0,473,10,460,690180,283631
9162,9,2022/10/28 00:00:00+00,0,303,9,292,690483,283632
9162,9,2022/10/29 00:00:00+00,0,310,5,302,690793,283633
9162,9,2022/10/30 00:00:00+00,0,0,10,0,690793,283634
9162,9,2022/10/31 00:00:00+00,0,345,7,333,691138,283635
9162,9,2022/11/01 00:00:00+00,0,0,9,0,691138,283636
9162,9,2022/11/02 00:00:00+00,0,580,8,562,691718,283637
9162,9,2022/11/03 00:00:00+00,0,340,5,332,692058,283638
9162,9,2022/11/04 00:00:00+00,0,349,7,344,692407,283639
9162,9,2022/11/05 00:00:00+00,0,1,4,1,692408,283640
9162,9,2022/11/06 00:00:00+00,0,1,7,1,692409,283641
9162,9,2022/11/07 00:00:00+00,0,604,9,589,693013,283642
9162,9,2022/11/08 00:00:00+00,0,389,3,380,693402,283643
9162,9,2022/11/09 00:00:00+00,0,331,8,325,693733,283644
9162,9,2022/11/10 00:00:00+00,0,256,6,250,693989,283645
9162,9,2022/11/11 00:00:00+00,0,200,8,196,694189,283646
9162,9,2022/11/12 00:00:00+00,0,37,8,36,694226,283647
9162,9,2022/11/13 00:00:00+00,0,0,6,0,694226,283648
9162,9,2022/11/14 00:00:00+00,0,436,9,420,694662,283649
9162,9,2022/11/15 00:00:00+00,0,244,12,238,694906,283650
9162,9,2022/11/16 00:00:00+00,0,247,6,238,695153,283651
9162,9,2022/11/17 00:00:00+00,0,235,6,230,695388,283652
9162,9,2022/11/18 00:00:00+00,0,191,6,187,695579,283653
9162,9,2022/11/19 00:00:00+00,0,18,7,16,695597,283654
9162,9,2022/11/20 00:00:00+00,0,0,7,0,695597,283655
9162,9,2022/11/21 00:00:00+00,0,496,19,476,696093,283656
9162,9,2022/11/22 00:00:00+00,0,322,4,310,696415,283657
9162,9,2022/11/23 00:00:00+00,0,270,10,266,696685,283658
9162,9,2022/11/24 00:00:00+00,0,274,8,265,696959,283659
9162,9,2022/11/25 00:00:00+00,0,137,11,135,697096,283660
9162,9,2022/11/26 00:00:00+00,0,18,6,18,697114,283661
9162,9,2022/11/27 00:00:00+00,0,0,10,0,697114,283662
9162,9,2022/11/28 00:00:00+00,0,519,4,496,697633,283663
9162,9,2022/11/29 00:00:00+00,0,307,7,299,697940,283664
9162,9,2022/11/30 00:00:00+00,0,269,7,264,698209,283665
9162,9,2022/12/01 00:00:00+00,0,281,9,271,698490,283666
9162,9,2022/12/02 00:00:00+00,0,197,3,192,698687,283667
9162,9,2022/12/03 00:00:00+00,0,0,8,0,698687,283668
9162,9,2022/12/04 00:00:00+00,0,0,11,0,698687,283669
9162,9,2022/12/05 00:00:00+00,0,453,7,441,699140,283670
9162,9,2022/12/06 00:00:00+00,0,392,13,380,699532,283671
9162,9,2022/12/07 00:00:00+00,0,320,16,307,699852,283672
9162,9,2022/12/08 00:00:00+00,0,289,9,276,700141,283673
9162,9,2022/12/09 00:00:00+00,0,284,9,279,700425,283674
9162,9,2022/12/10 00:00:00+00,0,0,12,0,700425,283675
9162,9,2022/12/11 00:00:00+00,0,0,6,0,700425,283676
9162,9,2022/12/12 00:00:00+00,0,545,15,518,700970,283677
9162,9,2022/12/13 00:00:00+00,0,401,13,386,701371,283678
9162,9,2022/12/14 00:00:00+00,0,346,12,329,701717,283679
9162,9,2022/12/15 00:00:00+00,0,299,14,285,702016,283680
9162,9,2022/12/16 00:00:00+00,0,262,13,250,702278,283681
9162,9,2022/12/17 00:00:00+00,0,0,8,0,702278,283682
9162,9,2022/12/18 00:00:00+00,0,0,5,0,702278,283683
9162,9,2022/12/19 00:00:00+00,0,613,32,577,702891,283684
9162,9,2022/12/20 00:00:00+00,0,463,14,445,703354,283685
9162,9,2022/12/21 00:00:00+00,0,441,15,429,703795,283686
9162,9,2022/12/22 00:00:00+00,0,369,20,347,704164,283687
9162,9,2022/12/23 00:00:00+00,0,349,14,334,704513,283688
9162,9,2022/12/24 00:00:00+00,0,0,6,0,704513,283689
9162,9,2022/12/25 00:00:00+00,0,0,10,0,704513,283690
9162,9,2022/12/26 00:00:00+00,0,0,13,0,704513,283691
9162,9,2022/12/27 00:00:00+00,0,786,15,750,705299,283692
9162,9,2022/12/28 00:00:00+00,0,368,10,356,705667,283693
9162,9,2022/12/29 00:00:00+00,0,329,12,320,705996,283694
9162,9,2022/12/30 00:00:00+00,0,199,8,189,706195,283695
9162,9,2022/12/31 00:00:00+00,0,7,7,7,706202,283696
9162,9,2023/01/01 00:00:00+00,0,7,10,7,706209,283697
9162,9,2023/01/02 00:00:00+00,0,368,12,355,706577,283698
9162,9,2023/01/03 00:00:00+00,0,256,6,242,706833,283699
9162,9,2023/01/04 00:00:00+00,0,294,2,284,707127,283700
9162,9,2022/01/20 00:00:00+00,0,4228,1573,2312,181000,283701
9162,9,2022/06/19 00:00:00+00,0,11,447,5,538509,283702
9162,9,2022/04/30 00:00:00+00,0,1149,189,1094,498876,283703
9162,9,2021/12/01 00:00:00+00,0,1500,442,848,128071,283704
9162,9,2022/08/08 00:00:00+00,0,1290,124,1065,613875,283705
9162,9,2022/08/09 00:00:00+00,0,793,98,654,614668,283706
9162,9,2021/12/02 00:00:00+00,0,1108,323,608,129179,283707
9162,9,2022/06/20 00:00:00+00,0,1513,499,1006,540022,283708
9162,9,2022/03/11 00:00:00+00,0,3995,1000,2926,361662,283709
9162,9,2022/08/10 00:00:00+00,0,595,84,473,615263,283710
9162,9,2022/05/01 00:00:00+00,0,863,296,849,499739,283711
9162,9,2021/12/03 00:00:00+00,0,924,330,497,130103,283712
9162,9,2022/01/21 00:00:00+00,0,4631,1790,2658,185631,283713
9162,9,2022/06/21 00:00:00+00,0,1820,491,1158,541842,283714
9162,9,2022/08/11 00:00:00+00,0,565,53,456,615828,283715
9162,9,2022/03/12 00:00:00+00,0,3154,1038,2377,364816,283716
9162,9,2022/05/02 00:00:00+00,0,960,370,926,500699,283717
9162,9,2021/12/04 00:00:00+00,0,549,300,335,130652,283718
9162,9,2022/01/22 00:00:00+00,0,2411,1780,1311,188042,283719
9162,9,2022/06/22 00:00:00+00,0,2242,413,1397,544084,283720
9162,9,2022/08/12 00:00:00+00,0,537,78,451,616365,283721
9162,9,2022/03/13 00:00:00+00,0,3495,1081,2561,368311,283722
9162,9,2022/05/03 00:00:00+00,0,1605,470,1243,502304,283723
9162,9,2021/12/05 00:00:00+00,0,597,262,315,131249,283724
9162,9,2022/01/23 00:00:00+00,0,3481,1884,2035,191523,283725
9162,9,2022/06/23 00:00:00+00,0,1937,363,1296,546021,283726
9162,9,2022/08/13 00:00:00+00,0,1,82,1,616366,283727
9162,9,2022/03/14 00:00:00+00,0,3885,1317,2841,372196,283728
9162,9,2022/05/04 00:00:00+00,0,1711,408,1158,504015,283729
9162,9,2021/12/06 00:00:00+00,0,339,331,189,131588,283730
9162,9,2022/01/24 00:00:00+00,0,5188,2127,2901,196711,283731
9162,9,2022/06/24 00:00:00+00,0,1171,462,799,547192,283732
9162,9,2022/08/14 00:00:00+00,0,0,70,0,616366,283733
9162,9,2022/03/15 00:00:00+00,0,4540,1229,3241,376736,283734
9162,9,2022/05/05 00:00:00+00,0,1462,342,1007,505477,283735
9162,9,2021/12/07 00:00:00+00,0,1217,266,671,132805,283736
9162,9,2022/01/25 00:00:00+00,0,4822,1959,2579,201533,283737
9162,9,2022/06/25 00:00:00+00,0,3,436,0,547195,283738
9162,9,2022/08/15 00:00:00+00,0,5,105,2,616371,283739
9162,9,2022/03/16 00:00:00+00,0,4807,1047,3517,381543,283740
9162,9,2022/05/06 00:00:00+00,0,1266,357,859,506743,283741
9162,9,2021/12/08 00:00:00+00,0,833,254,455,133638,283742
9162,9,2022/01/26 00:00:00+00,0,4478,1699,2436,206011,283743
9162,9,2022/06/26 00:00:00+00,0,1,535,0,547196,283744
9162,9,2022/08/16 00:00:00+00,0,1158,105,928,617529,283745
9162,9,2022/03/17 00:00:00+00,0,4668,898,3555,386211,283746
9162,9,2022/05/07 00:00:00+00,0,923,370,612,507666,283747
9162,9,2021/12/09 00:00:00+00,0,641,199,391,134279,283748
9162,9,2022/01/27 00:00:00+00,0,3762,1524,2297,209773,283749
9162,9,2022/06/27 00:00:00+00,0,2220,629,1412,549416,283750
9162,9,2022/08/17 00:00:00+00,0,808,81,666,618337,283751
9162,9,2022/03/18 00:00:00+00,0,4370,953,3359,390581,283752
9162,9,2022/05/08 00:00:00+00,0,626,435,385,508292,283753
9162,9,2021/12/10 00:00:00+00,0,553,251,315,134832,283754
9162,9,2022/01/28 00:00:00+00,0,3812,1534,2315,213585,283755
9162,9,2022/06/28 00:00:00+00,0,1960,554,1210,551376,283756
9162,9,2022/08/18 00:00:00+00,0,622,75,506,618959,283757
9162,9,2022/03/19 00:00:00+00,0,2821,909,2169,393402,283758
9162,9,2022/05/09 00:00:00+00,0,1001,441,608,509293,283759
9162,9,2021/12/11 00:00:00+00,0,387,185,200,135219,283760
9162,9,2022/01/29 00:00:00+00,0,2185,1525,1323,215770,283761
9162,9,2022/06/29 00:00:00+00,0,2213,456,1496,553589,283762
9162,9,2022/08/19 00:00:00+00,0,492,83,415,619451,283763
9162,9,2022/03/20 00:00:00+00,0,3893,983,2962,397295,283764
9162,9,2022/05/10 00:00:00+00,0,1505,432,992,510798,283765
9162,9,2021/12/12 00:00:00+00,0,266,194,161,135485,283766
9162,9,2022/01/30 00:00:00+00,0,3788,1451,2239,219558,283767
9162,9,2022/06/30 00:00:00+00,0,2262,414,1503,555851,283768
9162,9,2022/08/20 00:00:00+00,0,1,60,1,619452,283769
9162,9,2022/03/21 00:00:00+00,0,4072,1206,3200,401367,283770
9162,9,2022/05/11 00:00:00+00,0,1540,314,1002,512338,283771
9162,9,2021/12/13 00:00:00+00,0,395,239,217,135880,283772
9162,9,2022/01/31 00:00:00+00,0,5182,1718,3051,224740,283773
9162,9,2022/07/01 00:00:00+00,0,1617,502,1122,557468,283774
9162,9,2022/08/21 00:00:00+00,0,1,82,0,619453,283775
9162,9,2022/03/22 00:00:00+00,0,4697,1023,3533,406064,283776
9162,9,2022/05/12 00:00:00+00,0,1272,315,893,513610,283777
9162,9,2021/12/14 00:00:00+00,0,765,231,418,136645,283778
9162,9,2022/02/01 00:00:00+00,0,4854,1753,3076,229594,283779
9162,9,2022/07/02 00:00:00+00,0,21,502,12,557489,283780
9162,9,2022/08/22 00:00:00+00,0,747,93,578,620200,283781
9162,9,2022/03/23 00:00:00+00,0,5216,883,3867,411280,283782
9162,9,2022/05/13 00:00:00+00,0,1022,257,694,514632,283783
9162,9,2021/12/15 00:00:00+00,0,635,211,371,137280,283784
9162,9,2021/12/16 00:00:00+00,0,476,171,286,137756,283785
9162,9,2021/12/17 00:00:00+00,0,628,175,366,138384,283786
9162,9,2021/12/18 00:00:00+00,0,225,188,136,138609,283787
9162,9,2021/12/19 00:00:00+00,0,353,175,206,138962,283788
9162,9,2021/12/20 00:00:00+00,0,350,214,211,139312,283789
9162,9,2021/12/21 00:00:00+00,0,641,189,358,139953,283790
9162,9,2021/12/22 00:00:00+00,0,543,180,307,140496,283791
9162,9,2021/12/23 00:00:00+00,0,414,234,238,140910,283792
9162,9,2021/12/24 00:00:00+00,0,348,240,195,141258,283793
9162,9,2021/12/25 00:00:00+00,0,12,242,6,141270,283794
9162,9,2021/12/26 00:00:00+00,0,414,281,225,141684,283795
9162,9,2021/12/27 00:00:00+00,0,644,391,319,142328,283796
9162,9,2021/12/28 00:00:00+00,0,613,352,302,142941,283797
9162,9,2021/12/29 00:00:00+00,0,624,332,332,143565,283798
9162,9,2021/12/30 00:00:00+00,0,682,335,312,144247,283799
9162,9,2021/12/31 00:00:00+00,0,421,319,213,144668,283800
9162,9,2022/01/01 00:00:00+00,0,8,471,5,144676,283801
9162,9,2022/01/02 00:00:00+00,0,617,591,292,145293,283802
9162,9,2022/01/03 00:00:00+00,0,805,839,410,146098,283803
9162,9,2022/01/04 00:00:00+00,0,1073,644,530,147171,283804
9162,9,2022/01/05 00:00:00+00,0,1344,649,718,148515,283805
9162,9,2022/01/06 00:00:00+00,0,1278,652,692,149793,283806
9162,9,2022/01/07 00:00:00+00,0,1464,681,772,151257,283807
9162,9,2022/01/08 00:00:00+00,0,1094,817,612,152351,283808
9162,9,2022/01/09 00:00:00+00,0,1032,869,564,153383,283809
9162,9,2022/01/10 00:00:00+00,0,1748,1142,1022,155131,283810
9162,9,2022/01/11 00:00:00+00,0,2316,1061,1257,157447,283811
9162,9,2022/01/12 00:00:00+00,0,2373,964,1338,159820,283812
9162,9,2022/01/13 00:00:00+00,0,2220,1028,1202,162040,283813
9162,9,2022/01/14 00:00:00+00,0,2236,1106,1228,164276,283814
9162,9,2022/01/15 00:00:00+00,0,1809,1337,1048,166085,283815
9162,9,2022/01/16 00:00:00+00,0,1773,1547,1055,167858,283816
9162,9,2022/01/17 00:00:00+00,0,2247,1816,1240,170105,283817
9162,9,2022/01/18 00:00:00+00,0,3326,1836,1823,173431,283818
9162,9,2022/01/19 00:00:00+00,0,3341,1790,1772,176772,283819
9162,9,2022/05/14 00:00:00+00,0,796,265,499,515428,283820
9162,9,2022/05/15 00:00:00+00,0,559,287,338,515987,283821
9162,9,2022/05/16 00:00:00+00,0,814,276,510,516801,283822
9162,9,2022/05/17 00:00:00+00,0,942,249,637,517743,283823
9162,9,2022/05/18 00:00:00+00,0,891,231,616,518634,283824
9162,9,2022/05/19 00:00:00+00,0,866,203,584,519500,283825
9162,9,2022/05/20 00:00:00+00,0,772,184,500,520272,283826
9162,9,2022/05/21 00:00:00+00,0,439,177,274,520711,283827
9162,9,2022/05/22 00:00:00+00,0,313,194,182,521024,283828
9162,9,2022/05/23 00:00:00+00,0,542,186,341,521566,283829
9162,9,2022/05/24 00:00:00+00,0,777,228,530,522343,283830
9162,9,2022/05/25 00:00:00+00,0,590,214,357,522933,283831
9162,9,2022/05/26 00:00:00+00,0,451,170,289,523384,283832
9162,9,2022/05/27 00:00:00+00,0,333,168,187,523717,283833
9162,9,2022/05/28 00:00:00+00,0,547,186,322,524264,283834
9162,9,2022/05/29 00:00:00+00,0,313,192,180,524577,283835
9162,9,2022/05/30 00:00:00+00,0,393,230,251,524970,283836
9162,9,2022/05/31 00:00:00+00,0,871,249,583,525841,283837
9162,9,2022/06/01 00:00:00+00,0,743,246,487,526584,283838
9162,9,2022/06/02 00:00:00+00,0,623,208,409,527207,283839
9162,9,2022/06/03 00:00:00+00,0,689,222,442,527896,283840
9162,9,2022/06/04 00:00:00+00,0,2,273,1,527898,283841
9162,9,2022/06/05 00:00:00+00,0,7,305,2,527905,283842
9162,9,2022/06/06 00:00:00+00,0,8,306,2,527913,283843
9162,9,2022/06/07 00:00:00+00,0,1568,335,952,529481,283844
9162,9,2022/06/08 00:00:00+00,0,1412,333,887,530893,283845
9162,9,2022/06/09 00:00:00+00,0,1140,295,708,532033,283846
9162,9,2022/03/24 00:00:00+00,0,5225,776,3933,416505,283847
9162,9,2022/06/10 00:00:00+00,0,956,257,648,532989,283848
9162,9,2022/07/03 00:00:00+00,0,26,582,16,557515,283849
9162,9,2022/08/23 00:00:00+00,0,649,80,529,620849,283850
9162,9,2022/02/02 00:00:00+00,0,5834,1434,3649,235428,283851
9162,9,2022/03/25 00:00:00+00,0,4157,758,3190,420662,283852
9162,9,2022/06/11 00:00:00+00,0,0,277,0,532989,283853
9162,9,2022/07/04 00:00:00+00,0,2780,702,1897,560295,283854
9162,9,2022/08/24 00:00:00+00,0,493,97,409,621342,283855
9162,9,2022/02/03 00:00:00+00,0,7445,1247,4934,242873,283856
9162,9,2022/03/26 00:00:00+00,0,2814,811,2197,423476,283857
9162,9,2022/06/12 00:00:00+00,0,7,283,4,532996,283858
9162,9,2022/07/05 00:00:00+00,0,2766,591,1900,563061,283859
9162,9,2022/08/25 00:00:00+00,0,537,80,417,621879,283860
9162,9,2022/02/04 00:00:00+00,0,6164,1131,4188,249037,283861
9162,9,2022/03/27 00:00:00+00,0,3271,848,2506,426747,283862
9162,9,2022/06/13 00:00:00+00,0,1603,386,1033,534599,283863
9162,9,2022/07/06 00:00:00+00,0,2392,488,1681,565453,283864
9162,9,2022/08/26 00:00:00+00,0,380,83,315,622259,283865
9162,9,2022/02/05 00:00:00+00,0,3459,1102,2382,252496,283866
9162,9,2022/03/28 00:00:00+00,0,4666,880,3497,431413,283867
9162,9,2022/06/14 00:00:00+00,0,1399,343,900,535998,283868
9162,9,2022/07/07 00:00:00+00,0,2806,492,1965,568259,283869
9162,9,2022/08/27 00:00:00+00,0,1,72,1,622260,283870
9162,9,2022/02/06 00:00:00+00,0,4216,1049,2826,256712,283871
9162,9,2022/03/29 00:00:00+00,0,4840,811,3635,436253,283872
9162,9,2022/06/15 00:00:00+00,0,1210,302,775,537208,283873
9162,9,2022/07/08 00:00:00+00,0,1768,431,1297,570027,283874
9162,9,2022/08/28 00:00:00+00,0,0,88,0,622260,283875
9162,9,2022/02/07 00:00:00+00,0,4261,1128,2909,260973,283876
9162,9,2022/03/30 00:00:00+00,0,5183,648,3972,441436,283877
9162,9,2022/06/16 00:00:00+00,0,2,334,2,537210,283878
9162,9,2022/07/09 00:00:00+00,0,36,472,29,570063,283879
9162,9,2022/08/29 00:00:00+00,0,920,80,694,623180,283880
9162,9,2022/02/08 00:00:00+00,0,5199,965,3566,266172,283881
9162,9,2022/03/31 00:00:00+00,0,4012,485,3062,445448,283882
9162,9,2022/06/17 00:00:00+00,0,1273,355,824,538483,283883
9162,9,2022/07/10 00:00:00+00,0,26,569,17,570089,283884
9162,9,2022/08/30 00:00:00+00,0,630,78,503,623810,283885
9162,9,2022/02/09 00:00:00+00,0,5066,842,3620,271238,283886
9162,9,2022/04/01 00:00:00+00,0,2926,554,2248,448374,283887
9162,9,2022/06/18 00:00:00+00,0,15,386,10,538498,283888
9162,9,2022/07/11 00:00:00+00,0,2603,637,1860,572692,283889
9162,9,2022/08/31 00:00:00+00,0,509,66,415,624319,283890
9162,9,2022/02/10 00:00:00+00,0,4675,726,3504,275913,283891
9162,9,2022/04/02 00:00:00+00,0,1843,472,1429,450217,283892
9162,9,2022/07/12 00:00:00+00,0,2894,569,2131,575586,283893
9162,9,2022/09/01 00:00:00+00,0,407,62,331,624726,283894
9162,9,2022/02/11 00:00:00+00,0,3746,824,2845,279659,283895
9162,9,2022/04/03 00:00:00+00,0,1584,499,1281,451801,283896
9162,9,2022/07/13 00:00:00+00,0,2449,576,1770,578035,283897
9162,9,2022/09/02 00:00:00+00,0,354,56,296,625080,283898
9162,9,2022/02/12 00:00:00+00,0,1661,844,1230,281320,283899
9162,9,2022/04/04 00:00:00+00,0,2010,588,1550,453811,283900
9162,9,2022/07/14 00:00:00+00,0,2173,572,1535,580208,283901
9162,9,2022/09/03 00:00:00+00,0,9,78,8,625089,283902
9162,9,2022/02/13 00:00:00+00,0,2025,823,1449,283345,283903
9162,9,2022/04/05 00:00:00+00,0,2693,515,2061,456504,283904
9162,9,2022/07/15 00:00:00+00,0,2336,540,1702,582544,283905
9162,9,2022/09/04 00:00:00+00,0,8,69,5,625097,283906
9162,9,2022/02/14 00:00:00+00,0,2562,1065,1727,285907,283907
9162,9,2022/04/06 00:00:00+00,0,3494,383,2764,459998,283908
9162,9,2022/04/07 00:00:00+00,0,3288,312,2574,463286,283909
9162,9,2022/04/08 00:00:00+00,0,2611,280,2118,465897,283910
9162,9,2022/04/09 00:00:00+00,0,1616,231,1322,467513,283911
9162,9,2022/04/10 00:00:00+00,0,1359,171,1086,468872,283912
9162,9,2022/04/11 00:00:00+00,0,1927,139,1598,470799,283913
9162,9,2022/04/12 00:00:00+00,0,2555,75,2209,473354,283914
9162,9,2022/04/13 00:00:00+00,0,2183,16,1994,475537,283915
9162,9,2022/04/14 00:00:00+00,0,2000,17,1950,477537,283916
9162,9,2022/04/15 00:00:00+00,0,1318,9,1300,478855,283917
9162,9,2022/04/16 00:00:00+00,0,1114,13,1099,479969,283918
9162,9,2022/04/17 00:00:00+00,0,969,9,960,480938,283919
9162,9,2022/04/18 00:00:00+00,0,915,9,905,481853,283920
9162,9,2022/04/19 00:00:00+00,0,1493,12,1479,483346,283921
9162,9,2022/04/20 00:00:00+00,0,1987,14,1978,485333,283922
9162,9,2022/04/21 00:00:00+00,0,1751,16,1735,487084,283923
9162,9,2022/04/22 00:00:00+00,0,1285,18,1268,488369,283924
9162,9,2022/04/23 00:00:00+00,0,1112,12,1104,489481,283925
9162,9,2022/04/24 00:00:00+00,0,1136,12,1130,490617,283926
9162,9,2022/04/25 00:00:00+00,0,1333,36,1323,491950,283927
9162,9,2022/04/26 00:00:00+00,0,1888,34,1863,493838,283928
9162,9,2022/04/27 00:00:00+00,0,1601,58,1586,495439,283929
9162,9,2022/04/28 00:00:00+00,0,1327,88,1306,496766,283930
9162,9,2022/04/29 00:00:00+00,0,961,112,908,497727,283931
9162,9,2022/02/15 00:00:00+00,0,3684,966,2652,289591,283932
9162,9,2022/02/16 00:00:00+00,0,4646,873,3360,294237,283933
9162,9,2022/02/17 00:00:00+00,0,4010,771,2916,298247,283934
9162,9,2022/02/18 00:00:00+00,0,3315,816,2422,301562,283935
9162,9,2022/02/19 00:00:00+00,0,1582,847,1106,303144,283936
9162,9,2022/02/20 00:00:00+00,0,1993,790,1325,305137,283937
9162,9,2022/02/21 00:00:00+00,0,2426,924,1630,307563,283938
9162,9,2022/02/22 00:00:00+00,0,3498,880,2427,311061,283939
9162,9,2022/02/23 00:00:00+00,0,3576,713,2560,314637,283940
9162,9,2022/02/24 00:00:00+00,0,3584,605,2679,318221,283941
9162,9,2022/02/25 00:00:00+00,0,2867,671,2066,321088,283942
9162,9,2022/02/26 00:00:00+00,0,1449,690,1026,322537,283943
9162,9,2022/02/27 00:00:00+00,0,1815,694,1342,324352,283944
9162,9,2022/02/28 00:00:00+00,0,2477,844,1713,326829,283945
9162,9,2022/03/01 00:00:00+00,0,1971,978,1357,328800,283946
9162,9,2022/03/02 00:00:00+00,0,3984,870,2827,332784,283947
9162,9,2022/03/03 00:00:00+00,0,3326,828,2400,336110,283948
9162,9,2022/03/04 00:00:00+00,0,2733,856,2006,338843,283949
9162,9,2022/03/05 00:00:00+00,0,1429,924,1007,340272,283950
9162,9,2022/03/06 00:00:00+00,0,2289,1033,1606,342561,283951
9162,9,2022/03/07 00:00:00+00,0,2630,1337,1904,345191,283952
9162,9,2022/03/08 00:00:00+00,0,3710,1309,2617,348901,283953
9162,9,2022/07/16 00:00:00+00,0,5,552,4,582549,283954
9162,9,2022/03/09 00:00:00+00,0,4278,1013,3105,353179,283955
9162,9,2022/09/05 00:00:00+00,0,858,87,696,625955,283956
9162,9,2022/03/10 00:00:00+00,0,4488,1007,3303,357667,283957
9162,9,2022/07/17 00:00:00+00,0,8,614,5,582557,283958
9162,9,2022/09/06 00:00:00+00,0,628,95,530,626583,283959
9162,9,2022/07/18 00:00:00+00,0,2900,578,2097,585457,283960
9162,9,2022/09/07 00:00:00+00,0,479,81,394,627062,283961
9162,9,2022/07/19 00:00:00+00,0,3138,584,2133,588595,283962
9162,9,2022/09/08 00:00:00+00,0,418,67,333,627480,283963
9162,9,2022/07/20 00:00:00+00,0,3115,507,2228,591710,283964
9162,9,2022/09/09 00:00:00+00,0,416,71,346,627896,283965
9162,9,2022/07/21 00:00:00+00,0,2803,447,2056,594513,283966
9162,9,2022/09/10 00:00:00+00,0,6,83,5,627902,283967
9162,9,2022/07/22 00:00:00+00,0,2103,398,1461,596616,283968
9162,9,2022/09/11 00:00:00+00,0,14,82,11,627916,283969
9162,9,2022/07/23 00:00:00+00,0,8,381,6,596624,283970
9162,9,2022/09/12 00:00:00+00,0,831,87,643,628747,283971
9162,9,2022/07/24 00:00:00+00,0,18,322,15,596642,283972
9162,9,2022/09/13 00:00:00+00,0,683,111,568,629430,283973
9162,9,2022/07/25 00:00:00+00,0,2599,322,1912,599241,283974
9162,9,2022/09/14 00:00:00+00,0,590,110,476,630020,283975
9162,9,2022/07/26 00:00:00+00,0,2205,292,1536,601446,283976
9162,9,2022/09/15 00:00:00+00,0,619,101,507,630639,283977
9162,9,2022/07/27 00:00:00+00,0,2459,200,1842,603905,283978
9162,9,2022/09/16 00:00:00+00,0,520,127,444,631159,283979
9162,9,2022/07/28 00:00:00+00,0,1608,160,1202,605513,283980
9162,9,2022/09/17 00:00:00+00,0,1,121,1,631160,283981
9162,9,2022/07/29 00:00:00+00,0,1185,152,971,606698,283982
9162,9,2022/09/18 00:00:00+00,0,13,118,9,631173,283983
9162,9,2022/07/30 00:00:00+00,0,7,156,7,606705,283984
9162,9,2022/09/19 00:00:00+00,0,1203,163,898,632376,283985
9162,9,2022/07/31 00:00:00+00,0,7,135,6,606712,283986
9162,9,2022/09/20 00:00:00+00,0,890,171,718,633266,283987
9162,9,2022/08/01 00:00:00+00,0,1932,166,1525,608644,283988
9162,9,2022/09/21 00:00:00+00,0,806,224,654,634072,283989
9162,9,2022/08/02 00:00:00+00,0,1354,139,1117,609998,283990
9162,9,2022/09/22 00:00:00+00,0,909,212,751,634981,283991
9162,9,2022/08/03 00:00:00+00,0,1013,103,829,611011,283992
9162,9,2022/09/23 00:00:00+00,0,1088,223,888,636069,283993
9162,9,2022/08/04 00:00:00+00,0,763,98,654,611774,283994
9162,9,2022/09/24 00:00:00+00,0,979,220,777,637048,283995
9162,9,2022/08/05 00:00:00+00,0,794,77,667,612568,283996
9162,9,2022/09/25 00:00:00+00,0,28,103,24,637076,283997
9162,9,2022/08/06 00:00:00+00,0,12,111,10,612580,283998
9162,9,2022/09/26 00:00:00+00,0,1992,86,1487,639068,283999
9162,9,2022/08/07 00:00:00+00,0,5,82,2,612585,284000
9162,9,2023/04/15 00:00:00+00,0,0,2,0,720582,284018
9162,9,2023/01/05 00:00:00+00,0,158,10,154,707285,284020
9162,9,2023/04/16 00:00:00+00,0,0,1,0,720582,284023
9162,9,2023/01/06 00:00:00+00,0,0,2,0,707285,284026
9162,9,2023/02/24 00:00:00+00,0,230,4,220,716733,284027
9162,9,2023/04/17 00:00:00+00,0,66,3,60,720648,284030
9162,9,2023/01/07 00:00:00+00,0,0,11,0,707285,284034
9162,9,2023/02/25 00:00:00+00,0,0,5,0,716733,284035
9162,9,2023/04/18 00:00:00+00,0,39,5,38,720687,284038
9162,9,2023/04/19 00:00:00+00,0,36,6,31,720723,284039
9162,9,2023/04/20 00:00:00+00,0,30,1,26,720753,284040
9162,9,2023/04/21 00:00:00+00,0,24,1,24,720777,284041
9162,9,2023/04/22 00:00:00+00,0,0,1,0,720777,284042
9162,9,2023/04/23 00:00:00+00,0,0,2,0,720777,284043
9162,9,2023/04/24 00:00:00+00,0,50,1,41,720827,284044
9162,9,2023/04/25 00:00:00+00,0,38,2,37,720865,284045
9162,9,2023/04/26 00:00:00+00,0,21,1,21,720886,284046
9162,9,2023/04/27 00:00:00+00,0,31,1,29,720917,284047
9162,9,2023/04/28 00:00:00+00,0,22,0,20,720939,284048
9162,9,2023/04/29 00:00:00+00,0,0,3,0,720939,284049
9162,9,2023/04/30 00:00:00+00,0,0,1,0,720939,284050
9162,9,2023/05/01 00:00:00+00,0,0,2,0,720939,284051
9162,9,2023/05/02 00:00:00+00,0,52,2,51,720991,284052
9162,9,2023/05/03 00:00:00+00,0,37,1,32,721028,284053
9162,9,2023/05/04 00:00:00+00,0,35,2,34,721063,284054
9162,9,2023/05/05 00:00:00+00,0,31,0,28,721094,284055
9162,9,2023/05/06 00:00:00+00,0,0,1,0,721094,284056
9162,9,2023/05/07 00:00:00+00,0,0,2,0,721094,284057
9162,9,2023/05/08 00:00:00+00,0,41,2,38,721135,284058
9162,9,2023/05/09 00:00:00+00,0,20,0,19,721155,284059
9162,9,2023/05/10 00:00:00+00,0,28,1,26,721183,284060
9162,9,2023/05/11 00:00:00+00,0,19,1,18,721202,284061
9162,9,2023/05/12 00:00:00+00,0,20,0,20,721222,284062
9162,9,2023/05/13 00:00:00+00,0,0,0,0,721222,284063
9162,9,2023/05/14 00:00:00+00,0,0,2,0,721222,284064
9162,9,2023/05/15 00:00:00+00,0,28,1,26,721250,284065
9162,9,2023/05/16 00:00:00+00,0,26,2,25,721276,284066
9162,9,2023/05/17 00:00:00+00,0,32,1,30,721308,284067
9162,9,2023/05/18 00:00:00+00,0,0,0,0,721308,284068
9162,9,2023/05/19 00:00:00+00,0,27,1,26,721335,284069
9162,9,2023/05/20 00:00:00+00,0,0,1,0,721335,284070
9162,9,2023/05/21 00:00:00+00,0,0,2,0,721335,284071
9162,9,2023/05/22 00:00:00+00,1,29,1,25,721365,284072
9162,9,2023/05/23 00:00:00+00,15,0,0,14,721380,284073
9162,9,2023/02/26 00:00:00+00,0,0,8,0,716733,284087
9162,9,2023/01/08 00:00:00+00,0,1,10,0,707286,284088
9162,9,2023/02/27 00:00:00+00,0,269,9,252,717002,284094
9162,9,2023/01/09 00:00:00+00,0,555,11,527,707841,284095
9162,9,2023/02/28 00:00:00+00,0,304,11,289,717306,284101
9162,9,2023/01/10 00:00:00+00,0,305,9,294,708146,284102
9162,9,2023/03/01 00:00:00+00,0,303,8,293,717609,284108
9162,9,2023/01/11 00:00:00+00,0,250,5,241,708396,284109
9162,9,2023/03/02 00:00:00+00,0,168,4,156,717777,284115
9162,9,2023/01/12 00:00:00+00,0,191,2,183,708587,284116
9162,9,2023/03/03 00:00:00+00,0,119,5,117,717896,284122
9162,9,2023/01/13 00:00:00+00,0,116,9,115,708703,284123
9162,9,2023/03/04 00:00:00+00,0,0,5,0,717896,284129
9162,9,2023/01/14 00:00:00+00,0,0,5,0,708703,284130
9162,9,2023/03/05 00:00:00+00,0,0,7,0,717896,284136
9162,9,2023/01/15 00:00:00+00,0,0,2,0,708703,284137
9162,9,2023/03/06 00:00:00+00,0,226,9,210,718122,284143
9162,9,2023/01/16 00:00:00+00,0,286,9,268,708989,284144
9162,9,2023/03/07 00:00:00+00,0,127,6,120,718249,284150
9162,9,2023/01/17 00:00:00+00,0,156,5,149,709145,284151
9162,9,2023/03/08 00:00:00+00,0,129,4,124,718378,284157
9162,9,2023/01/18 00:00:00+00,0,180,9,167,709325,284158
9162,9,2023/01/19 00:00:00+00,0,118,5,111,709443,284209
9162,9,2023/03/09 00:00:00+00,0,113,4,108,718491,284211
9162,9,2023/01/20 00:00:00+00,0,142,11,136,709585,284215
9162,9,2023/03/10 00:00:00+00,0,118,3,110,718609,284217
9162,9,2023/01/21 00:00:00+00,0,0,2,0,709585,284221
9162,9,2023/03/11 00:00:00+00,0,0,6,0,718609,284223
9162,9,2023/01/22 00:00:00+00,0,0,6,0,709585,284227
9162,9,2023/03/12 00:00:00+00,0,0,2,0,718609,284229
9162,9,2023/01/23 00:00:00+00,0,245,9,228,709830,284233
9162,9,2023/03/13 00:00:00+00,0,168,4,163,718777,284235
9162,9,2023/01/24 00:00:00+00,0,200,7,190,710030,284239
9162,9,2023/03/14 00:00:00+00,0,129,4,126,718906,284241
9162,9,2023/01/25 00:00:00+00,0,184,7,178,710214,284245
9162,9,2023/03/15 00:00:00+00,0,123,4,118,719029,284247
9162,9,2023/01/26 00:00:00+00,0,188,8,181,710402,284251
9162,9,2023/03/16 00:00:00+00,0,106,4,100,719135,284253
9162,9,2023/01/27 00:00:00+00,0,154,11,141,710556,284257
9162,9,2023/03/17 00:00:00+00,0,78,6,73,719213,284259
9162,9,2023/01/28 00:00:00+00,0,0,4,0,710556,284263
9162,9,2023/03/18 00:00:00+00,0,0,3,0,719213,284265
9162,9,2023/01/29 00:00:00+00,0,0,8,0,710556,284269
9162,9,2023/03/19 00:00:00+00,0,0,6,0,719213,284271
9162,9,2023/01/30 00:00:00+00,0,378,12,363,710934,284275
9162,9,2023/03/20 00:00:00+00,0,168,3,156,719381,284277
9162,9,2023/01/31 00:00:00+00,0,313,8,298,711247,284281
9162,9,2023/03/21 00:00:00+00,0,127,3,121,719508,284283
9162,9,2023/02/01 00:00:00+00,0,221,12,214,711468,284287
9162,9,2023/03/22 00:00:00+00,0,69,2,67,719577,284295
9162,9,2023/03/23 00:00:00+00,0,87,3,84,719664,284298
9162,9,2023/02/02 00:00:00+00,0,231,10,220,711699,284299
9162,9,2023/03/24 00:00:00+00,0,91,0,88,719755,284303
9162,9,2023/02/03 00:00:00+00,0,216,12,208,711915,284304
9162,9,2023/03/25 00:00:00+00,0,0,2,0,719755,284308
9162,9,2023/02/04 00:00:00+00,0,0,8,0,711915,284309
9162,9,2023/03/26 00:00:00+00,0,0,0,0,719755,284313
9162,9,2023/02/05 00:00:00+00,0,0,6,0,711915,284314
9162,9,2023/03/27 00:00:00+00,0,106,4,100,719861,284318
9162,9,2023/02/06 00:00:00+00,0,363,12,346,712278,284319
9162,9,2023/03/28 00:00:00+00,0,53,3,50,719914,284323
9162,9,2023/02/07 00:00:00+00,0,296,12,282,712574,284324
9162,9,2023/03/29 00:00:00+00,0,61,2,57,719975,284328
9162,9,2023/02/08 00:00:00+00,0,347,14,333,712921,284329
9162,9,2023/03/30 00:00:00+00,0,68,5,65,720043,284333
9162,9,2023/02/09 00:00:00+00,0,285,7,271,713206,284334
9162,9,2023/03/31 00:00:00+00,0,28,2,28,720071,284338
9162,9,2023/02/10 00:00:00+00,0,280,11,268,713486,284339
9162,9,2023/04/01 00:00:00+00,0,0,3,0,720071,284343
9162,9,2023/02/11 00:00:00+00,0,0,7,0,713486,284344
9162,9,2023/04/02 00:00:00+00,0,0,3,0,720071,284348
9162,9,2023/02/12 00:00:00+00,0,1,16,0,713487,284349
9162,9,2023/04/03 00:00:00+00,0,84,2,77,720155,284353
9162,9,2023/02/13 00:00:00+00,0,469,20,446,713956,284354
9162,9,2023/04/04 00:00:00+00,0,121,3,115,720276,284358
9162,9,2023/02/14 00:00:00+00,0,352,3,326,714308,284359
9162,9,2023/04/05 00:00:00+00,0,56,1,54,720332,284363
9162,9,2023/02/15 00:00:00+00,0,307,11,303,714615,284364
9162,9,2023/04/06 00:00:00+00,0,28,3,27,720360,284368
9162,9,2023/02/16 00:00:00+00,0,280,8,269,714895,284369
9162,9,2023/04/07 00:00:00+00,0,0,1,0,720360,284373
9162,9,2023/02/17 00:00:00+00,0,215,10,207,715110,284374
9162,9,2023/04/08 00:00:00+00,0,0,1,0,720360,284378
9162,9,2023/02/18 00:00:00+00,0,0,10,0,715110,284379
9162,9,2023/04/09 00:00:00+00,0,0,1,0,720360,284383
9162,9,2023/02/19 00:00:00+00,0,0,15,0,715110,284384
9162,9,2023/04/10 00:00:00+00,0,0,1,0,720360,284387
9162,9,2023/02/20 00:00:00+00,0,491,24,457,715601,284388
9162,9,2023/04/11 00:00:00+00,0,107,2,98,720467,284391
9162,9,2023/02/21 00:00:00+00,0,238,14,225,715839,284392
9162,9,2023/04/12 00:00:00+00,0,45,2,43,720512,284395
9162,9,2023/02/22 00:00:00+00,0,398,12,370,716237,284396
9162,9,2023/04/13 00:00:00+00,0,38,2,35,720550,284398
9162,9,2023/02/23 00:00:00+00,0,266,12,253,716503,284399
9162,9,2023/04/14 00:00:00+00,0,32,4,29,720582,284400
