﻿AdmUnitId,BundeslandId,Datum,AnzFallNeu,AnzFallVortag,AnzFallErkrankung,AnzFallMeldung,KumFall,ObjectId
9162,9,2020/06/29 00:00:00+00,0,21,10,12,6795,282401
9162,9,2020/06/30 00:00:00+00,0,40,6,21,6835,282403
9162,9,2020/05/10 00:00:00+00,0,22,10,9,6069,282405
9162,9,2020/07/01 00:00:00+00,0,10,5,4,6845,282406
9162,9,2020/11/26 00:00:00+00,0,620,72,552,28927,282407
9162,9,2020/08/18 00:00:00+00,0,61,33,33,7903,282408
9162,9,2020/05/11 00:00:00+00,0,61,9,40,6130,282410
9162,9,2020/07/02 00:00:00+00,0,23,8,10,6868,282411
9162,9,2020/11/27 00:00:00+00,0,103,62,94,29030,282412
9162,9,2020/08/19 00:00:00+00,0,88,24,53,7991,282413
9162,9,2020/05/12 00:00:00+00,0,27,9,12,6157,282415
9162,9,2020/07/03 00:00:00+00,0,20,8,10,6888,282416
9162,9,2020/11/28 00:00:00+00,0,268,67,230,29298,282417
9162,9,2020/08/20 00:00:00+00,0,86,16,56,8077,282418
9162,9,2020/05/13 00:00:00+00,0,35,4,14,6192,282420
9162,9,2020/07/04 00:00:00+00,0,14,3,11,6902,282421
9162,9,2020/11/29 00:00:00+00,0,468,73,396,29766,282422
9162,9,2020/08/21 00:00:00+00,0,71,35,45,8148,282423
9162,9,2020/05/14 00:00:00+00,0,23,5,13,6215,282425
9162,9,2020/07/05 00:00:00+00,0,4,6,4,6906,282426
9162,9,2020/11/30 00:00:00+00,0,417,97,335,30183,282427
9162,9,2020/08/22 00:00:00+00,0,31,22,21,8179,282428
9162,9,2020/05/15 00:00:00+00,0,18,7,12,6233,282430
9162,9,2020/07/06 00:00:00+00,0,23,5,12,6929,282431
9162,9,2020/12/01 00:00:00+00,0,430,91,352,30613,282432
9162,9,2020/08/23 00:00:00+00,0,41,31,25,8220,282433
9162,9,2020/05/16 00:00:00+00,0,9,3,3,6242,282435
9162,9,2020/07/07 00:00:00+00,0,35,8,27,6964,282436
9162,9,2020/12/02 00:00:00+00,0,483,94,394,31096,282437
9162,9,2020/08/24 00:00:00+00,0,87,34,52,8307,282438
9162,9,2020/05/17 00:00:00+00,0,11,4,5,6253,282440
9162,9,2020/07/08 00:00:00+00,0,21,7,9,6985,282441
9162,9,2020/12/03 00:00:00+00,0,619,106,519,31715,282443
9162,9,2020/08/25 00:00:00+00,0,85,38,54,8392,282444
9162,9,2020/05/18 00:00:00+00,0,7,12,4,6260,282446
9162,9,2020/07/09 00:00:00+00,0,11,4,7,6996,282447
9162,9,2020/10/07 00:00:00+00,0,129,52,74,12174,282449
9162,9,2020/12/04 00:00:00+00,0,239,98,186,31954,282450
9162,9,2020/03/21 00:00:00+00,0,176,83,65,1220,282451
9162,9,2020/08/26 00:00:00+00,0,105,36,69,8497,282452
9162,9,2020/05/19 00:00:00+00,0,12,6,10,6272,282454
9162,9,2020/07/10 00:00:00+00,0,18,7,4,7014,282455
9162,9,2020/10/08 00:00:00+00,0,139,62,73,12313,282457
9162,9,2020/12/05 00:00:00+00,0,208,105,167,32162,282458
9162,9,2020/03/22 00:00:00+00,0,88,85,37,1308,282459
9162,9,2020/08/27 00:00:00+00,0,108,19,55,8605,282460
9162,9,2020/08/28 00:00:00+00,0,65,26,44,8670,282461
9162,9,2020/08/29 00:00:00+00,0,53,15,29,8723,282462
9162,9,2020/08/30 00:00:00+00,0,26,17,17,8749,282463
9162,9,2020/08/31 00:00:00+00,0,71,29,35,8820,282464
9162,9,2020/09/01 00:00:00+00,0,83,45,59,8903,282465
9162,9,2020/09/02 00:00:00+00,0,69,31,47,8972,282466
9162,9,2020/09/03 00:00:00+00,0,88,36,51,9060,282467
9162,9,2020/09/04 00:00:00+00,0,116,35,81,9176,282468
9162,9,2020/09/05 00:00:00+00,0,104,30,66,9280,282469
9162,9,2020/09/06 00:00:00+00,0,61,28,38,9341,282470
9162,9,2020/09/07 00:00:00+00,0,92,58,55,9433,282471
9162,9,2020/09/08 00:00:00+00,0,91,54,57,9524,282472
9162,9,2020/09/09 00:00:00+00,0,118,45,69,9642,282473
9162,9,2020/09/10 00:00:00+00,0,100,50,50,9742,282474
9162,9,2020/09/11 00:00:00+00,0,74,55,32,9816,282475
9162,9,2020/09/12 00:00:00+00,0,61,32,22,9877,282476
9162,9,2020/09/13 00:00:00+00,0,49,43,23,9926,282477
9162,9,2020/09/14 00:00:00+00,0,100,76,49,10026,282478
9162,9,2020/09/15 00:00:00+00,0,168,54,96,10194,282479
9162,9,2020/09/16 00:00:00+00,0,150,51,84,10344,282480
9162,9,2020/09/17 00:00:00+00,0,140,52,64,10484,282481
9162,9,2020/09/18 00:00:00+00,0,129,31,61,10613,282482
9162,9,2020/09/19 00:00:00+00,0,77,20,48,10690,282483
9162,9,2020/09/20 00:00:00+00,0,60,29,23,10750,282484
9162,9,2020/09/21 00:00:00+00,0,97,38,65,10847,282485
9162,9,2020/09/22 00:00:00+00,0,93,30,67,10940,282486
9162,9,2020/09/23 00:00:00+00,0,107,31,63,11047,282487
9162,9,2020/09/24 00:00:00+00,0,90,39,46,11137,282488
9162,9,2020/09/25 00:00:00+00,0,68,29,39,11205,282489
9162,9,2020/09/26 00:00:00+00,0,74,29,49,11279,282490
9162,9,2020/09/27 00:00:00+00,0,43,30,27,11322,282491
9162,9,2020/09/28 00:00:00+00,0,106,47,67,11428,282492
9162,9,2020/09/29 00:00:00+00,0,85,34,49,11513,282493
9162,9,2020/09/30 00:00:00+00,0,81,48,45,11594,282494
9162,9,2020/10/01 00:00:00+00,0,83,33,34,11677,282495
9162,9,2020/10/02 00:00:00+00,0,64,49,36,11741,282496
9162,9,2020/10/03 00:00:00+00,0,99,36,49,11840,282497
9162,9,2020/10/04 00:00:00+00,0,23,34,5,11863,282498
9162,9,2020/10/05 00:00:00+00,0,63,48,41,11926,282499
9162,9,2020/10/06 00:00:00+00,0,119,50,66,12045,282500
9162,9,2020/05/20 00:00:00+00,0,20,7,9,6292,282501
9162,9,2020/03/23 00:00:00+00,0,93,117,44,1401,282503
9162,9,2020/12/06 00:00:00+00,0,538,79,443,32700,282504
9162,9,2020/10/09 00:00:00+00,0,159,60,102,12472,282505
9162,9,2020/05/21 00:00:00+00,0,19,5,8,6311,282506
9162,9,2020/03/24 00:00:00+00,0,170,61,80,1571,282509
9162,9,2020/12/07 00:00:00+00,0,610,108,506,33310,282510
9162,9,2020/10/10 00:00:00+00,0,93,49,44,12565,282511
9162,9,2020/07/11 00:00:00+00,0,2,7,2,7016,282512
9162,9,2020/05/22 00:00:00+00,0,21,7,17,6332,282513
9162,9,2020/03/25 00:00:00+00,0,239,111,103,1810,282516
9162,9,2020/12/08 00:00:00+00,0,489,122,381,33799,282517
9162,9,2020/10/11 00:00:00+00,0,54,66,39,12619,282518
9162,9,2020/07/12 00:00:00+00,0,7,5,3,7023,282519
9162,9,2020/05/23 00:00:00+00,0,2,6,1,6334,282520
9162,9,2020/03/26 00:00:00+00,0,258,66,102,2068,282523
9162,9,2020/12/09 00:00:00+00,0,590,81,477,34389,282524
9162,9,2020/10/12 00:00:00+00,0,112,78,68,12731,282525
9162,9,2020/07/13 00:00:00+00,0,15,15,6,7038,282526
9162,9,2020/05/24 00:00:00+00,0,6,10,2,6340,282527
9162,9,2020/03/27 00:00:00+00,0,258,110,109,2326,282530
9162,9,2020/12/10 00:00:00+00,0,374,74,303,34763,282531
9162,9,2020/10/13 00:00:00+00,0,156,86,92,12887,282532
9162,9,2020/07/14 00:00:00+00,0,11,6,6,7049,282533
9162,9,2020/05/25 00:00:00+00,0,14,5,5,6354,282534
9162,9,2020/03/28 00:00:00+00,0,139,79,58,2465,282537
9162,9,2020/12/11 00:00:00+00,0,593,97,490,35356,282538
9162,9,2020/10/14 00:00:00+00,0,173,98,92,13060,282539
9162,9,2020/07/15 00:00:00+00,0,20,12,15,7069,282540
9162,9,2020/05/26 00:00:00+00,0,46,12,25,6400,282541
9162,9,2020/03/29 00:00:00+00,0,178,65,74,2643,282544
9162,9,2020/12/12 00:00:00+00,0,383,96,322,35739,282545
9162,9,2020/10/15 00:00:00+00,0,192,75,97,13252,282546
9162,9,2020/07/16 00:00:00+00,0,26,7,10,7095,282547
9162,9,2020/05/27 00:00:00+00,0,34,5,20,6434,282548
9162,9,2020/03/30 00:00:00+00,0,118,69,46,2761,282551
9162,9,2020/12/13 00:00:00+00,0,394,68,336,36133,282552
9162,9,2020/10/16 00:00:00+00,0,198,82,108,13450,282553
9162,9,2020/07/17 00:00:00+00,0,26,10,20,7121,282554
9162,9,2020/05/28 00:00:00+00,0,6,6,2,6440,282555
9162,9,2020/03/31 00:00:00+00,0,310,68,119,3071,282558
9162,9,2020/12/14 00:00:00+00,0,526,102,420,36659,282559
9162,9,2020/10/17 00:00:00+00,0,177,85,94,13627,282560
9162,9,2020/07/18 00:00:00+00,0,6,7,4,7127,282561
9162,9,2020/05/29 00:00:00+00,0,14,4,9,6454,282562
9162,9,2020/04/01 00:00:00+00,0,231,90,87,3302,282565
9162,9,2020/12/15 00:00:00+00,0,870,76,727,37529,282566
9162,9,2020/10/18 00:00:00+00,0,94,66,55,13721,282567
9162,9,2020/07/19 00:00:00+00,0,17,7,8,7144,282568
9162,9,2020/05/30 00:00:00+00,0,33,3,28,6487,282569
9162,9,2020/04/02 00:00:00+00,0,143,49,53,3445,282572
9162,9,2020/12/16 00:00:00+00,0,644,74,534,38173,282573
9162,9,2020/10/19 00:00:00+00,0,134,86,67,13855,282574
9162,9,2020/07/20 00:00:00+00,0,10,7,4,7154,282575
9162,9,2020/05/31 00:00:00+00,0,5,5,3,6492,282576
9162,9,2020/04/03 00:00:00+00,0,177,57,85,3622,282579
9162,9,2020/12/17 00:00:00+00,0,815,77,682,38988,282580
9162,9,2020/10/20 00:00:00+00,0,194,78,107,14049,282581
9162,9,2020/07/21 00:00:00+00,0,16,5,5,7170,282582
9162,9,2020/06/01 00:00:00+00,0,0,3,0,6492,282583
9162,9,2020/03/01 00:00:00+00,0,0,9,0,5,282592
9162,9,2020/03/02 00:00:00+00,0,3,10,0,8,282593
9162,9,2020/03/03 00:00:00+00,0,1,14,0,9,282594
9162,9,2020/03/04 00:00:00+00,0,3,8,1,12,282595
9162,9,2020/03/05 00:00:00+00,0,2,6,1,14,282596
9162,9,2020/03/06 00:00:00+00,0,13,19,8,27,282597
9162,9,2020/03/07 00:00:00+00,0,0,20,0,27,282598
9162,9,2020/03/08 00:00:00+00,0,0,26,0,27,282599
9162,9,2020/03/09 00:00:00+00,0,23,51,14,50,282600
9162,9,2020/03/10 00:00:00+00,0,31,63,21,81,282601
9162,9,2020/03/11 00:00:00+00,0,23,71,16,104,282602
9162,9,2020/03/12 00:00:00+00,0,18,89,11,122,282603
9162,9,2020/03/13 00:00:00+00,0,48,110,33,170,282604
9162,9,2020/03/14 00:00:00+00,0,64,110,44,234,282605
9162,9,2020/03/15 00:00:00+00,0,19,135,16,253,282606
9162,9,2020/03/16 00:00:00+00,0,67,155,35,320,282607
9162,9,2020/03/17 00:00:00+00,0,144,140,82,464,282608
9162,9,2020/03/18 00:00:00+00,0,212,153,110,676,282609
9162,9,2020/03/19 00:00:00+00,0,173,108,77,849,282610
9162,9,2020/03/20 00:00:00+00,0,195,127,86,1044,282611
9162,9,2020/10/21 00:00:00+00,0,318,75,206,14367,282612
9162,9,2020/07/22 00:00:00+00,0,15,11,6,7185,282613
9162,9,2020/06/02 00:00:00+00,0,5,7,1,6497,282614
9162,9,2020/10/22 00:00:00+00,0,319,75,233,14686,282615
9162,9,2020/04/04 00:00:00+00,0,134,49,59,3756,282617
9162,9,2020/07/23 00:00:00+00,0,16,4,8,7201,282618
9162,9,2020/06/03 00:00:00+00,0,12,4,7,6509,282619
9162,9,2020/10/23 00:00:00+00,0,240,79,181,14926,282620
9162,9,2020/04/05 00:00:00+00,0,84,47,27,3840,282622
9162,9,2020/07/24 00:00:00+00,0,17,5,8,7218,282623
9162,9,2020/12/18 00:00:00+00,0,704,70,601,39692,282624
9162,9,2020/06/04 00:00:00+00,0,8,8,3,6517,282625
9162,9,2020/10/24 00:00:00+00,0,215,75,182,15141,282626
9162,9,2020/04/06 00:00:00+00,0,118,51,40,3958,282628
9162,9,2020/07/25 00:00:00+00,0,14,9,5,7232,282629
9162,9,2020/12/19 00:00:00+00,0,600,64,510,40292,282630
9162,9,2020/06/05 00:00:00+00,0,14,8,6,6531,282631
9162,9,2020/10/25 00:00:00+00,0,289,76,236,15430,282632
9162,9,2020/04/07 00:00:00+00,0,141,48,40,4099,282634
9162,9,2020/07/26 00:00:00+00,0,2,7,1,7234,282635
9162,9,2020/12/20 00:00:00+00,0,208,63,178,40500,282636
9162,9,2020/06/06 00:00:00+00,0,5,5,3,6536,282637
9162,9,2020/10/26 00:00:00+00,0,227,95,186,15657,282638
9162,9,2020/04/08 00:00:00+00,0,154,50,65,4253,282640
9162,9,2020/07/27 00:00:00+00,0,13,12,8,7247,282641
9162,9,2020/12/21 00:00:00+00,0,265,77,213,40765,282642
9162,9,2020/06/07 00:00:00+00,0,9,6,5,6545,282643
9162,9,2020/10/27 00:00:00+00,0,328,66,273,15985,282644
9162,9,2020/04/09 00:00:00+00,0,112,48,48,4365,282646
9162,9,2020/07/28 00:00:00+00,0,15,7,9,7262,282647
9162,9,2020/12/22 00:00:00+00,0,363,58,322,41128,282648
9162,9,2020/06/08 00:00:00+00,0,13,10,4,6558,282649
9162,9,2020/10/28 00:00:00+00,0,359,90,281,16344,282650
9162,9,2020/04/10 00:00:00+00,0,98,27,22,4463,282652
9162,9,2020/07/29 00:00:00+00,0,17,8,8,7279,282653
9162,9,2020/12/23 00:00:00+00,0,604,74,505,41732,282654
9162,9,2020/06/09 00:00:00+00,0,8,2,3,6566,282655
9162,9,2020/10/29 00:00:00+00,0,457,67,338,16801,282656
9162,9,2020/04/11 00:00:00+00,0,104,38,41,4567,282658
9162,9,2020/07/30 00:00:00+00,0,19,7,9,7298,282659
9162,9,2020/12/24 00:00:00+00,0,289,59,246,42021,282660
9162,9,2020/06/10 00:00:00+00,0,9,5,3,6575,282661
9162,9,2020/10/30 00:00:00+00,0,366,71,266,17167,282662
9162,9,2020/04/12 00:00:00+00,0,72,35,16,4639,282664
9162,9,2020/07/31 00:00:00+00,0,17,7,8,7315,282665
9162,9,2020/12/25 00:00:00+00,0,0,44,0,42021,282666
9162,9,2020/06/11 00:00:00+00,0,2,4,0,6577,282667
9162,9,2020/10/31 00:00:00+00,0,202,68,141,17369,282668
9162,9,2020/04/13 00:00:00+00,0,61,37,27,4700,282670
9162,9,2020/08/01 00:00:00+00,0,11,6,5,7326,282671
9162,9,2020/12/26 00:00:00+00,0,586,54,471,42607,282672
9162,9,2020/06/12 00:00:00+00,0,12,5,6,6589,282673
9162,9,2020/11/01 00:00:00+00,0,258,73,192,17627,282674
9162,9,2020/04/14 00:00:00+00,0,86,34,32,4786,282676
9162,9,2020/08/02 00:00:00+00,0,9,6,6,7335,282677
9162,9,2020/12/27 00:00:00+00,0,357,57,299,42964,282678
9162,9,2020/06/13 00:00:00+00,0,5,4,0,6594,282679
9162,9,2020/11/02 00:00:00+00,0,331,107,247,17958,282680
9162,9,2020/04/15 00:00:00+00,0,109,32,42,4895,282682
9162,9,2020/08/03 00:00:00+00,0,26,19,12,7361,282683
9162,9,2020/12/28 00:00:00+00,0,228,81,186,43192,282684
9162,9,2020/06/14 00:00:00+00,0,11,0,9,6605,282685
9162,9,2020/11/03 00:00:00+00,0,498,85,403,18456,282686
9162,9,2020/04/16 00:00:00+00,0,95,29,34,4990,282688
9162,9,2020/08/04 00:00:00+00,0,18,7,11,7379,282689
9162,9,2020/12/29 00:00:00+00,0,538,54,445,43730,282690
9162,9,2020/06/15 00:00:00+00,0,4,5,0,6609,282691
9162,9,2020/11/04 00:00:00+00,0,359,76,318,18815,282692
9162,9,2020/04/17 00:00:00+00,0,93,26,37,5083,282694
9162,9,2020/08/05 00:00:00+00,0,12,14,6,7391,282695
9162,9,2020/12/30 00:00:00+00,0,648,70,528,44378,282696
9162,9,2020/06/16 00:00:00+00,0,9,4,3,6618,282697
9162,9,2020/11/05 00:00:00+00,0,431,88,351,19246,282698
9162,9,2020/04/18 00:00:00+00,0,46,22,14,5129,282700
9162,9,2020/08/06 00:00:00+00,0,35,11,18,7426,282701
9162,9,2020/12/31 00:00:00+00,0,346,51,285,44724,282702
9162,9,2020/06/17 00:00:00+00,0,13,6,4,6631,282703
9162,9,2020/11/06 00:00:00+00,0,632,92,515,19878,282704
9162,9,2020/04/19 00:00:00+00,0,49,22,22,5178,282706
9162,9,2020/08/07 00:00:00+00,0,19,10,16,7445,282707
9162,9,2021/01/01 00:00:00+00,0,1,55,0,44725,282708
9162,9,2020/06/18 00:00:00+00,0,4,3,2,6635,282709
9162,9,2020/11/07 00:00:00+00,0,501,59,380,20379,282710
9162,9,2020/11/08 00:00:00+00,0,318,63,254,20697,282711
9162,9,2020/11/09 00:00:00+00,0,447,69,353,21144,282712
9162,9,2020/11/10 00:00:00+00,0,560,50,413,21704,282713
9162,9,2020/11/11 00:00:00+00,0,610,56,472,22314,282714
9162,9,2020/11/12 00:00:00+00,0,544,33,488,22858,282715
9162,9,2020/11/13 00:00:00+00,0,415,44,360,23273,282716
9162,9,2020/11/14 00:00:00+00,0,500,27,460,23773,282717
9162,9,2020/11/15 00:00:00+00,0,198,28,185,23971,282718
9162,9,2020/11/16 00:00:00+00,0,215,32,193,24186,282719
9162,9,2020/11/17 00:00:00+00,0,575,37,537,24761,282720
9162,9,2020/11/18 00:00:00+00,0,520,29,478,25281,282721
9162,9,2020/11/19 00:00:00+00,0,668,35,624,25949,282722
9162,9,2020/11/20 00:00:00+00,0,491,41,467,26440,282723
9162,9,2020/11/21 00:00:00+00,0,293,33,271,26733,282724
9162,9,2020/11/22 00:00:00+00,0,231,45,210,26964,282725
9162,9,2020/11/23 00:00:00+00,0,355,53,335,27319,282726
9162,9,2020/11/24 00:00:00+00,0,497,59,455,27816,282727
9162,9,2020/11/25 00:00:00+00,0,491,79,439,28307,282728
9162,9,2020/08/08 00:00:00+00,0,8,19,5,7453,282729
9162,9,2021/01/02 00:00:00+00,0,337,71,276,45062,282730
9162,9,2020/06/19 00:00:00+00,0,11,6,7,6646,282731
9162,9,2020/08/09 00:00:00+00,0,2,21,1,7455,282732
9162,9,2021/01/03 00:00:00+00,0,217,86,161,45279,282733
9162,9,2020/06/20 00:00:00+00,0,22,8,20,6668,282734
9162,9,2020/08/10 00:00:00+00,0,29,31,13,7484,282735
9162,9,2021/01/04 00:00:00+00,0,286,73,215,45565,282736
9162,9,2020/04/20 00:00:00+00,0,32,30,18,5210,282737
9162,9,2020/06/21 00:00:00+00,0,14,7,9,6682,282739
9162,9,2020/08/11 00:00:00+00,0,43,28,26,7527,282740
9162,9,2021/01/05 00:00:00+00,0,463,63,367,46028,282741
9162,9,2020/04/21 00:00:00+00,0,55,21,18,5265,282742
9162,9,2020/06/22 00:00:00+00,0,4,9,1,6686,282744
9162,9,2020/08/12 00:00:00+00,0,44,24,28,7571,282745
9162,9,2021/01/06 00:00:00+00,0,344,51,277,46372,282746
9162,9,2020/04/22 00:00:00+00,0,57,20,25,5322,282747
9162,9,2020/06/23 00:00:00+00,0,18,7,11,6704,282749
9162,9,2020/08/13 00:00:00+00,0,55,28,33,7626,282750
9162,9,2021/01/07 00:00:00+00,0,380,35,316,46752,282751
9162,9,2020/04/23 00:00:00+00,0,78,27,25,5400,282752
9162,9,2020/06/24 00:00:00+00,0,13,12,2,6717,282754
9162,9,2020/08/14 00:00:00+00,0,55,22,27,7681,282755
9162,9,2021/01/08 00:00:00+00,0,515,53,444,47267,282756
9162,9,2020/04/24 00:00:00+00,0,56,28,23,5456,282757
9162,9,2020/06/25 00:00:00+00,0,18,10,7,6735,282759
9162,9,2020/08/15 00:00:00+00,0,27,19,14,7708,282760
9162,9,2021/01/09 00:00:00+00,0,369,33,332,47636,282761
9162,9,2020/04/25 00:00:00+00,0,47,23,31,5503,282762
9162,9,2020/06/26 00:00:00+00,0,17,16,8,6752,282764
9162,9,2020/08/16 00:00:00+00,0,48,25,37,7756,282765
9162,9,2021/01/10 00:00:00+00,0,140,36,130,47776,282766
9162,9,2020/04/26 00:00:00+00,0,33,12,16,5536,282767
9162,9,2020/06/27 00:00:00+00,0,12,7,4,6764,282769
9162,9,2020/08/17 00:00:00+00,0,86,35,50,7842,282770
9162,9,2021/01/11 00:00:00+00,0,204,49,184,47980,282771
9162,9,2020/04/27 00:00:00+00,0,79,29,47,5615,282772
9162,9,2020/06/28 00:00:00+00,0,10,14,8,6774,282774
9162,9,2021/01/12 00:00:00+00,0,392,54,368,48372,282775
9162,9,2020/04/28 00:00:00+00,0,50,19,16,5665,282776
9162,9,2021/01/13 00:00:00+00,0,366,50,333,48738,282778
9162,9,2020/04/29 00:00:00+00,0,41,17,23,5706,282779
9162,9,2021/01/14 00:00:00+00,0,274,65,234,49012,282781
9162,9,2020/04/30 00:00:00+00,0,44,24,17,5750,282782
9162,9,2020/05/01 00:00:00+00,0,59,26,32,5809,282784
9162,9,2020/05/02 00:00:00+00,0,33,12,18,5842,282786
9162,9,2020/05/03 00:00:00+00,0,25,20,5,5867,282788
9162,9,2020/05/04 00:00:00+00,0,34,14,15,5901,282790
9162,9,2020/05/05 00:00:00+00,0,30,21,10,5931,282792
9162,9,2020/05/06 00:00:00+00,0,19,11,9,5950,282794
9162,9,2020/05/07 00:00:00+00,0,30,20,11,5980,282796
9162,9,2020/05/08 00:00:00+00,0,43,10,21,6023,282798
9162,9,2020/05/09 00:00:00+00,0,24,10,15,6047,282800
9162,9,2021/11/11 00:00:00+00,0,1079,479,547,102719,282801
9162,9,2021/11/12 00:00:00+00,0,1313,495,724,104032,282802
9162,9,2021/11/13 00:00:00+00,0,1120,473,660,105152,282803
9162,9,2021/11/14 00:00:00+00,0,1235,491,687,106387,282804
9162,9,2021/11/15 00:00:00+00,0,1200,661,701,107587,282805
9162,9,2021/11/16 00:00:00+00,0,2189,581,1134,109776,282806
9162,9,2021/11/17 00:00:00+00,0,3308,482,1736,113084,282807
9162,9,2021/11/18 00:00:00+00,0,1477,477,832,114561,282808
9162,9,2021/11/19 00:00:00+00,0,1225,544,689,115786,282809
9162,9,2021/11/20 00:00:00+00,0,680,508,367,116466,282810
9162,9,2021/11/21 00:00:00+00,0,973,438,538,117439,282811
9162,9,2021/11/22 00:00:00+00,0,689,478,394,118128,282812
9162,9,2021/11/23 00:00:00+00,0,1446,488,819,119574,282813
9162,9,2021/11/24 00:00:00+00,0,1573,442,932,121147,282814
9162,9,2021/11/25 00:00:00+00,0,1352,399,744,122499,282815
9162,9,2021/11/26 00:00:00+00,0,781,404,429,123280,282816
9162,9,2021/11/27 00:00:00+00,0,829,391,467,124109,282817
9162,9,2021/11/28 00:00:00+00,0,782,305,454,124891,282818
9162,9,2021/11/29 00:00:00+00,0,572,405,307,125463,282819
9162,9,2021/11/30 00:00:00+00,0,1108,417,654,126571,282820
9162,9,2021/12/01 00:00:00+00,0,1500,442,848,128071,282821
9162,9,2021/12/02 00:00:00+00,0,1108,323,608,129179,282822
9162,9,2021/12/03 00:00:00+00,0,924,330,497,130103,282823
9162,9,2021/12/04 00:00:00+00,0,549,300,335,130652,282824
9162,9,2021/12/05 00:00:00+00,0,597,262,315,131249,282825
9162,9,2021/12/06 00:00:00+00,0,339,331,189,131588,282826
9162,9,2021/12/07 00:00:00+00,0,1217,266,671,132805,282827
9162,9,2021/12/08 00:00:00+00,0,833,254,455,133638,282828
9162,9,2021/12/09 00:00:00+00,0,641,199,391,134279,282829
9162,9,2021/12/10 00:00:00+00,0,553,251,315,134832,282830
9162,9,2021/06/14 00:00:00+00,0,39,20,10,73177,282831
9162,9,2021/12/11 00:00:00+00,0,387,185,200,135219,282832
9162,9,2021/12/12 00:00:00+00,0,266,194,161,135485,282833
9162,9,2021/12/13 00:00:00+00,0,395,239,217,135880,282834
9162,9,2021/12/14 00:00:00+00,0,765,231,418,136645,282835
9162,9,2021/12/15 00:00:00+00,0,635,211,371,137280,282836
9162,9,2021/12/16 00:00:00+00,0,476,171,286,137756,282837
9162,9,2021/12/17 00:00:00+00,0,628,175,366,138384,282838
9162,9,2021/12/18 00:00:00+00,0,225,188,136,138609,282839
9162,9,2021/12/19 00:00:00+00,0,353,175,206,138962,282840
9162,9,2021/12/20 00:00:00+00,0,350,214,211,139312,282841
9162,9,2021/12/21 00:00:00+00,0,641,189,358,139953,282842
9162,9,2021/12/22 00:00:00+00,0,543,180,307,140496,282843
9162,9,2021/12/23 00:00:00+00,0,414,234,238,140910,282844
9162,9,2021/12/24 00:00:00+00,0,348,240,195,141258,282845
9162,9,2021/12/25 00:00:00+00,0,12,242,6,141270,282846
9162,9,2021/12/26 00:00:00+00,0,414,281,225,141684,282847
9162,9,2021/12/27 00:00:00+00,0,644,391,319,142328,282848
9162,9,2021/12/28 00:00:00+00,0,613,352,302,142941,282849
9162,9,2021/12/29 00:00:00+00,0,624,332,332,143565,282850
9162,9,2021/12/30 00:00:00+00,0,682,335,312,144247,282851
9162,9,2021/08/03 00:00:00+00,0,62,50,9,75054,282852
9162,9,2021/12/31 00:00:00+00,0,421,319,213,144668,282853
9162,9,2021/04/25 00:00:00+00,0,190,132,69,66752,282854
9162,9,2021/03/06 00:00:00+00,0,115,48,79,54688,282855
9162,9,2021/01/15 00:00:00+00,0,267,68,223,49279,282856
9162,9,2021/06/15 00:00:00+00,0,47,15,12,73224,282857
9162,9,2022/01/01 00:00:00+00,0,8,471,5,144676,282858
9162,9,2021/08/04 00:00:00+00,0,67,59,13,75121,282859
9162,9,2021/06/16 00:00:00+00,0,27,17,8,73251,282860
9162,9,2021/04/26 00:00:00+00,0,302,191,136,67054,282861
9162,9,2022/01/02 00:00:00+00,0,617,591,292,145293,282862
9162,9,2021/08/05 00:00:00+00,0,46,44,9,75167,282863
9162,9,2021/06/17 00:00:00+00,0,29,15,16,73280,282864
9162,9,2021/04/27 00:00:00+00,0,430,184,185,67484,282865
9162,9,2022/01/03 00:00:00+00,0,805,839,410,146098,282866
9162,9,2021/08/06 00:00:00+00,0,104,46,22,75271,282867
9162,9,2021/06/18 00:00:00+00,0,21,17,9,73301,282868
9162,9,2021/04/28 00:00:00+00,0,400,129,192,67884,282869
9162,9,2022/01/04 00:00:00+00,0,1073,644,530,147171,282870
9162,9,2021/08/07 00:00:00+00,0,46,47,9,75317,282871
9162,9,2021/06/19 00:00:00+00,0,15,14,3,73316,282872
9162,9,2021/04/29 00:00:00+00,0,301,92,138,68185,282873
9162,9,2022/01/05 00:00:00+00,0,1344,649,718,148515,282874
9162,9,2021/08/08 00:00:00+00,0,19,58,5,75336,282875
9162,9,2021/06/20 00:00:00+00,0,7,15,2,73323,282876
9162,9,2021/04/30 00:00:00+00,0,274,145,130,68459,282877
9162,9,2022/01/06 00:00:00+00,0,1278,652,692,149793,282878
9162,9,2021/08/09 00:00:00+00,0,67,80,15,75403,282879
9162,9,2021/06/21 00:00:00+00,0,11,25,3,73334,282880
9162,9,2021/05/01 00:00:00+00,0,185,137,101,68644,282881
9162,9,2022/01/07 00:00:00+00,0,1464,681,772,151257,282882
9162,9,2021/08/10 00:00:00+00,0,116,60,19,75519,282883
9162,9,2021/06/22 00:00:00+00,0,43,15,7,73377,282884
9162,9,2021/05/02 00:00:00+00,0,180,111,71,68824,282885
9162,9,2022/01/08 00:00:00+00,0,1094,817,612,152351,282886
9162,9,2021/08/11 00:00:00+00,0,78,70,12,75597,282887
9162,9,2021/06/23 00:00:00+00,0,23,21,5,73400,282888
9162,9,2021/05/03 00:00:00+00,0,175,148,60,68999,282889
9162,9,2022/01/09 00:00:00+00,0,1032,869,564,153383,282890
9162,9,2021/08/12 00:00:00+00,0,72,74,15,75669,282891
9162,9,2021/06/24 00:00:00+00,0,22,17,6,73422,282892
9162,9,2021/05/04 00:00:00+00,0,298,133,98,69297,282893
9162,9,2022/01/10 00:00:00+00,0,1748,1142,1022,155131,282894
9162,9,2021/08/13 00:00:00+00,0,59,79,8,75728,282895
9162,9,2021/06/25 00:00:00+00,0,21,11,5,73443,282896
9162,9,2021/05/05 00:00:00+00,0,354,139,134,69651,282897
9162,9,2022/01/11 00:00:00+00,0,2316,1061,1257,157447,282898
9162,9,2021/08/14 00:00:00+00,0,77,73,17,75805,282899
9162,9,2021/09/22 00:00:00+00,0,289,129,117,84659,282900
9162,9,2021/06/26 00:00:00+00,0,16,12,4,73459,282901
9162,9,2021/05/06 00:00:00+00,0,261,103,116,69912,282902
9162,9,2021/01/16 00:00:00+00,0,217,58,165,49496,282903
9162,9,2021/03/07 00:00:00+00,0,61,32,37,54749,282904
9162,9,2022/01/12 00:00:00+00,0,2373,964,1338,159820,282905
9162,9,2021/08/15 00:00:00+00,0,46,80,8,75851,282906
9162,9,2021/09/23 00:00:00+00,0,275,134,116,84934,282907
9162,9,2021/06/27 00:00:00+00,0,18,12,4,73477,282908
9162,9,2021/05/07 00:00:00+00,0,181,99,70,70093,282909
9162,9,2021/01/17 00:00:00+00,0,86,65,75,49582,282910
9162,9,2021/03/08 00:00:00+00,0,123,60,75,54872,282911
9162,9,2022/01/13 00:00:00+00,0,2220,1028,1202,162040,282912
9162,9,2021/08/16 00:00:00+00,0,116,122,23,75967,282913
9162,9,2021/09/24 00:00:00+00,0,218,156,107,85152,282914
9162,9,2021/06/28 00:00:00+00,0,32,34,11,73509,282915
9162,9,2021/05/08 00:00:00+00,0,126,93,47,70219,282916
9162,9,2021/01/18 00:00:00+00,0,135,78,106,49717,282917
9162,9,2021/03/09 00:00:00+00,0,165,54,117,55037,282918
9162,9,2022/01/14 00:00:00+00,0,2236,1106,1228,164276,282919
9162,9,2021/08/17 00:00:00+00,0,149,86,35,76116,282920
9162,9,2021/09/25 00:00:00+00,0,164,119,68,85316,282921
9162,9,2021/06/29 00:00:00+00,0,33,25,8,73542,282922
9162,9,2021/05/09 00:00:00+00,0,70,76,27,70289,282923
9162,9,2021/01/19 00:00:00+00,0,238,80,181,49955,282924
9162,9,2021/03/10 00:00:00+00,0,218,47,151,55255,282925
9162,9,2022/01/15 00:00:00+00,0,1809,1337,1048,166085,282926
9162,9,2021/08/18 00:00:00+00,0,142,101,36,76258,282927
9162,9,2021/09/26 00:00:00+00,0,139,123,52,85455,282928
9162,9,2021/06/30 00:00:00+00,0,38,39,7,73580,282929
9162,9,2021/05/10 00:00:00+00,0,131,108,48,70420,282930
9162,9,2021/01/20 00:00:00+00,0,252,48,185,50207,282931
9162,9,2021/03/11 00:00:00+00,0,170,59,122,55425,282932
9162,9,2022/01/16 00:00:00+00,0,1773,1547,1055,167858,282933
9162,9,2021/08/19 00:00:00+00,0,122,84,39,76380,282934
9162,9,2021/09/27 00:00:00+00,0,274,180,99,85729,282935
9162,9,2021/07/01 00:00:00+00,0,22,14,6,73602,282936
9162,9,2021/05/11 00:00:00+00,0,251,91,88,70671,282937
9162,9,2021/01/21 00:00:00+00,0,176,58,127,50383,282938
9162,9,2021/03/12 00:00:00+00,0,165,54,110,55590,282939
9162,9,2022/01/17 00:00:00+00,0,2247,1816,1240,170105,282940
9162,9,2021/08/20 00:00:00+00,0,178,83,67,76558,282941
9162,9,2021/09/28 00:00:00+00,0,379,169,169,86108,282942
9162,9,2021/07/02 00:00:00+00,0,33,25,6,73635,282943
9162,9,2021/05/12 00:00:00+00,0,191,81,70,70862,282944
9162,9,2021/01/22 00:00:00+00,0,178,50,138,50561,282945
9162,9,2021/03/13 00:00:00+00,0,104,58,72,55694,282946
9162,9,2022/01/18 00:00:00+00,0,3326,1836,1823,173431,282947
9162,9,2021/08/21 00:00:00+00,0,128,109,51,76686,282948
9162,9,2021/09/29 00:00:00+00,0,271,152,121,86379,282949
9162,9,2021/07/03 00:00:00+00,0,18,20,7,73653,282950
9162,9,2021/05/13 00:00:00+00,0,109,72,39,70971,282951
9162,9,2021/01/23 00:00:00+00,0,131,45,89,50692,282952
9162,9,2021/03/14 00:00:00+00,0,88,48,65,55782,282953
9162,9,2022/01/19 00:00:00+00,0,3341,1790,1772,176772,282954
9162,9,2021/08/22 00:00:00+00,0,68,100,19,76754,282955
9162,9,2021/09/30 00:00:00+00,0,244,131,101,86623,282956
9162,9,2021/07/04 00:00:00+00,0,11,17,3,73664,282957
9162,9,2021/05/14 00:00:00+00,0,131,79,43,71102,282958
9162,9,2021/01/24 00:00:00+00,0,60,60,48,50752,282959
9162,9,2021/03/15 00:00:00+00,0,144,64,106,55926,282960
9162,9,2022/01/20 00:00:00+00,0,4228,1573,2312,181000,282961
9162,9,2021/08/23 00:00:00+00,0,182,133,61,76936,282962
9162,9,2021/10/01 00:00:00+00,0,281,147,118,86904,282963
9162,9,2021/10/02 00:00:00+00,0,171,129,71,87075,282964
9162,9,2021/10/03 00:00:00+00,0,132,112,56,87207,282965
9162,9,2021/10/04 00:00:00+00,0,236,168,94,87443,282966
9162,9,2021/10/05 00:00:00+00,0,320,168,139,87763,282967
9162,9,2021/10/06 00:00:00+00,0,295,132,122,88058,282968
9162,9,2021/10/07 00:00:00+00,0,291,117,123,88349,282969
9162,9,2021/10/08 00:00:00+00,0,226,139,102,88575,282970
9162,9,2021/10/09 00:00:00+00,0,190,148,85,88765,282971
9162,9,2021/10/10 00:00:00+00,0,92,148,31,88857,282972
9162,9,2021/10/11 00:00:00+00,0,164,195,65,89021,282973
9162,9,2021/10/12 00:00:00+00,0,358,207,115,89379,282974
9162,9,2021/10/13 00:00:00+00,0,333,176,122,89712,282975
9162,9,2021/10/14 00:00:00+00,0,328,196,131,90040,282976
9162,9,2021/10/15 00:00:00+00,0,396,231,173,90436,282977
9162,9,2021/10/16 00:00:00+00,0,246,177,113,90682,282978
9162,9,2021/10/17 00:00:00+00,0,132,179,53,90814,282979
9162,9,2021/10/18 00:00:00+00,0,353,238,175,91167,282980
9162,9,2021/10/19 00:00:00+00,0,596,223,289,91763,282981
9162,9,2021/10/20 00:00:00+00,0,425,246,196,92188,282982
9162,9,2021/10/21 00:00:00+00,0,522,202,258,92710,282983
9162,9,2021/10/22 00:00:00+00,0,511,217,265,93221,282984
9162,9,2021/10/23 00:00:00+00,0,357,213,171,93578,282985
9162,9,2021/10/24 00:00:00+00,0,176,218,92,93754,282986
9162,9,2021/10/25 00:00:00+00,0,456,278,230,94210,282987
9162,9,2021/10/26 00:00:00+00,0,762,296,374,94972,282988
9162,9,2021/10/27 00:00:00+00,0,551,285,264,95523,282989
9162,9,2021/10/28 00:00:00+00,0,580,294,290,96103,282990
9162,9,2021/10/29 00:00:00+00,0,659,280,304,96762,282991
9162,9,2021/10/30 00:00:00+00,0,297,336,145,97059,282992
9162,9,2021/10/31 00:00:00+00,0,249,274,117,97308,282993
9162,9,2021/11/01 00:00:00+00,0,326,412,146,97634,282994
9162,9,2021/11/02 00:00:00+00,0,673,461,312,98307,282995
9162,9,2021/11/03 00:00:00+00,0,874,442,368,99181,282996
9162,9,2021/11/04 00:00:00+00,0,423,381,222,99604,282997
9162,9,2021/11/05 00:00:00+00,0,243,403,109,99847,282998
9162,9,2021/11/06 00:00:00+00,0,118,378,60,99965,282999
9162,9,2021/11/07 00:00:00+00,0,83,374,37,100048,283000
9162,9,2021/11/08 00:00:00+00,0,282,501,157,100330,283001
9162,9,2021/11/09 00:00:00+00,0,469,498,266,100799,283002
9162,9,2021/11/10 00:00:00+00,0,841,468,464,101640,283003
9162,9,2021/05/15 00:00:00+00,0,58,67,20,71160,283004
9162,9,2021/08/24 00:00:00+00,0,272,103,104,77208,283005
9162,9,2022/01/21 00:00:00+00,0,4631,1790,2658,185631,283006
9162,9,2021/05/16 00:00:00+00,0,100,81,36,71260,283007
9162,9,2021/07/05 00:00:00+00,0,22,27,1,73686,283008
9162,9,2021/08/25 00:00:00+00,0,249,135,137,77457,283009
9162,9,2022/01/22 00:00:00+00,0,2411,1780,1311,188042,283010
9162,9,2021/05/17 00:00:00+00,0,119,76,52,71379,283011
9162,9,2021/07/06 00:00:00+00,0,34,43,7,73720,283012
9162,9,2021/03/16 00:00:00+00,0,201,80,141,56127,283013
9162,9,2021/01/25 00:00:00+00,0,92,80,61,50844,283014
9162,9,2021/08/26 00:00:00+00,0,270,109,133,77727,283015
9162,9,2022/01/23 00:00:00+00,0,3481,1884,2035,191523,283016
9162,9,2021/05/18 00:00:00+00,0,163,65,59,71542,283017
9162,9,2021/07/07 00:00:00+00,0,22,21,3,73742,283018
9162,9,2021/03/17 00:00:00+00,0,235,56,144,56362,283019
9162,9,2021/01/26 00:00:00+00,0,197,51,141,51041,283020
9162,9,2021/08/27 00:00:00+00,0,169,107,99,77896,283021
9162,9,2022/01/24 00:00:00+00,0,5188,2127,2901,196711,283022
9162,9,2021/05/19 00:00:00+00,0,143,66,51,71685,283023
9162,9,2021/07/08 00:00:00+00,0,45,32,11,73787,283024
9162,9,2021/03/18 00:00:00+00,0,208,60,137,56570,283025
9162,9,2021/01/27 00:00:00+00,0,173,62,122,51214,283026
9162,9,2021/08/28 00:00:00+00,0,201,123,100,78097,283027
9162,9,2022/01/25 00:00:00+00,0,4822,1959,2579,201533,283028
9162,9,2021/05/20 00:00:00+00,0,155,42,55,71840,283029
9162,9,2021/07/09 00:00:00+00,0,37,24,4,73824,283030
9162,9,2021/03/19 00:00:00+00,0,223,51,154,56793,283031
9162,9,2021/01/28 00:00:00+00,0,133,70,93,51347,283032
9162,9,2021/08/29 00:00:00+00,0,120,104,67,78217,283033
9162,9,2022/01/26 00:00:00+00,0,4478,1699,2436,206011,283034
9162,9,2021/05/21 00:00:00+00,0,83,38,35,71923,283035
9162,9,2021/07/10 00:00:00+00,0,20,20,6,73844,283036
9162,9,2021/03/20 00:00:00+00,0,147,54,102,56940,283037
9162,9,2021/01/29 00:00:00+00,0,140,59,93,51487,283038
9162,9,2021/08/30 00:00:00+00,0,279,137,134,78496,283039
9162,9,2022/01/27 00:00:00+00,0,3762,1524,2297,209773,283040
9162,9,2021/05/22 00:00:00+00,0,60,49,23,71983,283041
9162,9,2021/07/11 00:00:00+00,0,14,38,1,73858,283042
9162,9,2021/03/21 00:00:00+00,0,134,58,101,57074,283043
9162,9,2021/01/30 00:00:00+00,0,113,42,79,51600,283044
9162,9,2021/08/31 00:00:00+00,0,338,129,178,78834,283045
9162,9,2022/01/28 00:00:00+00,0,3812,1534,2315,213585,283046
9162,9,2021/05/23 00:00:00+00,0,37,48,13,72020,283047
9162,9,2021/07/12 00:00:00+00,0,36,41,11,73894,283048
9162,9,2021/03/22 00:00:00+00,0,101,79,76,57175,283049
9162,9,2021/01/31 00:00:00+00,0,47,44,24,51647,283050
9162,9,2021/09/01 00:00:00+00,0,306,123,188,79140,283051
9162,9,2022/01/29 00:00:00+00,0,2185,1525,1323,215770,283052
9162,9,2021/05/24 00:00:00+00,0,54,56,32,72074,283053
9162,9,2021/07/13 00:00:00+00,0,52,33,12,73946,283054
9162,9,2021/03/23 00:00:00+00,0,239,59,160,57414,283055
9162,9,2021/02/01 00:00:00+00,0,78,32,39,51725,283056
9162,9,2021/09/02 00:00:00+00,0,335,145,168,79475,283057
9162,9,2022/01/30 00:00:00+00,0,3788,1451,2239,219558,283058
9162,9,2021/05/25 00:00:00+00,0,91,45,40,72165,283059
9162,9,2021/07/14 00:00:00+00,0,49,43,8,73995,283060
9162,9,2021/03/24 00:00:00+00,0,278,72,198,57692,283061
9162,9,2021/02/02 00:00:00+00,0,100,37,70,51825,283062
9162,9,2021/09/03 00:00:00+00,0,253,144,137,79728,283063
9162,9,2022/01/31 00:00:00+00,0,5182,1718,3051,224740,283064
9162,9,2021/05/26 00:00:00+00,0,103,49,28,72268,283065
9162,9,2021/07/15 00:00:00+00,0,53,28,9,74048,283066
9162,9,2021/03/25 00:00:00+00,0,265,93,193,57957,283067
9162,9,2021/02/03 00:00:00+00,0,110,40,71,51935,283068
9162,9,2021/09/04 00:00:00+00,0,206,138,113,79934,283069
9162,9,2022/02/01 00:00:00+00,0,4854,1753,3076,229594,283070
9162,9,2021/05/27 00:00:00+00,0,63,46,26,72331,283071
9162,9,2021/07/16 00:00:00+00,0,48,42,7,74096,283072
9162,9,2021/03/26 00:00:00+00,0,296,76,206,58253,283073
9162,9,2021/02/04 00:00:00+00,0,132,34,92,52067,283074
9162,9,2021/09/05 00:00:00+00,0,120,123,65,80054,283075
9162,9,2022/02/02 00:00:00+00,0,5834,1434,3649,235428,283076
9162,9,2021/05/28 00:00:00+00,0,94,40,32,72425,283077
9162,9,2021/07/17 00:00:00+00,0,20,30,7,74116,283078
9162,9,2021/03/27 00:00:00+00,0,182,89,127,58435,283079
9162,9,2021/02/05 00:00:00+00,0,140,35,90,52207,283080
9162,9,2021/09/06 00:00:00+00,0,223,169,87,80277,283081
9162,9,2022/02/03 00:00:00+00,0,7445,1247,4934,242873,283082
9162,9,2021/05/29 00:00:00+00,0,39,27,18,72464,283083
9162,9,2021/07/18 00:00:00+00,0,19,34,4,74135,283084
9162,9,2021/03/28 00:00:00+00,0,110,64,81,58545,283085
9162,9,2021/02/06 00:00:00+00,0,68,27,42,52275,283086
9162,9,2021/09/07 00:00:00+00,0,340,160,121,80617,283087
9162,9,2022/02/04 00:00:00+00,0,6164,1131,4188,249037,283088
9162,9,2022/02/05 00:00:00+00,0,3459,1102,2382,252496,283089
9162,9,2022/02/06 00:00:00+00,0,4216,1049,2826,256712,283090
9162,9,2022/02/07 00:00:00+00,0,4261,1128,2909,260973,283091
9162,9,2022/02/08 00:00:00+00,0,5199,965,3566,266172,283092
9162,9,2022/02/09 00:00:00+00,0,5066,842,3620,271238,283093
9162,9,2022/02/10 00:00:00+00,0,4675,726,3504,275913,283094
9162,9,2022/02/11 00:00:00+00,0,3746,824,2845,279659,283095
9162,9,2022/02/12 00:00:00+00,0,1661,844,1230,281320,283096
9162,9,2022/02/13 00:00:00+00,0,2025,823,1449,283345,283097
9162,9,2022/02/14 00:00:00+00,0,2562,1065,1727,285907,283098
9162,9,2022/02/15 00:00:00+00,0,3684,966,2652,289591,283099
9162,9,2022/02/16 00:00:00+00,0,4646,873,3360,294237,283100
9162,9,2022/02/17 00:00:00+00,0,4010,771,2916,298247,283101
9162,9,2022/02/18 00:00:00+00,0,3315,816,2422,301562,283102
9162,9,2021/07/19 00:00:00+00,0,57,62,11,74192,283103
9162,9,2021/02/07 00:00:00+00,0,30,18,20,52305,283104
9162,9,2021/03/29 00:00:00+00,0,167,104,100,58712,283105
9162,9,2021/07/20 00:00:00+00,0,56,68,10,74248,283106
9162,9,2021/05/30 00:00:00+00,0,45,22,21,72509,283107
9162,9,2021/02/08 00:00:00+00,0,71,38,51,52376,283108
9162,9,2021/03/30 00:00:00+00,0,289,108,193,59001,283109
9162,9,2021/07/21 00:00:00+00,0,68,49,7,74316,283110
9162,9,2021/05/31 00:00:00+00,0,45,29,15,72554,283111
9162,9,2021/02/09 00:00:00+00,0,146,37,92,52522,283112
9162,9,2021/03/31 00:00:00+00,0,313,88,208,59314,283113
9162,9,2021/09/08 00:00:00+00,0,337,171,142,80954,283114
9162,9,2021/07/22 00:00:00+00,0,69,41,11,74385,283115
9162,9,2021/06/01 00:00:00+00,0,93,26,45,72647,283116
9162,9,2021/02/10 00:00:00+00,0,100,25,59,52622,283117
9162,9,2021/04/01 00:00:00+00,0,253,113,125,59567,283118
9162,9,2021/09/09 00:00:00+00,0,279,153,106,81233,283119
9162,9,2021/07/23 00:00:00+00,0,62,45,8,74447,283120
9162,9,2021/06/02 00:00:00+00,0,63,35,30,72710,283121
9162,9,2021/02/11 00:00:00+00,0,94,28,71,52716,283122
9162,9,2021/04/02 00:00:00+00,0,181,90,95,59748,283123
9162,9,2021/09/10 00:00:00+00,0,254,167,115,81487,283124
9162,9,2021/07/24 00:00:00+00,0,39,41,8,74486,283125
9162,9,2021/06/03 00:00:00+00,0,31,24,17,72741,283126
9162,9,2021/02/12 00:00:00+00,0,74,27,45,52790,283127
9162,9,2021/04/03 00:00:00+00,0,123,106,65,59871,283128
9162,9,2021/09/11 00:00:00+00,0,222,160,83,81709,283129
9162,9,2021/07/25 00:00:00+00,0,18,39,3,74504,283130
9162,9,2021/06/04 00:00:00+00,0,39,32,13,72780,283131
9162,9,2021/02/13 00:00:00+00,0,44,33,26,52834,283132
9162,9,2021/04/04 00:00:00+00,0,118,116,57,59989,283133
9162,9,2021/09/12 00:00:00+00,0,142,126,47,81851,283134
9162,9,2021/07/26 00:00:00+00,0,67,64,10,74571,283135
9162,9,2021/06/05 00:00:00+00,0,56,22,16,72836,283136
9162,9,2021/02/14 00:00:00+00,0,19,21,11,52853,283137
9162,9,2021/04/05 00:00:00+00,0,88,135,48,60077,283138
9162,9,2021/09/13 00:00:00+00,0,227,168,73,82078,283139
9162,9,2021/07/27 00:00:00+00,0,88,49,15,74659,283140
9162,9,2021/06/06 00:00:00+00,0,20,35,5,72856,283141
9162,9,2021/02/15 00:00:00+00,0,60,44,46,52913,283142
9162,9,2021/04/06 00:00:00+00,0,265,143,148,60342,283143
9162,9,2021/09/14 00:00:00+00,0,444,136,157,82522,283144
9162,9,2021/07/28 00:00:00+00,0,59,39,18,74718,283145
9162,9,2021/06/07 00:00:00+00,0,51,33,17,72907,283146
9162,9,2021/02/16 00:00:00+00,0,33,20,24,52946,283147
9162,9,2021/04/07 00:00:00+00,0,426,131,239,60768,283148
9162,9,2021/09/15 00:00:00+00,0,373,121,183,82895,283149
9162,9,2021/07/29 00:00:00+00,0,71,39,19,74789,283150
9162,9,2021/06/08 00:00:00+00,0,69,22,28,72976,283151
9162,9,2021/02/17 00:00:00+00,0,116,30,57,53062,283152
9162,9,2021/04/08 00:00:00+00,0,348,119,197,61116,283153
9162,9,2021/09/16 00:00:00+00,0,301,149,158,83196,283154
9162,9,2021/07/30 00:00:00+00,0,63,42,16,74852,283155
9162,9,2021/06/09 00:00:00+00,0,43,27,13,73019,283156
9162,9,2021/02/18 00:00:00+00,0,107,31,65,53169,283157
9162,9,2021/04/09 00:00:00+00,0,304,132,178,61420,283158
9162,9,2021/09/17 00:00:00+00,0,293,122,128,83489,283159
9162,9,2021/07/31 00:00:00+00,0,59,48,12,74911,283160
9162,9,2021/06/10 00:00:00+00,0,56,26,20,73075,283161
9162,9,2021/02/19 00:00:00+00,0,80,26,57,53249,283162
9162,9,2021/04/10 00:00:00+00,0,282,157,162,61702,283163
9162,9,2021/09/18 00:00:00+00,0,183,98,94,83672,283164
9162,9,2021/08/01 00:00:00+00,0,25,38,5,74936,283165
9162,9,2021/06/11 00:00:00+00,0,21,20,10,73096,283166
9162,9,2021/02/20 00:00:00+00,0,64,23,34,53313,283167
9162,9,2021/04/11 00:00:00+00,0,245,114,142,61947,283168
9162,9,2021/09/19 00:00:00+00,0,105,110,51,83777,283169
9162,9,2021/08/02 00:00:00+00,0,56,61,13,74992,283170
9162,9,2021/06/12 00:00:00+00,0,26,25,9,73122,283171
9162,9,2021/02/21 00:00:00+00,0,23,27,12,53336,283172
9162,9,2021/04/12 00:00:00+00,0,292,156,172,62239,283173
9162,9,2021/09/20 00:00:00+00,0,278,157,131,84055,283174
9162,9,2021/06/13 00:00:00+00,0,16,14,7,73138,283175
9162,9,2021/02/22 00:00:00+00,0,60,35,43,53396,283176
9162,9,2021/04/13 00:00:00+00,0,471,121,295,62710,283177
9162,9,2021/09/21 00:00:00+00,0,315,136,158,84370,283178
9162,9,2021/02/23 00:00:00+00,0,91,25,56,53487,283179
9162,9,2021/04/14 00:00:00+00,0,523,140,349,63233,283180
9162,9,2021/02/24 00:00:00+00,0,119,18,83,53606,283181
9162,9,2021/04/15 00:00:00+00,0,401,133,233,63634,283182
9162,9,2021/02/25 00:00:00+00,0,84,39,50,53690,283183
9162,9,2021/04/16 00:00:00+00,0,389,150,240,64023,283184
9162,9,2021/02/26 00:00:00+00,0,126,42,87,53816,283185
9162,9,2021/04/17 00:00:00+00,0,269,181,169,64292,283186
9162,9,2021/02/27 00:00:00+00,0,70,38,52,53886,283187
9162,9,2021/04/18 00:00:00+00,0,184,131,106,64476,283188
9162,9,2021/02/28 00:00:00+00,0,45,33,35,53931,283189
9162,9,2021/04/19 00:00:00+00,0,247,183,128,64723,283190
9162,9,2021/03/01 00:00:00+00,0,75,41,51,54006,283191
9162,9,2021/04/20 00:00:00+00,0,538,171,293,65261,283192
9162,9,2021/03/02 00:00:00+00,0,160,45,113,54166,283193
9162,9,2021/04/21 00:00:00+00,0,421,189,204,65682,283194
9162,9,2021/03/03 00:00:00+00,0,152,43,105,54318,283195
9162,9,2021/04/22 00:00:00+00,0,369,162,181,66051,283196
9162,9,2021/03/04 00:00:00+00,0,111,48,79,54429,283197
9162,9,2021/04/23 00:00:00+00,0,346,150,174,66397,283198
9162,9,2021/03/05 00:00:00+00,0,144,44,96,54573,283199
9162,9,2021/04/24 00:00:00+00,0,165,154,79,66562,283200
9162,9,2023/02/04 00:00:00+00,0,0,8,0,711916,283201
9162,9,2023/02/05 00:00:00+00,0,0,6,0,711916,283202
9162,9,2023/02/06 00:00:00+00,0,363,12,346,712279,283203
9162,9,2023/02/07 00:00:00+00,0,296,12,282,712575,283204
9162,9,2023/02/08 00:00:00+00,0,347,14,333,712922,283205
9162,9,2023/02/09 00:00:00+00,0,285,7,271,713207,283206
9162,9,2023/02/10 00:00:00+00,0,280,11,268,713487,283207
9162,9,2023/02/11 00:00:00+00,0,0,7,0,713487,283208
9162,9,2022/12/16 00:00:00+00,0,262,13,250,702279,283209
9162,9,2023/02/12 00:00:00+00,0,1,16,0,713488,283210
9162,9,2023/02/13 00:00:00+00,0,469,20,446,713957,283211
9162,9,2023/02/14 00:00:00+00,0,352,3,326,714309,283212
9162,9,2023/02/15 00:00:00+00,0,307,11,303,714616,283213
9162,9,2023/02/16 00:00:00+00,0,280,8,269,714896,283214
9162,9,2023/02/17 00:00:00+00,0,215,10,207,715111,283215
9162,9,2023/02/18 00:00:00+00,0,0,10,0,715111,283216
9162,9,2023/02/19 00:00:00+00,0,0,15,0,715111,283217
9162,9,2023/02/20 00:00:00+00,0,491,24,457,715602,283218
9162,9,2023/02/21 00:00:00+00,0,238,14,225,715840,283219
9162,9,2023/02/22 00:00:00+00,0,398,12,370,716238,283220
9162,9,2023/02/23 00:00:00+00,0,266,12,253,716504,283221
9162,9,2023/02/24 00:00:00+00,0,230,4,220,716734,283222
9162,9,2023/02/25 00:00:00+00,0,0,5,0,716734,283223
9162,9,2023/02/26 00:00:00+00,0,0,8,0,716734,283224
9162,9,2023/02/27 00:00:00+00,0,269,9,252,717003,283225
9162,9,2023/02/28 00:00:00+00,0,304,11,289,717307,283226
9162,9,2023/03/01 00:00:00+00,0,303,8,293,717610,283227
9162,9,2023/03/02 00:00:00+00,0,168,4,156,717778,283228
9162,9,2023/03/03 00:00:00+00,0,119,5,117,717897,283229
9162,9,2023/03/04 00:00:00+00,0,0,5,0,717897,283230
9162,9,2023/03/05 00:00:00+00,0,0,7,0,717897,283231
9162,9,2023/03/06 00:00:00+00,0,226,9,210,718123,283232
9162,9,2023/03/07 00:00:00+00,0,127,6,120,718250,283233
9162,9,2023/03/08 00:00:00+00,0,129,4,124,718379,283234
9162,9,2023/03/09 00:00:00+00,0,113,4,108,718492,283235
9162,9,2023/03/10 00:00:00+00,0,118,3,110,718610,283236
9162,9,2023/03/11 00:00:00+00,0,0,6,0,718610,283237
9162,9,2023/03/12 00:00:00+00,0,0,2,0,718610,283238
9162,9,2023/03/13 00:00:00+00,0,168,4,163,718778,283239
9162,9,2023/03/14 00:00:00+00,0,129,4,126,718907,283240
9162,9,2023/03/15 00:00:00+00,0,123,4,118,719030,283241
9162,9,2023/03/16 00:00:00+00,0,106,4,100,719136,283242
9162,9,2023/03/17 00:00:00+00,0,78,6,73,719214,283243
9162,9,2023/03/18 00:00:00+00,0,0,3,0,719214,283244
9162,9,2023/03/19 00:00:00+00,0,0,6,0,719214,283245
9162,9,2023/03/20 00:00:00+00,0,168,3,156,719382,283246
9162,9,2023/03/21 00:00:00+00,0,127,3,121,719509,283247
9162,9,2023/03/22 00:00:00+00,0,69,2,67,719578,283248
9162,9,2023/03/23 00:00:00+00,0,87,3,84,719665,283249
9162,9,2023/03/24 00:00:00+00,0,91,0,88,719756,283250
9162,9,2023/03/25 00:00:00+00,0,0,2,0,719756,283251
9162,9,2022/02/19 00:00:00+00,0,1582,847,1106,303144,283252
9162,9,2022/04/10 00:00:00+00,0,1359,171,1086,468872,283253
9162,9,2022/09/07 00:00:00+00,0,479,81,394,627062,283254
9162,9,2022/07/19 00:00:00+00,0,3138,584,2133,588595,283255
9162,9,2022/05/30 00:00:00+00,0,393,230,251,524970,283256
9162,9,2022/07/20 00:00:00+00,0,3115,507,2228,591710,283257
9162,9,2022/04/11 00:00:00+00,0,1927,139,1598,470799,283258
9162,9,2022/12/17 00:00:00+00,0,0,8,0,702279,283259
9162,9,2022/07/21 00:00:00+00,0,2803,447,2056,594513,283260
9162,9,2022/09/08 00:00:00+00,0,418,67,333,627480,283261
9162,9,2022/04/12 00:00:00+00,0,2555,75,2209,473354,283262
9162,9,2022/12/18 00:00:00+00,0,0,5,0,702279,283263
9162,9,2022/07/22 00:00:00+00,0,2103,398,1461,596616,283264
9162,9,2022/09/09 00:00:00+00,0,416,71,346,627896,283265
9162,9,2022/04/13 00:00:00+00,0,2183,16,1994,475537,283266
9162,9,2022/12/19 00:00:00+00,0,613,32,577,702892,283267
9162,9,2022/07/23 00:00:00+00,0,8,381,6,596624,283268
9162,9,2022/09/10 00:00:00+00,0,6,83,5,627902,283269
9162,9,2022/04/14 00:00:00+00,0,2000,17,1950,477537,283270
9162,9,2022/12/20 00:00:00+00,0,463,14,445,703355,283271
9162,9,2022/07/24 00:00:00+00,0,18,322,15,596642,283272
9162,9,2022/09/11 00:00:00+00,0,14,82,11,627916,283273
9162,9,2022/04/15 00:00:00+00,0,1318,9,1300,478855,283274
9162,9,2022/12/21 00:00:00+00,0,441,15,429,703796,283275
9162,9,2022/07/25 00:00:00+00,0,2599,322,1912,599241,283276
9162,9,2022/09/12 00:00:00+00,0,831,87,643,628747,283277
9162,9,2022/04/16 00:00:00+00,0,1114,13,1099,479969,283278
9162,9,2022/12/22 00:00:00+00,0,369,20,347,704165,283279
9162,9,2022/07/26 00:00:00+00,0,2205,292,1536,601446,283280
9162,9,2022/09/13 00:00:00+00,0,683,111,568,629430,283281
9162,9,2022/04/17 00:00:00+00,0,969,9,960,480938,283282
9162,9,2022/12/23 00:00:00+00,0,349,14,334,704514,283283
9162,9,2022/07/27 00:00:00+00,0,2459,200,1842,603905,283284
9162,9,2022/09/14 00:00:00+00,0,590,110,476,630020,283285
9162,9,2022/04/18 00:00:00+00,0,915,9,905,481853,283286
9162,9,2022/12/24 00:00:00+00,0,0,6,0,704514,283287
9162,9,2022/07/28 00:00:00+00,0,1608,160,1202,605513,283288
9162,9,2022/09/15 00:00:00+00,0,619,101,507,630639,283289
9162,9,2022/04/19 00:00:00+00,0,1493,12,1479,483346,283290
9162,9,2022/12/25 00:00:00+00,0,0,10,0,704514,283291
9162,9,2022/07/29 00:00:00+00,0,1185,152,971,606698,283292
9162,9,2022/09/16 00:00:00+00,0,520,127,444,631159,283293
9162,9,2022/04/20 00:00:00+00,0,1987,14,1978,485333,283294
9162,9,2022/12/26 00:00:00+00,0,0,13,0,704514,283295
9162,9,2022/07/30 00:00:00+00,0,7,156,7,606705,283296
9162,9,2022/09/17 00:00:00+00,0,1,121,1,631160,283297
9162,9,2022/04/21 00:00:00+00,0,1751,16,1735,487084,283298
9162,9,2022/12/27 00:00:00+00,0,786,15,750,705300,283299
9162,9,2022/07/31 00:00:00+00,0,7,135,6,606712,283300
9162,9,2022/10/27 00:00:00+00,0,473,10,460,690181,283301
9162,9,2022/09/18 00:00:00+00,0,13,118,9,631173,283302
9162,9,2022/04/22 00:00:00+00,0,1285,18,1268,488369,283303
9162,9,2022/12/28 00:00:00+00,0,368,10,356,705668,283304
9162,9,2022/05/31 00:00:00+00,0,871,249,583,525841,283305
9162,9,2022/02/20 00:00:00+00,0,1993,790,1325,305137,283306
9162,9,2022/08/01 00:00:00+00,0,1932,166,1525,608644,283307
9162,9,2022/10/28 00:00:00+00,0,303,9,292,690484,283308
9162,9,2022/09/19 00:00:00+00,0,1203,163,898,632376,283309
9162,9,2022/04/23 00:00:00+00,0,1112,12,1104,489481,283310
9162,9,2022/12/29 00:00:00+00,0,329,12,320,705997,283311
9162,9,2022/06/01 00:00:00+00,0,743,246,487,526584,283312
9162,9,2022/02/21 00:00:00+00,0,2426,924,1630,307563,283313
9162,9,2022/08/02 00:00:00+00,0,1354,139,1117,609998,283314
9162,9,2022/10/29 00:00:00+00,0,310,5,302,690794,283315
9162,9,2022/09/20 00:00:00+00,0,890,171,718,633266,283316
9162,9,2022/04/24 00:00:00+00,0,1136,12,1130,490617,283317
9162,9,2022/12/30 00:00:00+00,0,199,8,189,706196,283318
9162,9,2022/06/02 00:00:00+00,0,623,208,409,527207,283319
9162,9,2022/02/22 00:00:00+00,0,3498,880,2427,311061,283320
9162,9,2022/08/03 00:00:00+00,0,1013,103,829,611011,283321
9162,9,2022/10/30 00:00:00+00,0,0,10,0,690794,283322
9162,9,2022/09/21 00:00:00+00,0,806,224,654,634072,283323
9162,9,2022/04/25 00:00:00+00,0,1333,36,1323,491950,283324
9162,9,2022/12/31 00:00:00+00,0,7,7,7,706203,283325
9162,9,2022/06/03 00:00:00+00,0,689,222,442,527896,283326
9162,9,2022/02/23 00:00:00+00,0,3576,713,2560,314637,283327
9162,9,2022/08/04 00:00:00+00,0,763,98,654,611774,283328
9162,9,2022/10/31 00:00:00+00,0,345,7,333,691139,283329
9162,9,2022/09/22 00:00:00+00,0,909,212,751,634981,283330
9162,9,2022/04/26 00:00:00+00,0,1888,34,1863,493838,283331
9162,9,2023/01/01 00:00:00+00,0,7,10,7,706210,283332
9162,9,2022/06/04 00:00:00+00,0,2,273,1,527898,283333
9162,9,2022/02/24 00:00:00+00,0,3584,605,2679,318221,283334
9162,9,2022/08/05 00:00:00+00,0,794,77,667,612568,283335
9162,9,2022/11/01 00:00:00+00,0,0,9,0,691139,283336
9162,9,2022/09/23 00:00:00+00,0,1088,223,888,636069,283337
9162,9,2022/04/27 00:00:00+00,0,1601,58,1586,495439,283338
9162,9,2023/01/02 00:00:00+00,0,368,12,355,706578,283339
9162,9,2022/06/05 00:00:00+00,0,7,305,2,527905,283340
9162,9,2022/02/25 00:00:00+00,0,2867,671,2066,321088,283341
9162,9,2022/02/26 00:00:00+00,0,1449,690,1026,322537,283342
9162,9,2022/02/27 00:00:00+00,0,1815,694,1342,324352,283343
9162,9,2022/02/28 00:00:00+00,0,2477,844,1713,326829,283344
9162,9,2022/03/01 00:00:00+00,0,1971,978,1357,328800,283345
9162,9,2022/03/02 00:00:00+00,0,3984,870,2827,332784,283346
9162,9,2022/03/03 00:00:00+00,0,3326,828,2400,336110,283347
9162,9,2022/03/04 00:00:00+00,0,2733,856,2006,338843,283348
9162,9,2022/03/05 00:00:00+00,0,1429,924,1007,340272,283349
9162,9,2022/03/06 00:00:00+00,0,2289,1033,1606,342561,283350
9162,9,2022/03/07 00:00:00+00,0,2630,1337,1904,345191,283351
9162,9,2022/03/08 00:00:00+00,0,3710,1309,2617,348901,283352
9162,9,2022/03/09 00:00:00+00,0,4278,1013,3105,353179,283353
9162,9,2022/03/10 00:00:00+00,0,4488,1007,3303,357667,283354
9162,9,2022/03/11 00:00:00+00,0,3995,1000,2926,361662,283355
9162,9,2022/03/12 00:00:00+00,0,3154,1038,2377,364816,283356
9162,9,2022/03/13 00:00:00+00,0,3495,1081,2561,368311,283357
9162,9,2022/03/14 00:00:00+00,0,3885,1317,2841,372196,283358
9162,9,2022/03/15 00:00:00+00,0,4540,1229,3241,376736,283359
9162,9,2022/03/16 00:00:00+00,0,4807,1047,3517,381543,283360
9162,9,2022/03/17 00:00:00+00,0,4668,898,3555,386211,283361
9162,9,2022/03/18 00:00:00+00,0,4370,953,3359,390581,283362
9162,9,2022/03/19 00:00:00+00,0,2821,909,2169,393402,283363
9162,9,2022/03/20 00:00:00+00,0,3893,983,2962,397295,283364
9162,9,2022/03/21 00:00:00+00,0,4072,1206,3200,401367,283365
9162,9,2022/03/22 00:00:00+00,0,4697,1023,3533,406064,283366
9162,9,2022/03/23 00:00:00+00,0,5216,883,3867,411280,283367
9162,9,2022/03/24 00:00:00+00,0,5225,776,3933,416505,283368
9162,9,2022/03/25 00:00:00+00,0,4157,758,3190,420662,283369
9162,9,2022/03/26 00:00:00+00,0,2814,811,2197,423476,283370
9162,9,2022/03/27 00:00:00+00,0,3271,848,2506,426747,283371
9162,9,2022/03/28 00:00:00+00,0,4666,880,3497,431413,283372
9162,9,2022/03/29 00:00:00+00,0,4840,811,3635,436253,283373
9162,9,2022/03/30 00:00:00+00,0,5183,648,3972,441436,283374
9162,9,2022/03/31 00:00:00+00,0,4012,485,3062,445448,283375
9162,9,2022/04/01 00:00:00+00,0,2926,554,2248,448374,283376
9162,9,2022/04/02 00:00:00+00,0,1843,472,1429,450217,283377
9162,9,2022/04/03 00:00:00+00,0,1584,499,1281,451801,283378
9162,9,2022/04/04 00:00:00+00,0,2010,588,1550,453811,283379
9162,9,2022/04/05 00:00:00+00,0,2693,515,2061,456504,283380
9162,9,2022/04/06 00:00:00+00,0,3494,383,2764,459998,283381
9162,9,2022/04/07 00:00:00+00,0,3288,312,2574,463286,283382
9162,9,2022/04/08 00:00:00+00,0,2611,280,2118,465897,283383
9162,9,2022/04/09 00:00:00+00,0,1616,231,1322,467513,283384
9162,9,2022/09/24 00:00:00+00,0,979,220,777,637048,283385
9162,9,2023/01/03 00:00:00+00,0,256,6,242,706834,283386
9162,9,2022/04/28 00:00:00+00,0,1327,88,1306,496766,283387
9162,9,2022/09/25 00:00:00+00,0,28,103,24,637076,283388
9162,9,2022/08/06 00:00:00+00,0,12,111,10,612580,283389
9162,9,2023/01/04 00:00:00+00,0,294,2,284,707128,283390
9162,9,2022/04/29 00:00:00+00,0,961,112,908,497727,283391
9162,9,2022/09/26 00:00:00+00,0,1992,86,1487,639068,283392
9162,9,2022/08/07 00:00:00+00,0,5,82,2,612585,283393
9162,9,2023/01/05 00:00:00+00,0,158,10,154,707286,283394
9162,9,2022/04/30 00:00:00+00,0,1149,189,1094,498876,283395
9162,9,2022/06/06 00:00:00+00,0,8,306,2,527913,283396
9162,9,2022/09/27 00:00:00+00,0,3042,79,2922,642110,283397
9162,9,2022/11/02 00:00:00+00,0,580,8,562,691719,283398
9162,9,2022/08/08 00:00:00+00,0,1290,124,1065,613875,283399
9162,9,2023/01/06 00:00:00+00,0,0,2,0,707286,283400
9162,9,2022/05/01 00:00:00+00,0,863,296,849,499739,283401
9162,9,2022/06/07 00:00:00+00,0,1568,335,952,529481,283402
9162,9,2022/09/28 00:00:00+00,0,3146,56,3060,645256,283403
9162,9,2022/11/03 00:00:00+00,0,340,5,332,692059,283404
9162,9,2022/08/09 00:00:00+00,0,793,98,654,614668,283405
9162,9,2023/01/07 00:00:00+00,0,0,11,0,707286,283406
9162,9,2022/05/02 00:00:00+00,0,960,370,926,500699,283407
9162,9,2022/06/08 00:00:00+00,0,1412,333,887,530893,283408
9162,9,2022/09/29 00:00:00+00,0,1995,55,1939,647251,283409
9162,9,2022/11/04 00:00:00+00,0,349,7,344,692408,283410
9162,9,2022/08/10 00:00:00+00,0,595,84,473,615263,283411
9162,9,2023/01/08 00:00:00+00,0,1,10,0,707287,283412
9162,9,2022/05/03 00:00:00+00,0,1605,470,1243,502304,283413
9162,9,2022/06/09 00:00:00+00,0,1140,295,708,532033,283414
9162,9,2022/09/30 00:00:00+00,0,1880,55,1846,649131,283415
9162,9,2022/11/05 00:00:00+00,0,1,4,1,692409,283416
9162,9,2022/08/11 00:00:00+00,0,565,53,456,615828,283417
9162,9,2023/01/09 00:00:00+00,0,555,11,527,707842,283418
9162,9,2022/05/04 00:00:00+00,0,1711,408,1158,504015,283419
9162,9,2022/06/10 00:00:00+00,0,956,257,648,532989,283420
9162,9,2022/10/01 00:00:00+00,0,1558,66,1529,650689,283421
9162,9,2022/11/06 00:00:00+00,0,1,7,1,692410,283422
9162,9,2022/08/12 00:00:00+00,0,537,78,451,616365,283423
9162,9,2023/01/10 00:00:00+00,0,305,9,294,708147,283424
9162,9,2022/05/05 00:00:00+00,0,1462,342,1007,505477,283425
9162,9,2022/06/11 00:00:00+00,0,0,277,0,532989,283426
9162,9,2022/10/02 00:00:00+00,0,28,65,25,650717,283427
9162,9,2022/11/07 00:00:00+00,0,604,9,589,693014,283428
9162,9,2022/08/13 00:00:00+00,0,1,82,1,616366,283429
9162,9,2023/01/11 00:00:00+00,0,250,5,241,708397,283430
9162,9,2022/05/06 00:00:00+00,0,1266,357,859,506743,283431
9162,9,2022/06/12 00:00:00+00,0,7,283,4,532996,283432
9162,9,2022/10/03 00:00:00+00,0,71,92,70,650788,283433
9162,9,2022/11/08 00:00:00+00,0,389,3,380,693403,283434
9162,9,2022/08/14 00:00:00+00,0,0,70,0,616366,283435
9162,9,2023/01/12 00:00:00+00,0,191,2,183,708588,283436
9162,9,2022/05/07 00:00:00+00,0,923,370,612,507666,283437
9162,9,2022/06/13 00:00:00+00,0,1603,386,1033,534599,283438
9162,9,2022/10/04 00:00:00+00,0,3020,89,2871,653808,283439
9162,9,2022/11/09 00:00:00+00,0,331,8,325,693734,283440
9162,9,2022/08/15 00:00:00+00,0,5,105,2,616371,283441
9162,9,2023/01/13 00:00:00+00,0,116,9,115,708704,283442
9162,9,2022/05/08 00:00:00+00,0,626,435,385,508292,283443
9162,9,2022/06/14 00:00:00+00,0,1399,343,900,535998,283444
9162,9,2022/10/05 00:00:00+00,0,5963,73,5815,659771,283445
9162,9,2022/11/10 00:00:00+00,0,256,6,250,693990,283446
9162,9,2022/08/16 00:00:00+00,0,1158,105,928,617529,283447
9162,9,2023/01/14 00:00:00+00,0,0,5,0,708704,283448
9162,9,2022/05/09 00:00:00+00,0,1001,441,608,509293,283449
9162,9,2022/06/15 00:00:00+00,0,1210,302,775,537208,283450
9162,9,2022/10/06 00:00:00+00,0,4180,44,4060,663951,283451
9162,9,2022/11/11 00:00:00+00,0,200,8,196,694190,283452
9162,9,2022/08/17 00:00:00+00,0,808,81,666,618337,283453
9162,9,2023/01/15 00:00:00+00,0,0,2,0,708704,283454
9162,9,2022/05/10 00:00:00+00,0,1505,432,992,510798,283455
9162,9,2022/06/16 00:00:00+00,0,2,334,2,537210,283456
9162,9,2022/10/07 00:00:00+00,0,2839,59,2786,666790,283457
9162,9,2022/11/12 00:00:00+00,0,37,8,36,694227,283458
9162,9,2022/08/18 00:00:00+00,0,622,75,506,618959,283459
9162,9,2023/01/16 00:00:00+00,0,286,9,268,708990,283460
9162,9,2022/05/11 00:00:00+00,0,1540,314,1002,512338,283461
9162,9,2022/06/17 00:00:00+00,0,1273,355,824,538483,283462
9162,9,2022/11/13 00:00:00+00,0,0,6,0,694227,283463
9162,9,2022/10/08 00:00:00+00,0,1560,51,1546,668350,283464
9162,9,2022/08/19 00:00:00+00,0,492,83,415,619451,283465
9162,9,2023/01/17 00:00:00+00,0,156,5,149,709146,283466
9162,9,2023/01/18 00:00:00+00,0,180,9,167,709326,283467
9162,9,2023/01/19 00:00:00+00,0,118,5,111,709444,283468
9162,9,2023/01/20 00:00:00+00,0,142,11,136,709586,283469
9162,9,2023/01/21 00:00:00+00,0,0,2,0,709586,283470
9162,9,2023/01/22 00:00:00+00,0,0,6,0,709586,283471
9162,9,2023/01/23 00:00:00+00,0,245,9,228,709831,283472
9162,9,2023/01/24 00:00:00+00,0,200,7,190,710031,283473
9162,9,2023/01/25 00:00:00+00,0,184,7,178,710215,283474
9162,9,2023/01/26 00:00:00+00,0,188,8,181,710403,283475
9162,9,2023/01/27 00:00:00+00,0,154,11,141,710557,283476
9162,9,2023/01/28 00:00:00+00,0,0,4,0,710557,283477
9162,9,2023/01/29 00:00:00+00,0,0,8,0,710557,283478
9162,9,2023/01/30 00:00:00+00,0,378,12,363,710935,283479
9162,9,2023/01/31 00:00:00+00,0,313,8,298,711248,283480
9162,9,2023/02/01 00:00:00+00,0,221,12,214,711469,283481
9162,9,2023/02/02 00:00:00+00,0,231,10,220,711700,283482
9162,9,2023/02/03 00:00:00+00,0,216,12,208,711916,283483
9162,9,2022/11/14 00:00:00+00,0,436,9,420,694663,283484
9162,9,2022/08/20 00:00:00+00,0,1,60,1,619452,283485
9162,9,2022/10/09 00:00:00+00,0,2268,40,2224,670618,283486
9162,9,2022/11/15 00:00:00+00,0,244,12,238,694907,283487
9162,9,2022/06/18 00:00:00+00,0,15,386,10,538498,283488
9162,9,2022/08/21 00:00:00+00,0,1,82,0,619453,283489
9162,9,2022/10/10 00:00:00+00,0,3220,52,3131,673838,283490
9162,9,2022/11/16 00:00:00+00,0,247,6,238,695154,283491
9162,9,2022/06/19 00:00:00+00,0,11,447,5,538509,283492
9162,9,2022/08/22 00:00:00+00,0,747,93,578,620200,283493
9162,9,2022/05/12 00:00:00+00,0,1272,315,893,513610,283494
9162,9,2022/10/11 00:00:00+00,0,2742,44,2659,676580,283495
9162,9,2022/11/17 00:00:00+00,0,235,6,230,695389,283496
9162,9,2022/06/20 00:00:00+00,0,1513,499,1006,540022,283497
9162,9,2022/08/23 00:00:00+00,0,649,80,529,620849,283498
9162,9,2022/05/13 00:00:00+00,0,1022,257,694,514632,283499
9162,9,2022/10/12 00:00:00+00,0,1981,36,1909,678561,283500
9162,9,2022/11/18 00:00:00+00,0,191,6,187,695580,283501
9162,9,2022/06/21 00:00:00+00,0,1820,491,1158,541842,283502
9162,9,2022/08/24 00:00:00+00,0,493,97,409,621342,283503
9162,9,2022/05/14 00:00:00+00,0,796,265,499,515428,283504
9162,9,2022/10/13 00:00:00+00,0,1576,37,1529,680137,283505
9162,9,2022/11/19 00:00:00+00,0,18,7,16,695598,283506
9162,9,2022/06/22 00:00:00+00,0,2242,413,1397,544084,283507
9162,9,2022/08/25 00:00:00+00,0,537,80,417,621879,283508
9162,9,2022/05/15 00:00:00+00,0,559,287,338,515987,283509
9162,9,2022/10/14 00:00:00+00,0,1335,25,1292,681472,283510
9162,9,2022/11/20 00:00:00+00,0,0,7,0,695598,283511
9162,9,2022/06/23 00:00:00+00,0,1937,363,1296,546021,283512
9162,9,2022/08/26 00:00:00+00,0,380,83,315,622259,283513
9162,9,2022/05/16 00:00:00+00,0,814,276,510,516801,283514
9162,9,2022/10/15 00:00:00+00,0,973,18,950,682445,283515
9162,9,2022/11/21 00:00:00+00,0,496,19,476,696094,283516
9162,9,2022/06/24 00:00:00+00,0,1171,462,799,547192,283517
9162,9,2022/08/27 00:00:00+00,0,1,72,1,622260,283518
9162,9,2022/05/17 00:00:00+00,0,942,249,637,517743,283519
9162,9,2022/10/16 00:00:00+00,0,2,23,2,682447,283520
9162,9,2022/11/22 00:00:00+00,0,322,4,310,696416,283521
9162,9,2022/06/25 00:00:00+00,0,3,436,0,547195,283522
9162,9,2022/08/28 00:00:00+00,0,0,88,0,622260,283523
9162,9,2022/05/18 00:00:00+00,0,891,231,616,518634,283524
9162,9,2022/10/17 00:00:00+00,0,1258,23,1210,683705,283525
9162,9,2022/11/23 00:00:00+00,0,270,10,266,696686,283526
9162,9,2022/06/26 00:00:00+00,0,1,535,0,547196,283527
9162,9,2022/08/29 00:00:00+00,0,920,80,694,623180,283528
9162,9,2022/05/19 00:00:00+00,0,866,203,584,519500,283529
9162,9,2022/10/18 00:00:00+00,0,1271,24,1242,684976,283530
9162,9,2022/11/24 00:00:00+00,0,274,8,265,696960,283531
9162,9,2022/06/27 00:00:00+00,0,2220,629,1412,549416,283532
9162,9,2022/08/30 00:00:00+00,0,630,78,503,623810,283533
9162,9,2022/05/20 00:00:00+00,0,772,184,500,520272,283534
9162,9,2022/10/19 00:00:00+00,0,961,21,933,685937,283535
9162,9,2022/11/25 00:00:00+00,0,137,11,135,697097,283536
9162,9,2022/06/28 00:00:00+00,0,1960,554,1210,551376,283537
9162,9,2022/08/31 00:00:00+00,0,509,66,415,624319,283538
9162,9,2022/05/21 00:00:00+00,0,439,177,274,520711,283539
9162,9,2022/10/20 00:00:00+00,0,719,9,691,686656,283540
9162,9,2022/11/26 00:00:00+00,0,18,6,18,697115,283541
9162,9,2022/06/29 00:00:00+00,0,2213,456,1496,553589,283542
9162,9,2022/09/01 00:00:00+00,0,407,62,331,624726,283543
9162,9,2022/05/22 00:00:00+00,0,313,194,182,521024,283544
9162,9,2022/10/21 00:00:00+00,0,660,8,649,687316,283545
9162,9,2022/11/27 00:00:00+00,0,0,10,0,697115,283546
9162,9,2022/06/30 00:00:00+00,0,2262,414,1503,555851,283547
9162,9,2022/09/02 00:00:00+00,0,354,56,296,625080,283548
9162,9,2022/05/23 00:00:00+00,0,542,186,341,521566,283549
9162,9,2022/10/22 00:00:00+00,0,439,8,435,687755,283550
9162,9,2022/11/28 00:00:00+00,0,519,4,496,697634,283551
9162,9,2022/07/01 00:00:00+00,0,1617,502,1122,557468,283552
9162,9,2022/09/03 00:00:00+00,0,9,78,8,625089,283553
9162,9,2022/05/24 00:00:00+00,0,777,228,530,522343,283554
9162,9,2022/10/23 00:00:00+00,0,0,11,0,687755,283555
9162,9,2022/11/29 00:00:00+00,0,307,7,299,697941,283556
9162,9,2022/07/02 00:00:00+00,0,21,502,12,557489,283557
9162,9,2022/09/04 00:00:00+00,0,8,69,5,625097,283558
9162,9,2022/05/25 00:00:00+00,0,590,214,357,522933,283559
9162,9,2022/10/24 00:00:00+00,0,716,24,693,688471,283560
9162,9,2022/11/30 00:00:00+00,0,269,7,264,698210,283561
9162,9,2022/07/03 00:00:00+00,0,26,582,16,557515,283562
9162,9,2022/09/05 00:00:00+00,0,858,87,696,625955,283563
9162,9,2022/05/26 00:00:00+00,0,451,170,289,523384,283564
9162,9,2022/10/25 00:00:00+00,0,703,10,694,689174,283565
9162,9,2022/12/01 00:00:00+00,0,281,9,271,698491,283566
9162,9,2022/07/04 00:00:00+00,0,2780,702,1897,560295,283567
9162,9,2022/09/06 00:00:00+00,0,628,95,530,626583,283568
9162,9,2022/05/27 00:00:00+00,0,333,168,187,523717,283569
9162,9,2022/10/26 00:00:00+00,0,534,10,518,689708,283570
9162,9,2022/12/02 00:00:00+00,0,197,3,192,698688,283571
9162,9,2022/07/05 00:00:00+00,0,2766,591,1900,563061,283572
9162,9,2022/05/28 00:00:00+00,0,547,186,322,524264,283573
9162,9,2022/12/03 00:00:00+00,0,0,8,0,698688,283574
9162,9,2022/07/06 00:00:00+00,0,2392,488,1681,565453,283575
9162,9,2022/05/29 00:00:00+00,0,313,192,180,524577,283576
9162,9,2022/12/04 00:00:00+00,0,0,11,0,698688,283577
9162,9,2022/07/07 00:00:00+00,0,2806,492,1965,568259,283578
9162,9,2022/12/05 00:00:00+00,0,453,7,441,699141,283579
9162,9,2022/07/08 00:00:00+00,0,1768,431,1297,570027,283580
9162,9,2022/12/06 00:00:00+00,0,392,13,380,699533,283581
9162,9,2022/07/09 00:00:00+00,0,36,472,29,570063,283582
9162,9,2022/12/07 00:00:00+00,0,320,16,307,699853,283583
9162,9,2022/07/10 00:00:00+00,0,26,569,17,570089,283584
9162,9,2022/12/08 00:00:00+00,0,289,9,276,700142,283585
9162,9,2022/07/11 00:00:00+00,0,2603,637,1860,572692,283586
9162,9,2022/12/09 00:00:00+00,0,284,9,279,700426,283587
9162,9,2022/07/12 00:00:00+00,0,2894,569,2131,575586,283588
9162,9,2022/07/13 00:00:00+00,0,2449,576,1770,578035,283589
9162,9,2022/07/14 00:00:00+00,0,2173,572,1535,580208,283590
9162,9,2022/07/15 00:00:00+00,0,2336,540,1702,582544,283591
9162,9,2022/07/16 00:00:00+00,0,5,552,4,582549,283592
9162,9,2022/07/17 00:00:00+00,0,8,614,5,582557,283593
9162,9,2022/07/18 00:00:00+00,0,2900,578,2097,585457,283594
9162,9,2022/12/10 00:00:00+00,0,0,12,0,700426,283595
9162,9,2022/12/11 00:00:00+00,0,0,6,0,700426,283596
9162,9,2022/12/12 00:00:00+00,0,545,15,518,700971,283597
9162,9,2022/12/13 00:00:00+00,0,401,13,386,701372,283598
9162,9,2022/12/14 00:00:00+00,0,346,12,329,701718,283599
9162,9,2022/12/15 00:00:00+00,0,299,14,285,702017,283600
9162,9,2023/05/15 00:00:00+00,0,28,1,26,721251,283605
9162,9,2023/05/16 00:00:00+00,0,26,1,25,721277,283609
9162,9,2023/05/17 00:00:00+00,0,32,0,30,721309,283614
9162,9,2023/05/18 00:00:00+00,0,0,0,0,721309,283619
9162,9,2023/05/19 00:00:00+00,0,23,0,23,721332,283624
9162,9,2023/05/20 00:00:00+00,0,0,0,0,721332,283629
9162,9,2023/05/21 00:00:00+00,0,0,0,0,721332,283634
9162,9,2023/03/26 00:00:00+00,0,0,0,0,719756,283647
9162,9,2023/03/27 00:00:00+00,0,106,4,100,719862,283654
9162,9,2023/03/28 00:00:00+00,0,53,3,50,719915,283662
9162,9,2023/03/29 00:00:00+00,0,61,2,57,719976,283670
9162,9,2023/03/30 00:00:00+00,0,68,5,65,720044,283678
9162,9,2023/03/31 00:00:00+00,0,28,2,28,720072,283686
9162,9,2023/04/01 00:00:00+00,0,0,3,0,720072,283694
9162,9,2023/04/02 00:00:00+00,0,0,3,0,720072,283702
9162,9,2023/04/03 00:00:00+00,0,84,2,78,720156,283710
9162,9,2023/04/04 00:00:00+00,0,121,3,115,720277,283718
9162,9,2023/04/05 00:00:00+00,0,56,1,54,720333,283774
9162,9,2023/04/06 00:00:00+00,0,28,3,27,720361,283781
9162,9,2023/04/07 00:00:00+00,0,0,1,0,720361,283788
9162,9,2023/04/08 00:00:00+00,0,0,1,0,720361,283795
9162,9,2023/04/09 00:00:00+00,0,0,1,0,720361,283802
9162,9,2023/04/10 00:00:00+00,0,0,1,0,720361,283809
9162,9,2023/04/11 00:00:00+00,0,107,2,98,720468,283816
9162,9,2023/04/12 00:00:00+00,0,45,2,43,720513,283823
9162,9,2023/04/13 00:00:00+00,0,38,2,35,720551,283830
9162,9,2023/04/14 00:00:00+00,0,32,4,29,720583,283837
9162,9,2023/04/15 00:00:00+00,0,0,2,0,720583,283844
9162,9,2023/04/16 00:00:00+00,0,0,1,0,720583,283866
9162,9,2023/04/17 00:00:00+00,0,66,3,60,720649,283872
9162,9,2023/04/18 00:00:00+00,0,39,5,38,720688,283878
9162,9,2023/04/19 00:00:00+00,0,36,6,31,720724,283884
9162,9,2023/04/20 00:00:00+00,0,30,1,26,720754,283890
9162,9,2023/04/21 00:00:00+00,0,24,1,24,720778,283896
9162,9,2023/04/22 00:00:00+00,0,0,1,0,720778,283902
9162,9,2023/04/23 00:00:00+00,0,0,2,0,720778,283908
9162,9,2023/04/24 00:00:00+00,0,50,1,41,720828,283914
9162,9,2023/04/25 00:00:00+00,0,38,1,37,720866,283920
9162,9,2023/04/26 00:00:00+00,0,21,1,21,720887,283926
9162,9,2023/04/27 00:00:00+00,0,31,1,29,720918,283932
9162,9,2023/04/28 00:00:00+00,0,22,0,21,720940,283938
9162,9,2023/04/29 00:00:00+00,0,0,3,0,720940,283944
9162,9,2023/04/30 00:00:00+00,0,0,1,0,720940,283950
9162,9,2023/05/01 00:00:00+00,0,0,2,0,720940,283956
9162,9,2023/05/02 00:00:00+00,0,52,2,51,720992,283962
9162,9,2023/05/03 00:00:00+00,0,37,1,32,721029,283968
9162,9,2023/05/04 00:00:00+00,0,35,2,34,721064,283975
9162,9,2023/05/05 00:00:00+00,0,31,0,28,721095,283978
9162,9,2023/05/06 00:00:00+00,0,0,1,0,721095,283980
9162,9,2023/05/07 00:00:00+00,0,0,1,0,721095,283983
9162,9,2023/05/08 00:00:00+00,0,41,2,38,721136,283985
9162,9,2023/05/09 00:00:00+00,0,20,0,19,721156,283987
9162,9,2023/05/10 00:00:00+00,0,28,1,26,721184,283989
9162,9,2023/05/11 00:00:00+00,0,19,1,18,721203,283991
9162,9,2023/05/12 00:00:00+00,0,20,0,20,721223,283993
9162,9,2023/05/13 00:00:00+00,0,0,0,0,721223,283995
9162,9,2023/05/14 00:00:00+00,0,0,2,0,721223,283997
