﻿AdmUnitId,BundeslandId,Datum,AnzFallNeu,AnzFallVortag,AnzFallErkrankung,AnzFallMeldung,KumFall,ObjectId
9162,9,2020/11/26 00:00:00+00,0,620,72,552,28926,272801
9162,9,2020/11/27 00:00:00+00,0,103,62,94,29029,272802
9162,9,2020/11/28 00:00:00+00,0,268,67,230,29297,272803
9162,9,2020/11/29 00:00:00+00,0,468,73,396,29765,272804
9162,9,2020/11/30 00:00:00+00,0,417,97,335,30182,272805
9162,9,2020/12/01 00:00:00+00,0,430,91,352,30612,272806
9162,9,2020/12/02 00:00:00+00,0,483,94,394,31095,272807
9162,9,2020/12/03 00:00:00+00,0,619,106,519,31714,272808
9162,9,2020/12/04 00:00:00+00,0,239,98,186,31953,272809
9162,9,2020/12/05 00:00:00+00,0,208,105,167,32161,272810
9162,9,2020/12/06 00:00:00+00,0,538,79,443,32699,272811
9162,9,2020/12/07 00:00:00+00,0,610,108,506,33309,272812
9162,9,2020/12/08 00:00:00+00,0,489,122,381,33798,272813
9162,9,2020/12/09 00:00:00+00,0,590,81,477,34388,272814
9162,9,2020/12/10 00:00:00+00,0,375,74,304,34763,272815
9162,9,2020/12/11 00:00:00+00,0,593,97,490,35356,272816
9162,9,2020/12/12 00:00:00+00,0,383,96,322,35739,272817
9162,9,2020/12/13 00:00:00+00,0,394,68,336,36133,272818
9162,9,2020/12/14 00:00:00+00,0,526,102,420,36659,272819
9162,9,2020/12/15 00:00:00+00,0,870,76,727,37529,272820
9162,9,2020/12/16 00:00:00+00,0,644,74,534,38173,272821
9162,9,2020/12/17 00:00:00+00,0,815,77,682,38988,272822
9162,9,2020/12/18 00:00:00+00,0,704,70,601,39692,272823
9162,9,2020/12/19 00:00:00+00,0,600,64,510,40292,272824
9162,9,2020/12/20 00:00:00+00,0,208,63,178,40500,272825
9162,9,2020/12/21 00:00:00+00,0,265,77,213,40765,272826
9162,9,2020/12/22 00:00:00+00,0,363,58,322,41128,272827
9162,9,2020/12/23 00:00:00+00,0,604,74,505,41732,272828
9162,9,2020/12/24 00:00:00+00,0,289,59,246,42021,272829
9162,9,2020/12/25 00:00:00+00,0,0,44,0,42021,272830
9162,9,2020/12/26 00:00:00+00,0,586,54,471,42607,272831
9162,9,2020/12/27 00:00:00+00,0,357,57,299,42964,272832
9162,9,2020/12/28 00:00:00+00,0,228,81,186,43192,272833
9162,9,2020/12/29 00:00:00+00,0,538,54,445,43730,272834
9162,9,2020/12/30 00:00:00+00,0,648,70,528,44378,272835
9162,9,2020/12/31 00:00:00+00,0,346,51,285,44724,272836
9162,9,2021/01/01 00:00:00+00,0,1,55,0,44725,272837
9162,9,2021/01/02 00:00:00+00,0,337,71,276,45062,272838
9162,9,2021/01/03 00:00:00+00,0,217,86,161,45279,272839
9162,9,2021/01/04 00:00:00+00,0,286,73,215,45565,272840
9162,9,2021/01/05 00:00:00+00,0,463,63,367,46028,272841
9162,9,2021/01/06 00:00:00+00,0,344,51,277,46372,272842
9162,9,2021/01/07 00:00:00+00,0,380,35,316,46752,272843
9162,9,2021/01/08 00:00:00+00,0,515,53,444,47267,272844
9162,9,2021/01/09 00:00:00+00,0,369,33,332,47636,272845
9162,9,2021/01/10 00:00:00+00,0,140,36,130,47776,272846
9162,9,2021/01/11 00:00:00+00,0,204,49,184,47980,272847
9162,9,2021/01/12 00:00:00+00,0,392,54,368,48372,272848
9162,9,2021/01/13 00:00:00+00,0,366,50,333,48738,272849
9162,9,2021/01/14 00:00:00+00,0,274,65,234,49012,272850
9162,9,2020/08/18 00:00:00+00,0,61,33,33,7903,272851
9162,9,2020/06/29 00:00:00+00,0,21,10,12,6795,272852
9162,9,2020/08/19 00:00:00+00,0,88,24,53,7991,272853
9162,9,2020/06/30 00:00:00+00,0,40,6,21,6835,272854
9162,9,2020/08/20 00:00:00+00,0,86,16,56,8077,272855
9162,9,2020/07/01 00:00:00+00,0,10,5,4,6845,272856
9162,9,2020/08/21 00:00:00+00,0,71,35,45,8148,272857
9162,9,2020/10/07 00:00:00+00,0,129,52,74,12174,272858
9162,9,2020/07/02 00:00:00+00,0,23,8,10,6868,272859
9162,9,2020/08/22 00:00:00+00,0,31,22,21,8179,272860
9162,9,2020/03/21 00:00:00+00,0,176,83,65,1220,272861
9162,9,2020/10/08 00:00:00+00,0,139,62,73,12313,272862
9162,9,2020/07/03 00:00:00+00,0,20,8,10,6888,272863
9162,9,2020/05/10 00:00:00+00,0,22,10,9,6069,272864
9162,9,2020/08/23 00:00:00+00,0,41,31,25,8220,272866
9162,9,2020/03/22 00:00:00+00,0,88,85,37,1308,272867
9162,9,2020/10/09 00:00:00+00,0,159,60,102,12472,272869
9162,9,2020/07/04 00:00:00+00,0,14,3,11,6902,272870
9162,9,2020/05/11 00:00:00+00,0,61,9,40,6130,272871
9162,9,2020/08/24 00:00:00+00,0,87,34,52,8307,272872
9162,9,2020/03/23 00:00:00+00,0,93,117,44,1401,272874
9162,9,2020/10/10 00:00:00+00,0,93,49,44,12565,272875
9162,9,2020/07/05 00:00:00+00,0,4,6,4,6906,272877
9162,9,2020/05/12 00:00:00+00,0,27,9,12,6157,272878
9162,9,2020/08/25 00:00:00+00,0,85,38,54,8392,272879
9162,9,2020/03/24 00:00:00+00,0,170,61,80,1571,272881
9162,9,2020/10/11 00:00:00+00,0,54,66,39,12619,272882
9162,9,2020/07/06 00:00:00+00,0,23,5,12,6929,272884
9162,9,2020/05/13 00:00:00+00,0,35,4,14,6192,272885
9162,9,2020/08/26 00:00:00+00,0,105,36,69,8497,272886
9162,9,2020/03/25 00:00:00+00,0,239,111,103,1810,272888
9162,9,2020/10/12 00:00:00+00,0,112,78,68,12731,272889
9162,9,2020/07/07 00:00:00+00,0,35,8,27,6964,272891
9162,9,2020/05/14 00:00:00+00,0,23,5,13,6215,272892
9162,9,2020/08/27 00:00:00+00,0,108,19,55,8605,272893
9162,9,2020/03/26 00:00:00+00,0,258,66,102,2068,272895
9162,9,2020/10/13 00:00:00+00,0,156,86,92,12887,272896
9162,9,2020/07/08 00:00:00+00,0,21,7,9,6985,272898
9162,9,2020/05/15 00:00:00+00,0,18,7,12,6233,272899
9162,9,2020/08/28 00:00:00+00,0,65,26,44,8670,272900
9162,9,2020/03/27 00:00:00+00,0,258,110,109,2326,272902
9162,9,2020/10/14 00:00:00+00,0,173,98,92,13060,272903
9162,9,2020/07/09 00:00:00+00,0,11,4,7,6996,272905
9162,9,2020/05/16 00:00:00+00,0,9,3,3,6242,272906
9162,9,2020/08/29 00:00:00+00,0,53,15,29,8723,272907
9162,9,2020/03/28 00:00:00+00,0,139,79,58,2465,272909
9162,9,2020/10/15 00:00:00+00,0,192,75,97,13252,272910
9162,9,2020/07/10 00:00:00+00,0,18,7,4,7014,272912
9162,9,2020/05/17 00:00:00+00,0,11,4,5,6253,272913
9162,9,2020/08/30 00:00:00+00,0,26,17,17,8749,272914
9162,9,2020/03/29 00:00:00+00,0,178,65,74,2643,272916
9162,9,2020/10/16 00:00:00+00,0,198,82,108,13450,272917
9162,9,2020/07/11 00:00:00+00,0,2,7,2,7016,272919
9162,9,2020/05/18 00:00:00+00,0,7,12,4,6260,272920
9162,9,2020/08/31 00:00:00+00,0,71,29,35,8820,272921
9162,9,2020/03/30 00:00:00+00,0,118,69,46,2761,272923
9162,9,2020/10/17 00:00:00+00,0,177,85,94,13627,272924
9162,9,2020/07/12 00:00:00+00,0,7,5,3,7023,272926
9162,9,2020/05/19 00:00:00+00,0,12,6,10,6272,272927
9162,9,2020/09/01 00:00:00+00,0,83,45,59,8903,272928
9162,9,2020/03/31 00:00:00+00,0,310,68,119,3071,272930
9162,9,2020/10/18 00:00:00+00,0,94,66,55,13721,272931
9162,9,2020/07/13 00:00:00+00,0,15,15,6,7038,272933
9162,9,2020/05/20 00:00:00+00,0,20,7,9,6292,272934
9162,9,2020/09/02 00:00:00+00,0,69,31,47,8972,272935
9162,9,2020/04/01 00:00:00+00,0,231,90,87,3302,272937
9162,9,2020/10/19 00:00:00+00,0,134,86,67,13855,272938
9162,9,2020/07/14 00:00:00+00,0,11,6,6,7049,272940
9162,9,2020/05/21 00:00:00+00,0,19,5,8,6311,272941
9162,9,2020/09/03 00:00:00+00,0,88,36,51,9060,272942
9162,9,2020/04/02 00:00:00+00,0,143,49,53,3445,272944
9162,9,2020/10/20 00:00:00+00,0,194,78,107,14049,272945
9162,9,2020/07/15 00:00:00+00,0,20,12,15,7069,272947
9162,9,2020/05/22 00:00:00+00,0,21,7,17,6332,272948
9162,9,2020/09/04 00:00:00+00,0,116,35,81,9176,272949
9162,9,2020/04/03 00:00:00+00,0,177,57,85,3622,272951
9162,9,2020/10/21 00:00:00+00,0,318,75,206,14367,272952
9162,9,2020/10/22 00:00:00+00,0,319,75,233,14686,272953
9162,9,2020/10/23 00:00:00+00,0,240,79,181,14926,272954
9162,9,2020/10/24 00:00:00+00,0,215,75,182,15141,272955
9162,9,2020/10/25 00:00:00+00,0,289,76,236,15430,272956
9162,9,2020/10/26 00:00:00+00,0,227,95,186,15657,272957
9162,9,2020/10/27 00:00:00+00,0,328,66,273,15985,272958
9162,9,2020/10/28 00:00:00+00,0,359,90,281,16344,272959
9162,9,2020/10/29 00:00:00+00,0,457,67,338,16801,272960
9162,9,2020/10/30 00:00:00+00,0,366,71,266,17167,272961
9162,9,2020/10/31 00:00:00+00,0,202,68,141,17369,272962
9162,9,2020/11/01 00:00:00+00,0,258,73,192,17627,272963
9162,9,2020/11/02 00:00:00+00,0,331,107,247,17958,272964
9162,9,2020/11/03 00:00:00+00,0,498,85,403,18456,272965
9162,9,2020/11/04 00:00:00+00,0,359,76,318,18815,272966
9162,9,2020/11/05 00:00:00+00,0,430,88,350,19245,272967
9162,9,2020/11/06 00:00:00+00,0,632,92,515,19877,272968
9162,9,2020/11/07 00:00:00+00,0,501,59,380,20378,272969
9162,9,2020/11/08 00:00:00+00,0,318,63,254,20696,272970
9162,9,2020/11/09 00:00:00+00,0,447,69,353,21143,272971
9162,9,2020/11/10 00:00:00+00,0,560,50,413,21703,272972
9162,9,2020/11/11 00:00:00+00,0,610,56,472,22313,272973
9162,9,2020/11/12 00:00:00+00,0,544,33,488,22857,272974
9162,9,2020/11/13 00:00:00+00,0,415,44,360,23272,272975
9162,9,2020/11/14 00:00:00+00,0,500,27,460,23772,272976
9162,9,2020/11/15 00:00:00+00,0,198,28,185,23970,272977
9162,9,2020/11/16 00:00:00+00,0,215,32,193,24185,272978
9162,9,2020/11/17 00:00:00+00,0,575,37,537,24760,272979
9162,9,2020/11/18 00:00:00+00,0,520,29,478,25280,272980
9162,9,2020/11/19 00:00:00+00,0,668,35,624,25948,272981
9162,9,2020/11/20 00:00:00+00,0,491,41,467,26439,272982
9162,9,2020/11/21 00:00:00+00,0,293,33,271,26732,272983
9162,9,2020/11/22 00:00:00+00,0,231,45,210,26963,272984
9162,9,2020/11/23 00:00:00+00,0,355,53,335,27318,272985
9162,9,2020/11/24 00:00:00+00,0,497,59,455,27815,272986
9162,9,2020/11/25 00:00:00+00,0,491,79,439,28306,272987
9162,9,2020/09/05 00:00:00+00,0,104,30,66,9280,272988
9162,9,2020/05/23 00:00:00+00,0,2,6,1,6334,272990
9162,9,2020/09/06 00:00:00+00,0,61,28,38,9341,272991
9162,9,2020/05/24 00:00:00+00,0,6,10,2,6340,272993
9162,9,2020/09/07 00:00:00+00,0,92,58,55,9433,272995
9162,9,2020/05/25 00:00:00+00,0,14,5,5,6354,272997
9162,9,2020/09/08 00:00:00+00,0,91,54,57,9524,272999
9162,9,2020/04/04 00:00:00+00,0,134,49,59,3756,273000
9162,9,2020/07/16 00:00:00+00,0,26,7,10,7095,273002
9162,9,2020/05/26 00:00:00+00,0,46,12,25,6400,273003
9162,9,2020/09/09 00:00:00+00,0,118,45,69,9642,273005
9162,9,2020/04/05 00:00:00+00,0,84,47,27,3840,273006
9162,9,2020/07/17 00:00:00+00,0,26,10,20,7121,273008
9162,9,2020/05/27 00:00:00+00,0,34,5,20,6434,273009
9162,9,2020/09/10 00:00:00+00,0,100,50,50,9742,273011
9162,9,2020/04/06 00:00:00+00,0,118,51,40,3958,273012
9162,9,2020/07/18 00:00:00+00,0,6,7,4,7127,273014
9162,9,2020/05/28 00:00:00+00,0,6,6,2,6440,273015
9162,9,2020/09/11 00:00:00+00,0,74,55,32,9816,273017
9162,9,2020/04/07 00:00:00+00,0,141,48,40,4099,273018
9162,9,2020/07/19 00:00:00+00,0,17,7,8,7144,273020
9162,9,2020/05/29 00:00:00+00,0,14,4,9,6454,273021
9162,9,2020/09/12 00:00:00+00,0,61,32,22,9877,273023
9162,9,2020/04/08 00:00:00+00,0,154,50,65,4253,273024
9162,9,2020/07/20 00:00:00+00,0,10,7,4,7154,273026
9162,9,2020/05/30 00:00:00+00,0,33,3,28,6487,273027
9162,9,2020/09/13 00:00:00+00,0,49,43,23,9926,273029
9162,9,2020/04/09 00:00:00+00,0,112,48,48,4365,273030
9162,9,2020/07/21 00:00:00+00,0,16,5,5,7170,273032
9162,9,2020/05/31 00:00:00+00,0,5,5,3,6492,273033
9162,9,2020/09/14 00:00:00+00,0,100,76,49,10026,273035
9162,9,2020/04/10 00:00:00+00,0,98,27,22,4463,273036
9162,9,2020/07/22 00:00:00+00,0,15,11,6,7185,273038
9162,9,2020/06/01 00:00:00+00,0,0,3,0,6492,273039
9162,9,2020/09/15 00:00:00+00,0,168,54,96,10194,273041
9162,9,2020/04/11 00:00:00+00,0,104,38,41,4567,273042
9162,9,2020/07/23 00:00:00+00,0,16,4,8,7201,273044
9162,9,2020/06/02 00:00:00+00,0,5,7,1,6497,273045
9162,9,2020/09/16 00:00:00+00,0,150,51,84,10344,273047
9162,9,2020/04/12 00:00:00+00,0,72,35,16,4639,273048
9162,9,2020/07/24 00:00:00+00,0,17,5,8,7218,273050
9162,9,2020/06/03 00:00:00+00,0,12,4,7,6509,273051
9162,9,2020/09/17 00:00:00+00,0,140,52,64,10484,273053
9162,9,2020/04/13 00:00:00+00,0,61,37,27,4700,273054
9162,9,2020/07/25 00:00:00+00,0,14,9,5,7232,273056
9162,9,2020/06/04 00:00:00+00,0,8,8,3,6517,273057
9162,9,2020/09/18 00:00:00+00,0,129,31,61,10613,273059
9162,9,2020/04/14 00:00:00+00,0,86,34,32,4786,273060
9162,9,2020/07/26 00:00:00+00,0,2,7,1,7234,273062
9162,9,2020/06/05 00:00:00+00,0,14,8,6,6531,273063
9162,9,2020/09/19 00:00:00+00,0,77,20,48,10690,273065
9162,9,2020/04/15 00:00:00+00,0,109,32,42,4895,273066
9162,9,2020/07/27 00:00:00+00,0,13,12,8,7247,273068
9162,9,2020/06/06 00:00:00+00,0,5,5,3,6536,273069
9162,9,2020/09/20 00:00:00+00,0,60,29,23,10750,273071
9162,9,2020/04/16 00:00:00+00,0,95,29,34,4990,273072
9162,9,2020/07/28 00:00:00+00,0,15,7,9,7262,273074
9162,9,2020/06/07 00:00:00+00,0,9,6,5,6545,273075
9162,9,2020/09/21 00:00:00+00,0,97,38,65,10847,273077
9162,9,2020/09/22 00:00:00+00,0,93,30,67,10940,273078
9162,9,2020/09/23 00:00:00+00,0,107,31,63,11047,273079
9162,9,2020/09/24 00:00:00+00,0,90,39,46,11137,273080
9162,9,2020/09/25 00:00:00+00,0,68,29,39,11205,273081
9162,9,2020/09/26 00:00:00+00,0,74,29,49,11279,273082
9162,9,2020/09/27 00:00:00+00,0,43,30,27,11322,273083
9162,9,2020/09/28 00:00:00+00,0,106,47,67,11428,273084
9162,9,2020/09/29 00:00:00+00,0,85,34,49,11513,273085
9162,9,2020/09/30 00:00:00+00,0,81,48,45,11594,273086
9162,9,2020/10/01 00:00:00+00,0,83,33,34,11677,273087
9162,9,2020/10/02 00:00:00+00,0,64,49,36,11741,273088
9162,9,2020/10/03 00:00:00+00,0,99,36,49,11840,273089
9162,9,2020/10/04 00:00:00+00,0,23,34,5,11863,273090
9162,9,2020/10/05 00:00:00+00,0,63,48,41,11926,273091
9162,9,2020/10/06 00:00:00+00,0,119,50,66,12045,273092
9162,9,2020/07/29 00:00:00+00,0,17,8,8,7279,273093
9162,9,2020/07/30 00:00:00+00,0,19,7,9,7298,273094
9162,9,2020/07/31 00:00:00+00,0,17,7,8,7315,273095
9162,9,2020/08/01 00:00:00+00,0,11,6,5,7326,273096
9162,9,2020/08/02 00:00:00+00,0,9,6,6,7335,273097
9162,9,2020/08/03 00:00:00+00,0,26,19,12,7361,273098
9162,9,2020/08/04 00:00:00+00,0,18,7,11,7379,273099
9162,9,2020/08/05 00:00:00+00,0,12,14,6,7391,273100
9162,9,2020/08/06 00:00:00+00,0,35,11,18,7426,273101
9162,9,2020/08/07 00:00:00+00,0,19,10,16,7445,273102
9162,9,2020/08/08 00:00:00+00,0,8,19,5,7453,273103
9162,9,2020/08/09 00:00:00+00,0,2,21,1,7455,273104
9162,9,2020/08/10 00:00:00+00,0,29,31,13,7484,273105
9162,9,2020/08/11 00:00:00+00,0,43,28,26,7527,273106
9162,9,2020/08/12 00:00:00+00,0,44,24,28,7571,273107
9162,9,2020/08/13 00:00:00+00,0,55,28,33,7626,273108
9162,9,2020/08/14 00:00:00+00,0,55,22,27,7681,273109
9162,9,2020/08/15 00:00:00+00,0,27,19,14,7708,273110
9162,9,2020/08/16 00:00:00+00,0,48,25,37,7756,273111
9162,9,2020/08/17 00:00:00+00,0,86,35,50,7842,273112
9162,9,2020/04/17 00:00:00+00,0,93,26,37,5083,273113
9162,9,2020/04/18 00:00:00+00,0,46,22,14,5129,273114
9162,9,2020/04/19 00:00:00+00,0,49,22,22,5178,273115
9162,9,2020/04/20 00:00:00+00,0,32,30,18,5210,273116
9162,9,2020/04/21 00:00:00+00,0,55,21,18,5265,273117
9162,9,2020/04/22 00:00:00+00,0,57,20,25,5322,273118
9162,9,2020/04/23 00:00:00+00,0,78,27,25,5400,273119
9162,9,2020/04/24 00:00:00+00,0,56,28,23,5456,273120
9162,9,2020/04/25 00:00:00+00,0,47,23,31,5503,273121
9162,9,2020/04/26 00:00:00+00,0,33,12,16,5536,273122
9162,9,2020/04/27 00:00:00+00,0,79,29,47,5615,273123
9162,9,2020/04/28 00:00:00+00,0,50,19,16,5665,273124
9162,9,2020/04/29 00:00:00+00,0,41,17,23,5706,273125
9162,9,2020/04/30 00:00:00+00,0,44,24,17,5750,273126
9162,9,2020/05/01 00:00:00+00,0,59,26,32,5809,273127
9162,9,2020/05/02 00:00:00+00,0,33,12,18,5842,273128
9162,9,2020/05/03 00:00:00+00,0,25,20,5,5867,273129
9162,9,2020/05/04 00:00:00+00,0,34,14,15,5901,273130
9162,9,2020/05/05 00:00:00+00,0,30,21,10,5931,273131
9162,9,2020/05/06 00:00:00+00,0,19,11,9,5950,273132
9162,9,2020/05/07 00:00:00+00,0,30,20,11,5980,273133
9162,9,2020/05/08 00:00:00+00,0,43,10,21,6023,273134
9162,9,2020/05/09 00:00:00+00,0,24,10,15,6047,273135
9162,9,2020/06/08 00:00:00+00,0,13,10,4,6558,273146
9162,9,2020/06/09 00:00:00+00,0,8,2,3,6566,273149
9162,9,2020/03/01 00:00:00+00,0,0,9,0,5,273150
9162,9,2020/06/10 00:00:00+00,0,9,5,3,6575,273152
9162,9,2020/03/02 00:00:00+00,0,3,10,0,8,273153
9162,9,2020/06/11 00:00:00+00,0,2,4,0,6577,273155
9162,9,2020/03/03 00:00:00+00,0,1,14,0,9,273156
9162,9,2020/06/12 00:00:00+00,0,12,5,6,6589,273158
9162,9,2020/03/04 00:00:00+00,0,3,8,1,12,273159
9162,9,2020/06/13 00:00:00+00,0,5,4,0,6594,273161
9162,9,2020/03/05 00:00:00+00,0,2,6,1,14,273162
9162,9,2020/06/14 00:00:00+00,0,11,0,9,6605,273164
9162,9,2020/03/06 00:00:00+00,0,13,19,8,27,273165
9162,9,2020/06/15 00:00:00+00,0,4,5,0,6609,273167
9162,9,2020/03/07 00:00:00+00,0,0,20,0,27,273168
9162,9,2020/06/16 00:00:00+00,0,9,4,3,6618,273170
9162,9,2020/03/08 00:00:00+00,0,0,26,0,27,273171
9162,9,2020/06/17 00:00:00+00,0,13,6,4,6631,273173
9162,9,2020/03/09 00:00:00+00,0,23,51,14,50,273174
9162,9,2020/06/18 00:00:00+00,0,4,3,2,6635,273176
9162,9,2020/03/10 00:00:00+00,0,31,63,21,81,273177
9162,9,2020/06/19 00:00:00+00,0,11,6,7,6646,273179
9162,9,2020/03/11 00:00:00+00,0,23,71,16,104,273180
9162,9,2020/06/20 00:00:00+00,0,22,8,20,6668,273182
9162,9,2020/03/12 00:00:00+00,0,18,89,11,122,273183
9162,9,2020/06/21 00:00:00+00,0,14,7,9,6682,273185
9162,9,2020/03/13 00:00:00+00,0,48,110,33,170,273186
9162,9,2020/06/22 00:00:00+00,0,4,9,1,6686,273187
9162,9,2020/03/14 00:00:00+00,0,64,110,44,234,273188
9162,9,2020/06/23 00:00:00+00,0,18,7,11,6704,273189
9162,9,2020/03/15 00:00:00+00,0,19,135,16,253,273190
9162,9,2020/06/24 00:00:00+00,0,13,12,2,6717,273191
9162,9,2020/03/16 00:00:00+00,0,67,155,35,320,273192
9162,9,2020/06/25 00:00:00+00,0,18,10,7,6735,273193
9162,9,2020/03/17 00:00:00+00,0,144,140,82,464,273194
9162,9,2020/06/26 00:00:00+00,0,17,16,8,6752,273195
9162,9,2020/03/18 00:00:00+00,0,212,153,110,676,273196
9162,9,2020/06/27 00:00:00+00,0,12,7,4,6764,273197
9162,9,2020/03/19 00:00:00+00,0,173,108,77,849,273198
9162,9,2020/06/28 00:00:00+00,0,10,14,8,6774,273199
9162,9,2020/03/20 00:00:00+00,0,195,127,86,1044,273200
9162,9,2021/06/14 00:00:00+00,0,39,20,10,73178,273201
9162,9,2021/06/15 00:00:00+00,0,47,15,12,73225,273202
9162,9,2021/06/16 00:00:00+00,0,27,17,8,73252,273203
9162,9,2021/06/17 00:00:00+00,0,29,15,16,73281,273204
9162,9,2021/06/18 00:00:00+00,0,21,17,9,73302,273205
9162,9,2021/06/19 00:00:00+00,0,15,14,3,73317,273206
9162,9,2021/06/20 00:00:00+00,0,7,15,2,73324,273207
9162,9,2021/06/21 00:00:00+00,0,11,25,3,73335,273208
9162,9,2021/06/22 00:00:00+00,0,43,15,7,73378,273209
9162,9,2021/06/23 00:00:00+00,0,23,21,5,73401,273210
9162,9,2021/06/24 00:00:00+00,0,22,17,6,73423,273211
9162,9,2021/06/25 00:00:00+00,0,21,11,5,73444,273212
9162,9,2021/06/26 00:00:00+00,0,16,12,4,73460,273213
9162,9,2021/06/27 00:00:00+00,0,18,12,4,73478,273214
9162,9,2021/06/28 00:00:00+00,0,32,34,11,73510,273215
9162,9,2021/06/29 00:00:00+00,0,33,25,8,73543,273216
9162,9,2021/06/30 00:00:00+00,0,38,39,7,73581,273217
9162,9,2021/07/01 00:00:00+00,0,22,14,6,73603,273218
9162,9,2021/07/02 00:00:00+00,0,33,25,6,73636,273219
9162,9,2021/07/03 00:00:00+00,0,18,20,7,73654,273220
9162,9,2021/07/04 00:00:00+00,0,11,17,3,73665,273221
9162,9,2021/07/05 00:00:00+00,0,22,27,1,73687,273222
9162,9,2021/07/06 00:00:00+00,0,34,43,7,73721,273223
9162,9,2021/07/07 00:00:00+00,0,22,21,3,73743,273224
9162,9,2021/07/08 00:00:00+00,0,45,32,11,73788,273225
9162,9,2021/07/09 00:00:00+00,0,37,24,4,73825,273226
9162,9,2021/07/10 00:00:00+00,0,20,20,6,73845,273227
9162,9,2021/07/11 00:00:00+00,0,14,38,1,73859,273228
9162,9,2021/07/12 00:00:00+00,0,36,41,11,73895,273229
9162,9,2021/07/13 00:00:00+00,0,52,33,12,73947,273230
9162,9,2021/07/14 00:00:00+00,0,49,43,8,73996,273231
9162,9,2021/07/15 00:00:00+00,0,53,28,9,74049,273232
9162,9,2021/07/16 00:00:00+00,0,48,42,7,74097,273233
9162,9,2021/07/17 00:00:00+00,0,20,30,7,74117,273234
9162,9,2021/07/18 00:00:00+00,0,19,34,4,74136,273235
9162,9,2021/07/19 00:00:00+00,0,57,62,11,74193,273236
9162,9,2021/07/20 00:00:00+00,0,56,68,10,74249,273237
9162,9,2021/07/21 00:00:00+00,0,68,49,7,74317,273238
9162,9,2021/07/22 00:00:00+00,0,69,41,11,74386,273239
9162,9,2021/07/23 00:00:00+00,0,62,45,8,74448,273240
9162,9,2021/07/24 00:00:00+00,0,39,41,8,74487,273241
9162,9,2021/07/25 00:00:00+00,0,18,39,3,74505,273242
9162,9,2021/07/26 00:00:00+00,0,67,64,10,74572,273243
9162,9,2021/07/27 00:00:00+00,0,88,49,15,74660,273244
9162,9,2021/07/28 00:00:00+00,0,59,39,18,74719,273245
9162,9,2021/07/29 00:00:00+00,0,71,39,19,74790,273246
9162,9,2021/07/30 00:00:00+00,0,63,42,16,74853,273247
9162,9,2021/07/31 00:00:00+00,0,59,48,12,74912,273248
9162,9,2021/08/01 00:00:00+00,0,25,38,5,74937,273249
9162,9,2021/08/02 00:00:00+00,0,56,61,13,74993,273250
9162,9,2021/04/25 00:00:00+00,0,190,132,69,66753,273251
9162,9,2021/04/26 00:00:00+00,0,302,191,136,67055,273252
9162,9,2021/04/27 00:00:00+00,0,430,184,185,67485,273253
9162,9,2021/04/28 00:00:00+00,0,400,129,192,67885,273254
9162,9,2021/04/29 00:00:00+00,0,301,92,138,68186,273255
9162,9,2021/04/30 00:00:00+00,0,274,145,130,68460,273256
9162,9,2021/05/01 00:00:00+00,0,185,137,101,68645,273257
9162,9,2021/05/02 00:00:00+00,0,180,111,71,68825,273258
9162,9,2021/05/03 00:00:00+00,0,175,148,60,69000,273259
9162,9,2021/05/04 00:00:00+00,0,298,133,98,69298,273260
9162,9,2021/05/05 00:00:00+00,0,354,139,134,69652,273261
9162,9,2021/05/06 00:00:00+00,0,261,103,116,69913,273262
9162,9,2021/05/07 00:00:00+00,0,181,99,70,70094,273263
9162,9,2021/05/08 00:00:00+00,0,126,93,47,70220,273264
9162,9,2021/05/09 00:00:00+00,0,70,76,27,70290,273265
9162,9,2021/05/10 00:00:00+00,0,131,108,48,70421,273266
9162,9,2021/05/11 00:00:00+00,0,251,91,88,70672,273267
9162,9,2021/05/12 00:00:00+00,0,191,81,70,70863,273268
9162,9,2021/05/13 00:00:00+00,0,109,72,39,70972,273269
9162,9,2021/05/14 00:00:00+00,0,131,79,43,71103,273270
9162,9,2021/05/15 00:00:00+00,0,58,67,20,71161,273271
9162,9,2021/05/16 00:00:00+00,0,100,81,36,71261,273272
9162,9,2021/05/17 00:00:00+00,0,119,76,52,71380,273273
9162,9,2021/05/18 00:00:00+00,0,163,65,59,71543,273274
9162,9,2021/05/19 00:00:00+00,0,143,66,51,71686,273275
9162,9,2021/05/20 00:00:00+00,0,155,42,55,71841,273276
9162,9,2021/05/21 00:00:00+00,0,83,38,35,71924,273277
9162,9,2021/05/22 00:00:00+00,0,60,49,23,71984,273278
9162,9,2021/05/23 00:00:00+00,0,37,48,13,72021,273279
9162,9,2021/05/24 00:00:00+00,0,54,56,32,72075,273280
9162,9,2021/05/25 00:00:00+00,0,91,45,40,72166,273281
9162,9,2021/05/26 00:00:00+00,0,103,49,28,72269,273282
9162,9,2021/01/15 00:00:00+00,0,267,68,223,49279,273283
9162,9,2021/05/27 00:00:00+00,0,63,46,26,72332,273284
9162,9,2021/05/28 00:00:00+00,0,94,40,32,72426,273285
9162,9,2021/05/29 00:00:00+00,0,39,27,18,72465,273286
9162,9,2021/01/16 00:00:00+00,0,217,58,165,49496,273287
9162,9,2021/05/30 00:00:00+00,0,45,22,21,72510,273288
9162,9,2021/01/17 00:00:00+00,0,86,65,75,49582,273289
9162,9,2021/03/06 00:00:00+00,0,115,48,79,54689,273290
9162,9,2021/08/03 00:00:00+00,0,62,50,9,75055,273291
9162,9,2021/05/31 00:00:00+00,0,45,29,15,72555,273292
9162,9,2021/01/18 00:00:00+00,0,135,78,106,49717,273293
9162,9,2021/03/07 00:00:00+00,0,61,32,37,54750,273294
9162,9,2021/11/11 00:00:00+00,0,1079,479,547,102720,273295
9162,9,2021/08/04 00:00:00+00,0,67,59,13,75122,273296
9162,9,2021/06/01 00:00:00+00,0,93,26,45,72648,273297
9162,9,2021/01/19 00:00:00+00,0,238,80,181,49955,273298
9162,9,2021/03/08 00:00:00+00,0,123,60,75,54873,273299
9162,9,2021/08/05 00:00:00+00,0,46,44,9,75168,273300
9162,9,2021/09/22 00:00:00+00,0,289,129,117,84660,273301
9162,9,2021/11/12 00:00:00+00,0,1313,494,724,104033,273302
9162,9,2021/06/02 00:00:00+00,0,63,35,30,72711,273303
9162,9,2021/01/20 00:00:00+00,0,252,48,185,50207,273304
9162,9,2021/03/09 00:00:00+00,0,165,54,117,55038,273305
9162,9,2021/08/06 00:00:00+00,0,104,46,22,75272,273306
9162,9,2021/09/23 00:00:00+00,0,275,134,116,84935,273307
9162,9,2021/11/13 00:00:00+00,0,1120,473,661,105153,273308
9162,9,2021/06/03 00:00:00+00,0,31,24,17,72742,273309
9162,9,2021/01/21 00:00:00+00,0,176,58,127,50383,273310
9162,9,2021/03/10 00:00:00+00,0,218,47,151,55256,273311
9162,9,2021/08/07 00:00:00+00,0,46,47,9,75318,273312
9162,9,2021/09/24 00:00:00+00,0,218,156,107,85153,273313
9162,9,2021/11/14 00:00:00+00,0,1235,491,687,106388,273314
9162,9,2021/06/04 00:00:00+00,0,39,32,13,72781,273315
9162,9,2021/01/22 00:00:00+00,0,178,50,138,50561,273316
9162,9,2021/03/11 00:00:00+00,0,170,59,122,55426,273317
9162,9,2021/08/08 00:00:00+00,0,19,58,5,75337,273318
9162,9,2021/09/25 00:00:00+00,0,164,119,68,85317,273319
9162,9,2021/11/15 00:00:00+00,0,1200,661,701,107588,273320
9162,9,2021/06/05 00:00:00+00,0,56,22,16,72837,273321
9162,9,2021/01/23 00:00:00+00,0,131,45,89,50692,273322
9162,9,2021/03/12 00:00:00+00,0,165,54,110,55591,273323
9162,9,2021/08/09 00:00:00+00,0,67,80,15,75404,273324
9162,9,2021/09/26 00:00:00+00,0,139,123,52,85456,273325
9162,9,2021/11/16 00:00:00+00,0,2189,581,1134,109777,273326
9162,9,2021/06/06 00:00:00+00,0,20,35,5,72857,273327
9162,9,2021/01/24 00:00:00+00,0,60,60,48,50752,273328
9162,9,2021/03/13 00:00:00+00,0,104,58,72,55695,273329
9162,9,2021/03/14 00:00:00+00,0,88,48,65,55783,273330
9162,9,2021/03/15 00:00:00+00,0,144,64,106,55927,273331
9162,9,2021/03/16 00:00:00+00,0,201,80,141,56128,273332
9162,9,2021/03/17 00:00:00+00,0,235,56,144,56363,273333
9162,9,2021/03/18 00:00:00+00,0,208,60,137,56571,273334
9162,9,2021/03/19 00:00:00+00,0,223,51,154,56794,273335
9162,9,2021/03/20 00:00:00+00,0,147,54,102,56941,273336
9162,9,2021/03/21 00:00:00+00,0,134,58,101,57075,273337
9162,9,2021/03/22 00:00:00+00,0,101,79,76,57176,273338
9162,9,2021/03/23 00:00:00+00,0,239,59,160,57415,273339
9162,9,2021/03/24 00:00:00+00,0,278,72,198,57693,273340
9162,9,2021/03/25 00:00:00+00,0,265,93,193,57958,273341
9162,9,2021/03/26 00:00:00+00,0,296,76,206,58254,273342
9162,9,2021/03/27 00:00:00+00,0,182,89,127,58436,273343
9162,9,2021/03/28 00:00:00+00,0,110,64,81,58546,273344
9162,9,2021/03/29 00:00:00+00,0,167,104,100,58713,273345
9162,9,2021/03/30 00:00:00+00,0,289,108,193,59002,273346
9162,9,2021/03/31 00:00:00+00,0,313,88,208,59315,273347
9162,9,2021/04/01 00:00:00+00,0,253,113,125,59568,273348
9162,9,2021/04/02 00:00:00+00,0,181,90,95,59749,273349
9162,9,2021/04/03 00:00:00+00,0,123,106,65,59872,273350
9162,9,2021/04/04 00:00:00+00,0,118,116,57,59990,273351
9162,9,2021/04/05 00:00:00+00,0,88,135,48,60078,273352
9162,9,2021/04/06 00:00:00+00,0,265,143,148,60343,273353
9162,9,2021/04/07 00:00:00+00,0,426,131,239,60769,273354
9162,9,2021/04/08 00:00:00+00,0,348,119,197,61117,273355
9162,9,2021/04/09 00:00:00+00,0,304,132,178,61421,273356
9162,9,2021/04/10 00:00:00+00,0,282,157,162,61703,273357
9162,9,2021/04/11 00:00:00+00,0,245,114,142,61948,273358
9162,9,2021/04/12 00:00:00+00,0,292,156,172,62240,273359
9162,9,2021/04/13 00:00:00+00,0,471,121,295,62711,273360
9162,9,2021/04/14 00:00:00+00,0,523,140,349,63234,273361
9162,9,2021/04/15 00:00:00+00,0,401,133,233,63635,273362
9162,9,2021/04/16 00:00:00+00,0,389,150,240,64024,273363
9162,9,2021/04/17 00:00:00+00,0,269,181,169,64293,273364
9162,9,2021/04/18 00:00:00+00,0,184,131,106,64477,273365
9162,9,2021/04/19 00:00:00+00,0,247,183,128,64724,273366
9162,9,2021/04/20 00:00:00+00,0,538,171,293,65262,273367
9162,9,2021/04/21 00:00:00+00,0,421,189,204,65683,273368
9162,9,2021/04/22 00:00:00+00,0,369,162,181,66052,273369
9162,9,2021/04/23 00:00:00+00,0,346,150,174,66398,273370
9162,9,2021/04/24 00:00:00+00,0,165,154,79,66563,273371
9162,9,2021/06/07 00:00:00+00,0,51,33,17,72908,273372
9162,9,2021/06/08 00:00:00+00,0,69,22,28,72977,273373
9162,9,2021/06/09 00:00:00+00,0,43,27,13,73020,273374
9162,9,2021/06/10 00:00:00+00,0,56,26,20,73076,273375
9162,9,2021/06/11 00:00:00+00,0,21,20,10,73097,273376
9162,9,2021/06/12 00:00:00+00,0,26,25,9,73123,273377
9162,9,2021/06/13 00:00:00+00,0,16,14,7,73139,273378
9162,9,2021/11/17 00:00:00+00,0,3308,482,1736,113085,273379
9162,9,2021/01/25 00:00:00+00,0,92,80,61,50844,273380
9162,9,2021/08/10 00:00:00+00,0,116,60,19,75520,273381
9162,9,2021/11/18 00:00:00+00,0,1477,477,832,114562,273382
9162,9,2021/09/27 00:00:00+00,0,274,180,99,85730,273383
9162,9,2021/01/26 00:00:00+00,0,197,51,141,51041,273384
9162,9,2021/08/11 00:00:00+00,0,78,70,12,75598,273385
9162,9,2021/11/19 00:00:00+00,0,1225,544,689,115787,273386
9162,9,2021/09/28 00:00:00+00,0,379,169,169,86109,273387
9162,9,2021/01/27 00:00:00+00,0,173,62,122,51214,273388
9162,9,2021/08/12 00:00:00+00,0,72,74,15,75670,273389
9162,9,2021/11/20 00:00:00+00,0,680,508,367,116467,273390
9162,9,2021/09/29 00:00:00+00,0,271,152,121,86380,273391
9162,9,2021/01/28 00:00:00+00,0,133,70,93,51347,273392
9162,9,2021/08/13 00:00:00+00,0,59,79,8,75729,273393
9162,9,2021/11/21 00:00:00+00,0,973,438,538,117440,273394
9162,9,2021/09/30 00:00:00+00,0,244,131,101,86624,273395
9162,9,2021/01/29 00:00:00+00,0,140,59,93,51487,273396
9162,9,2021/08/14 00:00:00+00,0,77,73,17,75806,273397
9162,9,2021/11/22 00:00:00+00,0,689,478,394,118129,273398
9162,9,2021/10/01 00:00:00+00,0,281,147,118,86905,273399
9162,9,2021/01/30 00:00:00+00,0,113,42,79,51600,273400
9162,9,2021/08/15 00:00:00+00,0,46,80,8,75852,273401
9162,9,2021/11/23 00:00:00+00,0,1446,488,819,119575,273402
9162,9,2021/10/02 00:00:00+00,0,171,129,71,87076,273403
9162,9,2021/01/31 00:00:00+00,0,47,44,24,51647,273404
9162,9,2021/08/16 00:00:00+00,0,116,122,23,75968,273405
9162,9,2021/11/24 00:00:00+00,0,1573,442,932,121148,273406
9162,9,2021/10/03 00:00:00+00,0,132,112,56,87208,273407
9162,9,2021/02/01 00:00:00+00,0,78,32,39,51725,273408
9162,9,2021/08/17 00:00:00+00,0,149,86,35,76117,273409
9162,9,2021/11/25 00:00:00+00,0,1352,399,744,122500,273410
9162,9,2021/10/04 00:00:00+00,0,236,168,94,87444,273411
9162,9,2021/02/02 00:00:00+00,0,100,37,70,51825,273412
9162,9,2021/08/18 00:00:00+00,0,142,101,36,76259,273413
9162,9,2021/11/26 00:00:00+00,0,781,403,429,123281,273414
9162,9,2021/10/05 00:00:00+00,0,320,168,139,87764,273415
9162,9,2021/02/03 00:00:00+00,0,110,40,71,51935,273416
9162,9,2021/08/19 00:00:00+00,0,122,84,39,76381,273417
9162,9,2021/11/27 00:00:00+00,0,829,391,467,124110,273418
9162,9,2021/10/06 00:00:00+00,0,295,132,122,88059,273419
9162,9,2021/02/04 00:00:00+00,0,132,34,92,52067,273420
9162,9,2021/08/20 00:00:00+00,0,178,83,67,76559,273421
9162,9,2021/11/28 00:00:00+00,0,782,305,454,124892,273422
9162,9,2021/10/07 00:00:00+00,0,291,117,123,88350,273423
9162,9,2021/02/05 00:00:00+00,0,141,35,91,52208,273424
9162,9,2021/08/21 00:00:00+00,0,128,109,51,76687,273425
9162,9,2021/11/29 00:00:00+00,0,571,405,306,125463,273426
9162,9,2021/10/08 00:00:00+00,0,226,139,102,88576,273427
9162,9,2021/02/06 00:00:00+00,0,68,27,42,52276,273428
9162,9,2021/08/22 00:00:00+00,0,68,100,19,76755,273429
9162,9,2021/11/30 00:00:00+00,0,1108,417,654,126571,273430
9162,9,2021/10/09 00:00:00+00,0,190,148,85,88766,273431
9162,9,2021/02/07 00:00:00+00,0,30,18,20,52306,273432
9162,9,2021/08/23 00:00:00+00,0,182,133,61,76937,273433
9162,9,2021/12/01 00:00:00+00,0,1499,442,847,128070,273434
9162,9,2021/10/10 00:00:00+00,0,92,148,31,88858,273435
9162,9,2021/02/08 00:00:00+00,0,71,38,51,52377,273436
9162,9,2021/08/24 00:00:00+00,0,272,103,104,77209,273437
9162,9,2021/12/02 00:00:00+00,0,1108,323,608,129178,273438
9162,9,2021/10/11 00:00:00+00,0,164,195,65,89022,273439
9162,9,2021/02/09 00:00:00+00,0,146,37,92,52523,273440
9162,9,2021/08/25 00:00:00+00,0,249,135,137,77458,273441
9162,9,2021/12/03 00:00:00+00,0,924,330,497,130102,273442
9162,9,2021/10/12 00:00:00+00,0,358,207,115,89380,273443
9162,9,2021/02/10 00:00:00+00,0,100,25,59,52623,273444
9162,9,2021/08/26 00:00:00+00,0,270,109,133,77728,273445
9162,9,2021/12/04 00:00:00+00,0,549,300,335,130651,273446
9162,9,2021/10/13 00:00:00+00,0,333,176,122,89713,273447
9162,9,2021/02/11 00:00:00+00,0,94,28,71,52717,273448
9162,9,2021/08/27 00:00:00+00,0,169,107,99,77897,273449
9162,9,2021/12/05 00:00:00+00,0,597,262,315,131248,273450
9162,9,2021/10/14 00:00:00+00,0,328,196,131,90041,273451
9162,9,2021/02/12 00:00:00+00,0,74,27,45,52791,273452
9162,9,2021/08/28 00:00:00+00,0,201,123,100,78098,273453
9162,9,2021/08/29 00:00:00+00,0,120,104,67,78218,273454
9162,9,2021/08/30 00:00:00+00,0,279,137,134,78497,273455
9162,9,2021/08/31 00:00:00+00,0,338,129,178,78835,273456
9162,9,2021/09/01 00:00:00+00,0,306,123,188,79141,273457
9162,9,2021/09/02 00:00:00+00,0,335,145,168,79476,273458
9162,9,2021/09/03 00:00:00+00,0,253,144,137,79729,273459
9162,9,2021/09/04 00:00:00+00,0,206,138,113,79935,273460
9162,9,2021/09/05 00:00:00+00,0,120,123,65,80055,273461
9162,9,2021/09/06 00:00:00+00,0,223,169,87,80278,273462
9162,9,2021/09/07 00:00:00+00,0,340,160,121,80618,273463
9162,9,2021/09/08 00:00:00+00,0,337,171,142,80955,273464
9162,9,2021/09/09 00:00:00+00,0,279,153,106,81234,273465
9162,9,2021/09/10 00:00:00+00,0,254,167,115,81488,273466
9162,9,2021/09/11 00:00:00+00,0,222,160,83,81710,273467
9162,9,2021/09/12 00:00:00+00,0,142,126,47,81852,273468
9162,9,2021/09/13 00:00:00+00,0,227,168,73,82079,273469
9162,9,2021/09/14 00:00:00+00,0,444,136,157,82523,273470
9162,9,2021/09/15 00:00:00+00,0,373,121,183,82896,273471
9162,9,2021/09/16 00:00:00+00,0,301,149,158,83197,273472
9162,9,2021/09/17 00:00:00+00,0,293,122,128,83490,273473
9162,9,2021/09/18 00:00:00+00,0,183,98,94,83673,273474
9162,9,2021/09/19 00:00:00+00,0,105,110,51,83778,273475
9162,9,2021/09/20 00:00:00+00,0,278,157,131,84056,273476
9162,9,2021/09/21 00:00:00+00,0,315,136,158,84371,273477
9162,9,2021/12/31 00:00:00+00,0,421,319,213,144668,273478
9162,9,2022/01/01 00:00:00+00,0,8,471,5,144676,273479
9162,9,2022/01/02 00:00:00+00,0,617,591,292,145293,273480
9162,9,2022/01/03 00:00:00+00,0,805,839,410,146098,273481
9162,9,2022/01/04 00:00:00+00,0,1073,644,530,147171,273482
9162,9,2022/01/05 00:00:00+00,0,1344,649,718,148515,273483
9162,9,2022/01/06 00:00:00+00,0,1278,652,692,149793,273484
9162,9,2022/01/07 00:00:00+00,0,1465,681,773,151258,273485
9162,9,2022/01/08 00:00:00+00,0,1094,817,612,152352,273486
9162,9,2022/01/09 00:00:00+00,0,1032,869,564,153384,273487
9162,9,2022/01/10 00:00:00+00,0,1748,1142,1022,155132,273488
9162,9,2022/01/11 00:00:00+00,0,2316,1061,1257,157448,273489
9162,9,2022/01/12 00:00:00+00,0,2373,964,1338,159821,273490
9162,9,2022/01/13 00:00:00+00,0,2220,1028,1202,162041,273491
9162,9,2022/01/14 00:00:00+00,0,2236,1106,1228,164277,273492
9162,9,2021/10/15 00:00:00+00,0,396,231,173,90437,273493
9162,9,2022/01/15 00:00:00+00,0,1809,1337,1048,166086,273494
9162,9,2021/12/06 00:00:00+00,0,339,331,189,131587,273495
9162,9,2021/10/16 00:00:00+00,0,246,177,113,90683,273496
9162,9,2021/02/13 00:00:00+00,0,44,33,26,52835,273497
9162,9,2022/01/16 00:00:00+00,0,1773,1546,1055,167859,273498
9162,9,2021/12/07 00:00:00+00,0,1217,266,671,132804,273499
9162,9,2021/10/17 00:00:00+00,0,132,179,53,90815,273500
9162,9,2021/02/14 00:00:00+00,0,19,21,11,52854,273501
9162,9,2022/01/17 00:00:00+00,0,2247,1816,1240,170106,273502
9162,9,2021/12/08 00:00:00+00,0,833,254,455,133637,273503
9162,9,2021/10/18 00:00:00+00,0,353,238,175,91168,273504
9162,9,2021/02/15 00:00:00+00,0,60,44,46,52914,273505
9162,9,2022/01/18 00:00:00+00,0,3326,1836,1823,173432,273506
9162,9,2021/12/09 00:00:00+00,0,641,199,391,134278,273507
9162,9,2021/10/19 00:00:00+00,0,596,223,289,91764,273508
9162,9,2021/02/16 00:00:00+00,0,33,20,24,52947,273509
9162,9,2022/01/19 00:00:00+00,0,3341,1790,1772,176773,273510
9162,9,2021/12/10 00:00:00+00,0,553,251,315,134831,273511
9162,9,2021/10/20 00:00:00+00,0,425,246,196,92189,273512
9162,9,2021/02/17 00:00:00+00,0,116,30,57,53063,273513
9162,9,2022/01/20 00:00:00+00,0,4228,1573,2312,181001,273514
9162,9,2021/12/11 00:00:00+00,0,387,185,200,135218,273515
9162,9,2021/10/21 00:00:00+00,0,522,202,258,92711,273516
9162,9,2021/02/18 00:00:00+00,0,107,31,65,53170,273517
9162,9,2022/01/21 00:00:00+00,0,4631,1790,2658,185632,273518
9162,9,2021/12/12 00:00:00+00,0,266,194,161,135484,273519
9162,9,2021/10/22 00:00:00+00,0,511,217,265,93222,273520
9162,9,2021/02/19 00:00:00+00,0,80,26,57,53250,273521
9162,9,2022/01/22 00:00:00+00,0,2411,1780,1311,188043,273522
9162,9,2021/12/13 00:00:00+00,0,395,239,217,135879,273523
9162,9,2021/10/23 00:00:00+00,0,357,213,171,93579,273524
9162,9,2021/02/20 00:00:00+00,0,64,23,34,53314,273525
9162,9,2022/01/23 00:00:00+00,0,3481,1884,2035,191524,273526
9162,9,2021/12/14 00:00:00+00,0,765,231,418,136644,273527
9162,9,2021/10/24 00:00:00+00,0,176,218,92,93755,273528
9162,9,2021/02/21 00:00:00+00,0,23,27,12,53337,273529
9162,9,2022/01/24 00:00:00+00,0,5189,2127,2902,196713,273530
9162,9,2021/12/15 00:00:00+00,0,636,211,372,137280,273531
9162,9,2021/10/25 00:00:00+00,0,456,278,230,94211,273532
9162,9,2021/02/22 00:00:00+00,0,60,35,43,53397,273533
9162,9,2022/01/25 00:00:00+00,0,4822,1959,2579,201535,273534
9162,9,2021/12/16 00:00:00+00,0,476,171,286,137756,273535
9162,9,2021/10/26 00:00:00+00,0,762,296,374,94973,273536
9162,9,2021/02/23 00:00:00+00,0,91,25,56,53488,273537
9162,9,2022/01/26 00:00:00+00,0,4478,1699,2436,206013,273538
9162,9,2021/12/17 00:00:00+00,0,628,175,366,138384,273539
9162,9,2021/10/27 00:00:00+00,0,551,285,264,95524,273540
9162,9,2021/02/24 00:00:00+00,0,119,18,83,53607,273541
9162,9,2022/01/27 00:00:00+00,0,3762,1524,2297,209775,273542
9162,9,2021/12/18 00:00:00+00,0,225,188,136,138609,273543
9162,9,2021/10/28 00:00:00+00,0,580,294,290,96104,273544
9162,9,2021/02/25 00:00:00+00,0,84,39,50,53691,273545
9162,9,2022/01/28 00:00:00+00,0,3812,1534,2315,213587,273546
9162,9,2021/12/19 00:00:00+00,0,353,175,206,138962,273547
9162,9,2021/10/29 00:00:00+00,0,659,280,304,96763,273548
9162,9,2021/02/26 00:00:00+00,0,126,42,87,53817,273549
9162,9,2022/01/29 00:00:00+00,0,2185,1525,1323,215772,273550
9162,9,2021/12/20 00:00:00+00,0,350,214,211,139312,273551
9162,9,2021/10/30 00:00:00+00,0,297,336,145,97060,273552
9162,9,2021/02/27 00:00:00+00,0,70,38,52,53887,273553
9162,9,2022/01/30 00:00:00+00,0,3788,1451,2239,219560,273554
9162,9,2021/12/21 00:00:00+00,0,641,189,358,139953,273555
9162,9,2021/10/31 00:00:00+00,0,249,274,117,97309,273556
9162,9,2021/02/28 00:00:00+00,0,45,33,35,53932,273557
9162,9,2022/01/31 00:00:00+00,0,5182,1718,3051,224742,273558
9162,9,2021/12/22 00:00:00+00,0,543,180,307,140496,273559
9162,9,2021/11/01 00:00:00+00,0,326,412,146,97635,273560
9162,9,2021/03/01 00:00:00+00,0,75,41,51,54007,273561
9162,9,2022/02/01 00:00:00+00,0,4854,1753,3076,229596,273562
9162,9,2021/12/23 00:00:00+00,0,414,234,238,140910,273563
9162,9,2021/11/02 00:00:00+00,0,673,461,312,98308,273564
9162,9,2021/03/02 00:00:00+00,0,160,45,113,54167,273565
9162,9,2022/02/02 00:00:00+00,0,5834,1434,3649,235430,273566
9162,9,2021/12/24 00:00:00+00,0,348,240,195,141258,273567
9162,9,2021/11/03 00:00:00+00,0,874,442,368,99182,273568
9162,9,2021/03/03 00:00:00+00,0,152,43,105,54319,273569
9162,9,2022/02/03 00:00:00+00,0,7445,1247,4934,242875,273570
9162,9,2021/12/25 00:00:00+00,0,12,242,6,141270,273571
9162,9,2021/11/04 00:00:00+00,0,423,381,222,99605,273572
9162,9,2021/03/04 00:00:00+00,0,111,48,79,54430,273573
9162,9,2022/02/04 00:00:00+00,0,6163,1130,4188,249038,273574
9162,9,2021/12/26 00:00:00+00,0,414,281,225,141684,273575
9162,9,2021/11/05 00:00:00+00,0,243,403,109,99848,273576
9162,9,2021/03/05 00:00:00+00,0,144,44,96,54574,273577
9162,9,2022/02/05 00:00:00+00,0,3459,1102,2382,252497,273578
9162,9,2021/12/27 00:00:00+00,0,644,391,319,142328,273579
9162,9,2021/12/28 00:00:00+00,0,613,352,302,142941,273580
9162,9,2021/12/29 00:00:00+00,0,624,332,332,143565,273581
9162,9,2021/12/30 00:00:00+00,0,682,335,312,144247,273582
9162,9,2022/02/06 00:00:00+00,0,4216,1048,2826,256713,273583
9162,9,2022/02/07 00:00:00+00,0,4260,1127,2909,260973,273584
9162,9,2022/02/08 00:00:00+00,0,5199,965,3566,266172,273585
9162,9,2022/02/09 00:00:00+00,0,5067,842,3621,271239,273586
9162,9,2022/02/10 00:00:00+00,0,4674,726,3504,275913,273587
9162,9,2022/02/11 00:00:00+00,0,3746,824,2845,279659,273588
9162,9,2022/02/12 00:00:00+00,0,1661,844,1230,281320,273589
9162,9,2022/02/13 00:00:00+00,0,2025,823,1449,283345,273590
9162,9,2022/02/14 00:00:00+00,0,2562,1065,1727,285907,273591
9162,9,2022/02/15 00:00:00+00,0,3684,966,2652,289591,273592
9162,9,2022/02/16 00:00:00+00,0,4643,873,3358,294234,273593
9162,9,2022/02/17 00:00:00+00,0,4010,771,2916,298244,273594
9162,9,2022/02/18 00:00:00+00,0,3314,816,2421,301558,273595
9162,9,2021/11/06 00:00:00+00,0,118,378,60,99966,273596
9162,9,2021/11/07 00:00:00+00,0,83,374,37,100049,273597
9162,9,2021/11/08 00:00:00+00,0,282,501,157,100331,273598
9162,9,2021/11/09 00:00:00+00,0,469,498,266,100800,273599
9162,9,2021/11/10 00:00:00+00,0,841,468,464,101641,273600
9162,9,2023/02/04 00:00:00+00,0,0,8,0,711906,273601
9162,9,2023/02/05 00:00:00+00,0,0,6,0,711906,273602
9162,9,2023/02/06 00:00:00+00,0,363,12,346,712269,273603
9162,9,2023/02/07 00:00:00+00,0,296,12,282,712565,273604
9162,9,2023/02/08 00:00:00+00,0,347,14,333,712912,273605
9162,9,2023/02/09 00:00:00+00,0,285,7,271,713197,273606
9162,9,2023/02/10 00:00:00+00,0,280,11,268,713477,273607
9162,9,2023/02/11 00:00:00+00,0,0,7,0,713477,273608
9162,9,2023/02/12 00:00:00+00,0,1,16,0,713478,273609
9162,9,2023/02/13 00:00:00+00,0,469,20,446,713947,273610
9162,9,2022/02/19 00:00:00+00,0,1582,847,1106,303140,273611
9162,9,2023/02/14 00:00:00+00,0,352,3,326,714299,273612
9162,9,2023/02/15 00:00:00+00,0,307,11,303,714606,273613
9162,9,2023/02/16 00:00:00+00,0,279,8,268,714885,273614
9162,9,2022/02/20 00:00:00+00,0,1993,790,1325,305133,273615
9162,9,2023/02/17 00:00:00+00,0,215,10,207,715100,273616
9162,9,2022/02/21 00:00:00+00,0,2426,924,1630,307559,273617
9162,9,2023/02/18 00:00:00+00,0,0,10,0,715100,273618
9162,9,2022/02/22 00:00:00+00,0,3498,880,2427,311057,273619
9162,9,2023/02/19 00:00:00+00,0,0,15,0,715100,273620
9162,9,2022/02/23 00:00:00+00,0,3576,713,2560,314633,273621
9162,9,2023/02/20 00:00:00+00,0,491,24,457,715591,273622
9162,9,2022/02/24 00:00:00+00,0,3584,605,2679,318217,273623
9162,9,2023/02/21 00:00:00+00,0,238,14,225,715829,273624
9162,9,2022/02/25 00:00:00+00,0,2867,671,2066,321084,273625
9162,9,2023/02/22 00:00:00+00,0,398,12,370,716227,273626
9162,9,2022/02/26 00:00:00+00,0,1449,690,1026,322533,273627
9162,9,2023/02/23 00:00:00+00,0,266,12,253,716493,273628
9162,9,2022/02/27 00:00:00+00,0,1815,694,1342,324348,273629
9162,9,2023/02/24 00:00:00+00,0,230,4,220,716723,273630
9162,9,2022/02/28 00:00:00+00,0,2477,844,1713,326825,273631
9162,9,2023/02/25 00:00:00+00,0,0,5,0,716723,273632
9162,9,2022/03/01 00:00:00+00,0,1971,978,1357,328796,273633
9162,9,2023/02/26 00:00:00+00,0,0,8,0,716723,273634
9162,9,2022/03/02 00:00:00+00,0,3984,870,2827,332780,273635
9162,9,2023/02/27 00:00:00+00,0,269,9,253,716992,273636
9162,9,2022/03/03 00:00:00+00,0,3326,828,2400,336106,273637
9162,9,2023/02/28 00:00:00+00,0,304,12,289,717296,273638
9162,9,2022/03/04 00:00:00+00,0,2733,856,2006,338839,273639
9162,9,2023/03/01 00:00:00+00,0,303,8,293,717599,273640
9162,9,2022/03/05 00:00:00+00,0,1429,924,1007,340268,273641
9162,9,2023/03/02 00:00:00+00,0,168,4,156,717767,273642
9162,9,2022/03/06 00:00:00+00,0,2289,1033,1606,342557,273643
9162,9,2023/03/03 00:00:00+00,0,119,5,117,717886,273644
9162,9,2022/03/07 00:00:00+00,0,2630,1337,1904,345187,273645
9162,9,2023/03/04 00:00:00+00,0,0,4,0,717886,273646
9162,9,2022/03/08 00:00:00+00,0,3710,1309,2617,348897,273647
9162,9,2023/03/05 00:00:00+00,0,0,7,0,717886,273648
9162,9,2022/03/09 00:00:00+00,0,4278,1013,3105,353175,273649
9162,9,2023/03/06 00:00:00+00,0,225,8,210,718111,273650
9162,9,2022/03/10 00:00:00+00,0,4488,1007,3303,357663,273651
9162,9,2023/03/07 00:00:00+00,0,127,6,120,718238,273652
9162,9,2022/03/11 00:00:00+00,0,3995,1000,2926,361658,273653
9162,9,2023/03/08 00:00:00+00,0,129,3,124,718367,273654
9162,9,2022/03/12 00:00:00+00,0,3154,1037,2377,364812,273655
9162,9,2023/03/09 00:00:00+00,0,113,4,108,718480,273656
9162,9,2022/03/13 00:00:00+00,0,3495,1081,2561,368307,273657
9162,9,2023/03/10 00:00:00+00,0,118,3,111,718598,273658
9162,9,2022/03/14 00:00:00+00,0,3885,1317,2841,372192,273659
9162,9,2023/03/11 00:00:00+00,0,0,6,0,718598,273660
9162,9,2022/03/15 00:00:00+00,0,4540,1229,3241,376732,273661
9162,9,2023/03/12 00:00:00+00,0,0,2,0,718598,273662
9162,9,2022/05/30 00:00:00+00,0,393,230,251,524966,273663
9162,9,2022/03/16 00:00:00+00,0,4807,1047,3517,381539,273664
9162,9,2023/03/13 00:00:00+00,0,168,4,163,718766,273665
9162,9,2022/05/31 00:00:00+00,0,871,249,583,525837,273666
9162,9,2022/03/17 00:00:00+00,0,4667,898,3555,386206,273667
9162,9,2023/03/14 00:00:00+00,0,129,4,126,718895,273668
9162,9,2022/12/16 00:00:00+00,0,262,13,250,702268,273669
9162,9,2022/06/01 00:00:00+00,0,743,246,487,526580,273670
9162,9,2022/03/18 00:00:00+00,0,4370,953,3359,390576,273671
9162,9,2022/07/19 00:00:00+00,0,3138,584,2133,588589,273672
9162,9,2023/03/15 00:00:00+00,0,123,4,118,719018,273673
9162,9,2022/09/07 00:00:00+00,0,479,81,394,627049,273674
9162,9,2022/12/17 00:00:00+00,0,0,8,0,702268,273675
9162,9,2022/06/02 00:00:00+00,0,623,208,409,527203,273676
9162,9,2022/04/10 00:00:00+00,0,1359,171,1086,468869,273677
9162,9,2022/10/27 00:00:00+00,0,473,10,460,690169,273678
9162,9,2022/03/19 00:00:00+00,0,2822,909,2170,393398,273679
9162,9,2022/07/20 00:00:00+00,0,3115,507,2228,591704,273680
9162,9,2023/03/16 00:00:00+00,0,106,4,100,719124,273681
9162,9,2022/09/08 00:00:00+00,0,418,67,333,627467,273682
9162,9,2022/12/18 00:00:00+00,0,0,5,0,702268,273683
9162,9,2022/06/03 00:00:00+00,0,689,222,442,527892,273684
9162,9,2022/04/11 00:00:00+00,0,1927,139,1598,470796,273685
9162,9,2022/10/28 00:00:00+00,0,303,9,292,690472,273686
9162,9,2022/03/20 00:00:00+00,0,3893,983,2962,397291,273687
9162,9,2022/07/21 00:00:00+00,0,2803,446,2056,594507,273688
9162,9,2023/03/17 00:00:00+00,0,77,5,72,719201,273689
9162,9,2022/09/09 00:00:00+00,0,416,71,346,627883,273690
9162,9,2022/12/19 00:00:00+00,0,613,32,577,702881,273691
9162,9,2022/06/04 00:00:00+00,0,2,273,1,527894,273692
9162,9,2022/04/12 00:00:00+00,0,2555,75,2209,473351,273693
9162,9,2022/10/29 00:00:00+00,0,310,5,302,690782,273694
9162,9,2022/03/21 00:00:00+00,0,4073,1206,3201,401364,273695
9162,9,2022/07/22 00:00:00+00,0,2103,398,1461,596610,273696
9162,9,2023/03/18 00:00:00+00,0,0,3,0,719201,273697
9162,9,2022/09/10 00:00:00+00,0,6,83,5,627889,273698
9162,9,2022/12/20 00:00:00+00,0,463,14,445,703344,273699
9162,9,2022/06/05 00:00:00+00,0,7,305,2,527901,273700
9162,9,2022/04/13 00:00:00+00,0,2183,16,1994,475534,273701
9162,9,2022/10/30 00:00:00+00,0,0,10,0,690782,273702
9162,9,2022/03/22 00:00:00+00,0,4697,1023,3533,406061,273703
9162,9,2022/07/23 00:00:00+00,0,8,380,6,596618,273704
9162,9,2023/03/19 00:00:00+00,0,0,6,0,719201,273705
9162,9,2022/09/11 00:00:00+00,0,14,82,11,627903,273706
9162,9,2022/12/21 00:00:00+00,0,441,15,429,703785,273707
9162,9,2022/06/06 00:00:00+00,0,8,306,2,527909,273708
9162,9,2022/04/14 00:00:00+00,0,1999,17,1950,477533,273709
9162,9,2022/04/15 00:00:00+00,0,1318,9,1300,478851,273710
9162,9,2022/04/16 00:00:00+00,0,1114,13,1099,479965,273711
9162,9,2022/04/17 00:00:00+00,0,969,9,960,480934,273712
9162,9,2022/04/18 00:00:00+00,0,915,9,905,481849,273713
9162,9,2022/04/19 00:00:00+00,0,1493,12,1479,483342,273714
9162,9,2022/04/20 00:00:00+00,0,1987,14,1978,485329,273715
9162,9,2022/04/21 00:00:00+00,0,1751,16,1735,487080,273716
9162,9,2022/04/22 00:00:00+00,0,1285,18,1268,488365,273717
9162,9,2022/04/23 00:00:00+00,0,1112,12,1104,489477,273718
9162,9,2022/04/24 00:00:00+00,0,1136,12,1130,490613,273719
9162,9,2022/04/25 00:00:00+00,0,1333,36,1323,491946,273720
9162,9,2022/04/26 00:00:00+00,0,1888,34,1863,493834,273721
9162,9,2022/04/27 00:00:00+00,0,1601,58,1586,495435,273722
9162,9,2022/04/28 00:00:00+00,0,1327,88,1306,496762,273723
9162,9,2022/04/29 00:00:00+00,0,961,112,908,497723,273724
9162,9,2022/04/30 00:00:00+00,0,1149,189,1094,498872,273725
9162,9,2022/05/01 00:00:00+00,0,863,296,849,499735,273726
9162,9,2022/05/02 00:00:00+00,0,960,370,926,500695,273727
9162,9,2022/05/03 00:00:00+00,0,1605,470,1243,502300,273728
9162,9,2022/05/04 00:00:00+00,0,1711,408,1158,504011,273729
9162,9,2022/05/05 00:00:00+00,0,1462,342,1007,505473,273730
9162,9,2022/05/06 00:00:00+00,0,1266,357,859,506739,273731
9162,9,2022/05/07 00:00:00+00,0,923,370,612,507662,273732
9162,9,2022/05/08 00:00:00+00,0,626,435,385,508288,273733
9162,9,2022/05/09 00:00:00+00,0,1001,441,608,509289,273734
9162,9,2022/05/10 00:00:00+00,0,1505,432,992,510794,273735
9162,9,2022/05/11 00:00:00+00,0,1540,314,1002,512334,273736
9162,9,2022/05/12 00:00:00+00,0,1272,315,893,513606,273737
9162,9,2022/05/13 00:00:00+00,0,1022,257,694,514628,273738
9162,9,2022/05/14 00:00:00+00,0,796,265,499,515424,273739
9162,9,2022/05/15 00:00:00+00,0,559,287,338,515983,273740
9162,9,2022/05/16 00:00:00+00,0,814,276,510,516797,273741
9162,9,2022/05/17 00:00:00+00,0,942,249,637,517739,273742
9162,9,2022/05/18 00:00:00+00,0,891,231,616,518630,273743
9162,9,2022/05/19 00:00:00+00,0,866,203,584,519496,273744
9162,9,2022/05/20 00:00:00+00,0,772,184,500,520268,273745
9162,9,2022/05/21 00:00:00+00,0,439,177,274,520707,273746
9162,9,2022/05/22 00:00:00+00,0,313,194,182,521020,273747
9162,9,2022/05/23 00:00:00+00,0,542,186,341,521562,273748
9162,9,2022/05/24 00:00:00+00,0,777,228,530,522339,273749
9162,9,2022/05/25 00:00:00+00,0,590,214,357,522929,273750
9162,9,2022/05/26 00:00:00+00,0,451,170,289,523380,273751
9162,9,2022/05/27 00:00:00+00,0,333,168,187,523713,273752
9162,9,2022/05/28 00:00:00+00,0,547,186,322,524260,273753
9162,9,2022/05/29 00:00:00+00,0,313,192,180,524573,273754
9162,9,2023/03/20 00:00:00+00,1,167,3,157,719369,273755
9162,9,2022/03/23 00:00:00+00,0,5216,883,3867,411277,273756
9162,9,2023/03/21 00:00:00+00,0,127,3,121,719496,273757
9162,9,2022/06/07 00:00:00+00,0,1568,335,952,529477,273758
9162,9,2022/09/12 00:00:00+00,0,831,87,643,628734,273759
9162,9,2022/07/24 00:00:00+00,0,18,322,15,596636,273760
9162,9,2023/03/22 00:00:00+00,0,70,2,69,719566,273761
9162,9,2022/06/08 00:00:00+00,0,1412,333,887,530889,273762
9162,9,2022/03/24 00:00:00+00,0,5225,776,3933,416502,273763
9162,9,2022/09/13 00:00:00+00,0,683,111,568,629417,273764
9162,9,2022/07/25 00:00:00+00,0,2599,320,1912,599235,273765
9162,9,2023/03/23 00:00:00+00,0,87,3,84,719653,273766
9162,9,2022/12/22 00:00:00+00,0,369,20,347,704154,273767
9162,9,2022/10/31 00:00:00+00,0,346,7,334,691128,273768
9162,9,2022/06/09 00:00:00+00,0,1140,295,708,532029,273769
9162,9,2022/03/25 00:00:00+00,0,4157,758,3190,420659,273770
9162,9,2022/09/14 00:00:00+00,0,590,110,476,630007,273771
9162,9,2022/07/26 00:00:00+00,0,2204,292,1537,601439,273772
9162,9,2023/03/24 00:00:00+00,0,91,0,88,719744,273773
9162,9,2022/12/23 00:00:00+00,0,349,14,334,704503,273774
9162,9,2022/11/01 00:00:00+00,0,0,9,0,691128,273775
9162,9,2022/06/10 00:00:00+00,0,956,257,648,532985,273776
9162,9,2022/03/26 00:00:00+00,0,2814,811,2197,423473,273777
9162,9,2022/09/15 00:00:00+00,0,619,101,507,630626,273778
9162,9,2022/07/27 00:00:00+00,0,2458,199,1842,603897,273779
9162,9,2023/03/25 00:00:00+00,0,0,2,0,719744,273780
9162,9,2022/12/24 00:00:00+00,0,0,6,0,704503,273781
9162,9,2022/11/02 00:00:00+00,0,580,8,562,691708,273782
9162,9,2022/06/11 00:00:00+00,0,0,277,0,532985,273783
9162,9,2022/03/27 00:00:00+00,0,3271,848,2506,426744,273784
9162,9,2022/09/16 00:00:00+00,0,520,127,444,631146,273785
9162,9,2022/07/28 00:00:00+00,0,1609,159,1203,605506,273786
9162,9,2022/12/25 00:00:00+00,0,0,10,0,704503,273787
9162,9,2022/11/03 00:00:00+00,0,340,5,332,692048,273788
9162,9,2022/06/12 00:00:00+00,0,7,283,4,532992,273789
9162,9,2022/03/28 00:00:00+00,0,4666,880,3497,431410,273790
9162,9,2022/09/17 00:00:00+00,0,1,121,1,631147,273791
9162,9,2022/07/29 00:00:00+00,0,1185,152,971,606691,273792
9162,9,2022/12/26 00:00:00+00,0,0,13,0,704503,273793
9162,9,2022/11/04 00:00:00+00,0,349,7,344,692397,273794
9162,9,2022/06/13 00:00:00+00,0,1603,386,1033,534595,273795
9162,9,2022/03/29 00:00:00+00,0,4840,811,3635,436250,273796
9162,9,2022/09/18 00:00:00+00,0,13,118,9,631160,273797
9162,9,2022/07/30 00:00:00+00,0,7,156,7,606698,273798
9162,9,2022/12/27 00:00:00+00,0,787,15,751,705290,273799
9162,9,2022/11/05 00:00:00+00,0,1,4,1,692398,273800
9162,9,2022/06/14 00:00:00+00,0,1399,343,900,535994,273801
9162,9,2022/03/30 00:00:00+00,0,5183,648,3972,441433,273802
9162,9,2022/09/19 00:00:00+00,0,1203,163,898,632363,273803
9162,9,2022/07/31 00:00:00+00,0,7,135,6,606705,273804
9162,9,2022/12/28 00:00:00+00,0,368,10,356,705658,273805
9162,9,2022/11/06 00:00:00+00,0,1,7,1,692399,273806
9162,9,2022/06/15 00:00:00+00,0,1210,302,775,537204,273807
9162,9,2022/03/31 00:00:00+00,0,4012,485,3062,445445,273808
9162,9,2022/09/20 00:00:00+00,0,890,171,718,633253,273809
9162,9,2022/08/01 00:00:00+00,0,1930,166,1525,608635,273810
9162,9,2022/12/29 00:00:00+00,0,329,12,320,705987,273811
9162,9,2022/11/07 00:00:00+00,0,604,9,589,693003,273812
9162,9,2022/06/16 00:00:00+00,0,2,333,2,537206,273813
9162,9,2022/04/01 00:00:00+00,0,2926,554,2248,448371,273814
9162,9,2022/09/21 00:00:00+00,0,806,224,654,634059,273815
9162,9,2022/08/02 00:00:00+00,0,1354,139,1117,609989,273816
9162,9,2022/12/30 00:00:00+00,0,199,8,189,706186,273817
9162,9,2022/11/08 00:00:00+00,0,389,3,380,693392,273818
9162,9,2022/06/17 00:00:00+00,0,1273,355,824,538479,273819
9162,9,2022/04/02 00:00:00+00,0,1843,472,1429,450214,273820
9162,9,2022/09/22 00:00:00+00,0,909,212,751,634968,273821
9162,9,2022/08/03 00:00:00+00,0,1013,103,829,611002,273822
9162,9,2022/12/31 00:00:00+00,0,7,7,7,706193,273823
9162,9,2022/11/09 00:00:00+00,0,330,8,324,693722,273824
9162,9,2022/06/18 00:00:00+00,0,15,386,10,538494,273825
9162,9,2022/04/03 00:00:00+00,0,1584,499,1281,451798,273826
9162,9,2022/09/23 00:00:00+00,0,1088,223,888,636056,273827
9162,9,2022/08/04 00:00:00+00,0,763,98,654,611765,273828
9162,9,2023/01/01 00:00:00+00,0,7,10,7,706200,273829
9162,9,2022/11/10 00:00:00+00,0,256,6,250,693978,273830
9162,9,2022/06/19 00:00:00+00,0,11,447,5,538505,273831
9162,9,2022/04/04 00:00:00+00,0,2010,588,1550,453808,273832
9162,9,2022/09/24 00:00:00+00,0,979,220,777,637035,273833
9162,9,2022/09/25 00:00:00+00,0,28,103,24,637063,273834
9162,9,2022/09/26 00:00:00+00,0,1993,86,1488,639056,273835
9162,9,2022/09/27 00:00:00+00,0,3042,79,2922,642098,273836
9162,9,2022/09/28 00:00:00+00,0,3146,56,3060,645244,273837
9162,9,2022/09/29 00:00:00+00,0,1994,55,1938,647238,273838
9162,9,2022/09/30 00:00:00+00,0,1880,55,1846,649118,273839
9162,9,2022/10/01 00:00:00+00,0,1558,66,1529,650676,273840
9162,9,2022/10/02 00:00:00+00,0,28,65,25,650704,273841
9162,9,2022/10/03 00:00:00+00,0,71,91,70,650775,273842
9162,9,2022/10/04 00:00:00+00,0,3019,89,2871,653794,273843
9162,9,2022/10/05 00:00:00+00,0,5964,73,5816,659758,273844
9162,9,2022/10/06 00:00:00+00,0,4180,43,4060,663938,273845
9162,9,2022/10/07 00:00:00+00,0,2839,59,2786,666777,273846
9162,9,2022/10/08 00:00:00+00,0,1560,51,1546,668337,273847
9162,9,2022/10/09 00:00:00+00,0,2268,40,2224,670605,273848
9162,9,2022/10/10 00:00:00+00,0,3220,52,3132,673825,273849
9162,9,2022/10/11 00:00:00+00,0,2742,44,2659,676567,273850
9162,9,2022/10/12 00:00:00+00,0,1981,36,1909,678548,273851
9162,9,2022/10/13 00:00:00+00,0,1576,37,1529,680124,273852
9162,9,2022/10/14 00:00:00+00,0,1335,25,1292,681459,273853
9162,9,2022/10/15 00:00:00+00,0,973,18,950,682432,273854
9162,9,2022/10/16 00:00:00+00,0,2,23,2,682434,273855
9162,9,2022/10/17 00:00:00+00,0,1258,23,1210,683692,273856
9162,9,2022/10/18 00:00:00+00,0,1271,24,1242,684963,273857
9162,9,2022/10/19 00:00:00+00,0,962,21,934,685925,273858
9162,9,2022/10/20 00:00:00+00,0,719,9,691,686644,273859
9162,9,2022/10/21 00:00:00+00,0,660,8,649,687304,273860
9162,9,2022/10/22 00:00:00+00,0,439,8,435,687743,273861
9162,9,2022/10/23 00:00:00+00,0,0,11,0,687743,273862
9162,9,2022/10/24 00:00:00+00,0,716,24,693,688459,273863
9162,9,2022/10/25 00:00:00+00,0,703,10,694,689162,273864
9162,9,2022/10/26 00:00:00+00,0,534,10,518,689696,273865
9162,9,2022/11/11 00:00:00+00,0,200,8,196,694178,273866
9162,9,2022/04/05 00:00:00+00,0,2693,515,2061,456501,273867
9162,9,2022/11/12 00:00:00+00,0,37,8,36,694215,273868
9162,9,2023/01/02 00:00:00+00,0,368,12,355,706568,273869
9162,9,2022/04/06 00:00:00+00,0,3494,383,2764,459995,273870
9162,9,2022/11/13 00:00:00+00,0,0,6,0,694215,273871
9162,9,2023/01/03 00:00:00+00,0,256,6,242,706824,273872
9162,9,2022/04/07 00:00:00+00,0,3288,312,2574,463283,273873
9162,9,2022/11/14 00:00:00+00,0,436,9,420,694651,273874
9162,9,2022/06/20 00:00:00+00,0,1513,499,1006,540018,273875
9162,9,2023/01/04 00:00:00+00,0,294,2,284,707118,273876
9162,9,2022/08/05 00:00:00+00,0,794,76,667,612559,273877
9162,9,2022/04/08 00:00:00+00,0,2611,280,2118,465894,273878
9162,9,2022/11/15 00:00:00+00,0,244,12,238,694895,273879
9162,9,2022/06/21 00:00:00+00,0,1820,491,1158,541838,273880
9162,9,2023/01/05 00:00:00+00,0,158,10,154,707276,273881
9162,9,2022/08/06 00:00:00+00,0,12,111,10,612571,273882
9162,9,2022/04/09 00:00:00+00,0,1616,230,1322,467510,273883
9162,9,2022/11/16 00:00:00+00,0,247,6,238,695142,273884
9162,9,2022/06/22 00:00:00+00,0,2241,413,1397,544079,273885
9162,9,2023/01/06 00:00:00+00,0,0,2,0,707276,273886
9162,9,2022/08/07 00:00:00+00,0,5,82,2,612576,273887
9162,9,2022/11/17 00:00:00+00,0,235,6,230,695377,273888
9162,9,2022/06/23 00:00:00+00,0,1937,363,1296,546016,273889
9162,9,2023/01/07 00:00:00+00,0,0,11,0,707276,273890
9162,9,2022/08/08 00:00:00+00,0,1290,124,1065,613866,273891
9162,9,2022/11/18 00:00:00+00,0,191,6,187,695568,273892
9162,9,2022/06/24 00:00:00+00,0,1171,462,799,547187,273893
9162,9,2023/01/08 00:00:00+00,0,1,10,0,707277,273894
9162,9,2022/08/09 00:00:00+00,0,792,98,654,614658,273895
9162,9,2022/11/19 00:00:00+00,0,18,7,16,695586,273896
9162,9,2022/06/25 00:00:00+00,0,3,436,0,547190,273897
9162,9,2023/01/09 00:00:00+00,0,555,11,527,707832,273898
9162,9,2022/08/10 00:00:00+00,0,595,84,473,615253,273899
9162,9,2022/11/20 00:00:00+00,0,0,7,0,695586,273900
9162,9,2022/06/26 00:00:00+00,0,1,535,0,547191,273901
9162,9,2023/01/10 00:00:00+00,0,305,9,294,708137,273902
9162,9,2022/08/11 00:00:00+00,0,564,53,456,615817,273903
9162,9,2022/11/21 00:00:00+00,0,496,19,476,696082,273904
9162,9,2022/06/27 00:00:00+00,0,2220,629,1412,549411,273905
9162,9,2023/01/11 00:00:00+00,0,250,5,241,708387,273906
9162,9,2022/08/12 00:00:00+00,0,537,77,451,616354,273907
9162,9,2022/11/22 00:00:00+00,0,322,4,310,696404,273908
9162,9,2022/06/28 00:00:00+00,0,1960,554,1210,551371,273909
9162,9,2022/08/13 00:00:00+00,0,1,82,1,616355,273910
9162,9,2023/01/12 00:00:00+00,0,191,2,183,708578,273911
9162,9,2022/11/23 00:00:00+00,0,270,10,266,696674,273912
9162,9,2022/06/29 00:00:00+00,0,2213,456,1496,553584,273913
9162,9,2022/08/14 00:00:00+00,0,0,70,0,616355,273914
9162,9,2023/01/13 00:00:00+00,0,116,9,115,708694,273915
9162,9,2022/11/24 00:00:00+00,0,274,8,265,696948,273916
9162,9,2022/06/30 00:00:00+00,0,2262,413,1503,555846,273917
9162,9,2022/08/15 00:00:00+00,0,5,105,2,616360,273918
9162,9,2023/01/14 00:00:00+00,0,0,5,0,708694,273919
9162,9,2022/11/25 00:00:00+00,0,138,11,136,697086,273920
9162,9,2022/07/01 00:00:00+00,0,1616,502,1121,557462,273921
9162,9,2022/08/16 00:00:00+00,0,1158,105,928,617518,273922
9162,9,2023/01/15 00:00:00+00,0,0,2,0,708694,273923
9162,9,2022/11/26 00:00:00+00,0,18,6,18,697104,273924
9162,9,2022/07/02 00:00:00+00,0,21,502,12,557483,273925
9162,9,2022/08/17 00:00:00+00,0,807,81,666,618325,273926
9162,9,2023/01/16 00:00:00+00,0,286,9,268,708980,273927
9162,9,2022/11/27 00:00:00+00,0,0,10,0,697104,273928
9162,9,2022/07/03 00:00:00+00,0,26,582,16,557509,273929
9162,9,2022/08/18 00:00:00+00,0,622,75,506,618947,273930
9162,9,2023/01/17 00:00:00+00,0,156,5,149,709136,273931
9162,9,2022/11/28 00:00:00+00,0,519,4,496,697623,273932
9162,9,2022/07/04 00:00:00+00,0,2780,702,1897,560289,273933
9162,9,2022/08/19 00:00:00+00,0,491,83,414,619438,273934
9162,9,2023/01/18 00:00:00+00,0,180,9,167,709316,273935
9162,9,2022/11/29 00:00:00+00,0,307,7,299,697930,273936
9162,9,2022/07/05 00:00:00+00,0,2765,591,1899,563054,273937
9162,9,2022/08/20 00:00:00+00,0,1,60,1,619439,273938
9162,9,2023/01/19 00:00:00+00,0,118,5,111,709434,273939
9162,9,2022/11/30 00:00:00+00,0,269,7,264,698199,273940
9162,9,2022/07/06 00:00:00+00,0,2393,488,1683,565447,273941
9162,9,2022/08/21 00:00:00+00,0,1,82,0,619440,273942
9162,9,2023/01/20 00:00:00+00,0,142,11,136,709576,273943
9162,9,2022/12/01 00:00:00+00,0,281,9,271,698480,273944
9162,9,2022/07/07 00:00:00+00,0,2806,492,1965,568253,273945
9162,9,2022/08/22 00:00:00+00,0,747,93,578,620187,273946
9162,9,2023/01/21 00:00:00+00,0,0,2,0,709576,273947
9162,9,2022/12/02 00:00:00+00,0,197,3,192,698677,273948
9162,9,2022/07/08 00:00:00+00,0,1768,431,1297,570021,273949
9162,9,2022/08/23 00:00:00+00,0,649,80,529,620836,273950
9162,9,2023/01/22 00:00:00+00,0,0,6,0,709576,273951
9162,9,2022/12/03 00:00:00+00,0,0,8,0,698677,273952
9162,9,2022/07/09 00:00:00+00,0,36,472,29,570057,273953
9162,9,2022/08/24 00:00:00+00,0,493,97,409,621329,273954
9162,9,2023/01/23 00:00:00+00,0,245,9,228,709821,273955
9162,9,2022/12/04 00:00:00+00,0,0,11,0,698677,273956
9162,9,2022/07/10 00:00:00+00,0,26,569,17,570083,273957
9162,9,2022/07/11 00:00:00+00,0,2603,637,1860,572686,273958
9162,9,2022/07/12 00:00:00+00,0,2894,569,2131,575580,273959
9162,9,2022/07/13 00:00:00+00,0,2449,576,1770,578029,273960
9162,9,2022/07/14 00:00:00+00,0,2173,572,1535,580202,273961
9162,9,2022/07/15 00:00:00+00,0,2336,540,1702,582538,273962
9162,9,2022/07/16 00:00:00+00,0,5,552,4,582543,273963
9162,9,2022/07/17 00:00:00+00,0,8,614,5,582551,273964
9162,9,2022/07/18 00:00:00+00,0,2900,578,2097,585451,273965
9162,9,2022/12/05 00:00:00+00,0,453,7,441,699130,273966
9162,9,2022/12/06 00:00:00+00,0,392,13,380,699522,273967
9162,9,2022/12/07 00:00:00+00,0,320,16,307,699842,273968
9162,9,2022/12/08 00:00:00+00,0,289,9,276,700131,273969
9162,9,2022/12/09 00:00:00+00,0,284,9,279,700415,273970
9162,9,2022/12/10 00:00:00+00,0,0,12,0,700415,273971
9162,9,2022/12/11 00:00:00+00,0,0,6,0,700415,273972
9162,9,2022/12/12 00:00:00+00,0,545,15,518,700960,273973
9162,9,2022/12/13 00:00:00+00,0,401,13,386,701361,273974
9162,9,2022/12/14 00:00:00+00,0,346,12,329,701707,273975
9162,9,2022/12/15 00:00:00+00,0,299,14,285,702006,273976
9162,9,2023/01/24 00:00:00+00,0,200,7,190,710021,273977
9162,9,2023/01/25 00:00:00+00,0,184,7,178,710205,273978
9162,9,2022/08/25 00:00:00+00,0,537,80,417,621866,273979
9162,9,2023/01/26 00:00:00+00,0,188,8,181,710393,273980
9162,9,2022/08/26 00:00:00+00,0,380,83,315,622246,273981
9162,9,2023/01/27 00:00:00+00,0,154,11,141,710547,273982
9162,9,2022/08/27 00:00:00+00,0,1,72,1,622247,273983
9162,9,2023/01/28 00:00:00+00,0,0,4,0,710547,273984
9162,9,2022/08/28 00:00:00+00,0,0,88,0,622247,273985
9162,9,2023/01/29 00:00:00+00,0,0,8,0,710547,273986
9162,9,2022/08/29 00:00:00+00,0,920,80,694,623167,273987
9162,9,2023/01/30 00:00:00+00,0,378,12,363,710925,273988
9162,9,2022/08/30 00:00:00+00,0,630,78,503,623797,273989
9162,9,2023/01/31 00:00:00+00,0,313,8,298,711238,273990
9162,9,2022/08/31 00:00:00+00,0,509,66,415,624306,273991
9162,9,2023/02/01 00:00:00+00,0,221,12,214,711459,273992
9162,9,2022/09/01 00:00:00+00,0,407,62,331,624713,273993
9162,9,2023/02/02 00:00:00+00,0,231,10,220,711690,273994
9162,9,2022/09/02 00:00:00+00,0,354,56,296,625067,273995
9162,9,2023/02/03 00:00:00+00,0,216,12,208,711906,273996
9162,9,2022/09/03 00:00:00+00,0,9,78,8,625076,273997
9162,9,2022/09/04 00:00:00+00,0,8,69,5,625084,273998
9162,9,2022/09/05 00:00:00+00,0,858,87,696,625942,273999
9162,9,2022/09/06 00:00:00+00,0,628,95,530,626570,274000
9162,9,2023/03/26 00:00:00+00,0,0,0,0,719744,274044
9162,9,2023/03/27 00:00:00+00,0,106,4,100,719850,274053
9162,9,2023/03/28 00:00:00+00,0,53,1,50,719903,274061
9162,9,2023/03/29 00:00:00+00,0,61,2,57,719964,274068
9162,9,2023/03/30 00:00:00+00,0,67,3,65,720031,274076
9162,9,2023/03/31 00:00:00+00,0,28,2,28,720059,274084
9162,9,2023/04/01 00:00:00+00,0,0,3,0,720059,274144
9162,9,2023/04/02 00:00:00+00,0,0,3,0,720059,274151
9162,9,2023/04/03 00:00:00+00,0,85,0,79,720144,274158
9162,9,2023/04/04 00:00:00+00,0,122,3,118,720266,274165
9162,9,2023/04/05 00:00:00+00,0,58,0,56,720324,274171
9162,9,2023/04/06 00:00:00+00,10,22,2,32,720356,274177
9162,9,2023/04/07 00:00:00+00,0,0,0,0,720356,274183
9162,9,2023/04/08 00:00:00+00,0,0,0,0,720356,274189
9162,9,2023/04/09 00:00:00+00,0,0,0,0,720356,274195
9162,9,2023/04/10 00:00:00+00,0,0,0,0,720356,274201
9162,9,2023/04/11 00:00:00+00,105,0,0,101,720461,274207
