﻿AdmUnitId,BundeslandId,Datum,AnzFallNeu,AnzFallVortag,AnzFallErkrankung,AnzFallMeldung,KumFall,ObjectId
9162,9,2020/03/11 00:00:00+00,0,23,71,16,104,270001
9162,9,2020/03/12 00:00:00+00,0,18,89,11,122,270002
9162,9,2020/03/13 00:00:00+00,0,48,110,33,170,270003
9162,9,2020/03/14 00:00:00+00,0,64,110,44,234,270004
9162,9,2020/03/15 00:00:00+00,0,19,135,16,253,270005
9162,9,2020/03/16 00:00:00+00,0,67,155,35,320,270006
9162,9,2020/03/17 00:00:00+00,0,144,140,82,464,270007
9162,9,2020/03/18 00:00:00+00,0,212,153,110,676,270008
9162,9,2020/03/19 00:00:00+00,0,173,108,77,849,270009
9162,9,2020/03/20 00:00:00+00,0,195,127,86,1044,270010
9162,9,2020/03/21 00:00:00+00,0,176,83,65,1220,270011
9162,9,2020/03/22 00:00:00+00,0,88,85,37,1308,270012
9162,9,2020/03/23 00:00:00+00,0,93,117,44,1401,270013
9162,9,2020/03/24 00:00:00+00,0,170,61,80,1571,270014
9162,9,2020/03/25 00:00:00+00,0,239,111,103,1810,270015
9162,9,2020/03/26 00:00:00+00,0,258,66,102,2068,270016
9162,9,2020/03/27 00:00:00+00,0,258,110,109,2326,270017
9162,9,2020/03/28 00:00:00+00,0,139,79,58,2465,270018
9162,9,2020/03/29 00:00:00+00,0,178,65,74,2643,270019
9162,9,2020/03/30 00:00:00+00,0,118,69,46,2761,270020
9162,9,2020/03/31 00:00:00+00,0,310,68,119,3071,270021
9162,9,2020/04/01 00:00:00+00,0,231,90,87,3302,270022
9162,9,2020/04/02 00:00:00+00,0,143,49,53,3445,270023
9162,9,2020/04/03 00:00:00+00,0,177,57,85,3622,270024
9162,9,2020/04/04 00:00:00+00,0,134,49,59,3756,270025
9162,9,2020/04/05 00:00:00+00,0,84,47,27,3840,270026
9162,9,2020/04/06 00:00:00+00,0,118,51,40,3958,270027
9162,9,2020/04/07 00:00:00+00,0,141,48,40,4099,270028
9162,9,2020/04/08 00:00:00+00,0,154,50,65,4253,270029
9162,9,2020/04/09 00:00:00+00,0,112,48,48,4365,270030
9162,9,2020/04/10 00:00:00+00,0,98,27,22,4463,270031
9162,9,2020/04/11 00:00:00+00,0,104,38,41,4567,270032
9162,9,2020/04/12 00:00:00+00,0,72,35,16,4639,270033
9162,9,2020/04/13 00:00:00+00,0,61,37,27,4700,270034
9162,9,2020/04/14 00:00:00+00,0,86,34,32,4786,270035
9162,9,2020/04/15 00:00:00+00,0,109,32,42,4895,270036
9162,9,2020/04/16 00:00:00+00,0,95,29,34,4990,270037
9162,9,2020/04/17 00:00:00+00,0,93,26,37,5083,270038
9162,9,2020/04/18 00:00:00+00,0,46,22,14,5129,270039
9162,9,2020/04/19 00:00:00+00,0,49,22,22,5178,270040
9162,9,2020/04/20 00:00:00+00,0,32,30,18,5210,270041
9162,9,2020/04/21 00:00:00+00,0,55,21,18,5265,270042
9162,9,2020/04/22 00:00:00+00,0,57,20,25,5322,270043
9162,9,2020/04/23 00:00:00+00,0,78,27,25,5400,270044
9162,9,2020/04/24 00:00:00+00,0,56,28,23,5456,270045
9162,9,2020/04/25 00:00:00+00,0,47,23,31,5503,270046
9162,9,2020/04/26 00:00:00+00,0,33,12,16,5536,270047
9162,9,2020/04/27 00:00:00+00,0,79,29,47,5615,270048
9162,9,2020/04/28 00:00:00+00,0,50,19,16,5665,270049
9162,9,2020/04/29 00:00:00+00,0,41,17,23,5706,270050
9162,9,2020/04/30 00:00:00+00,0,44,24,17,5750,270102
9162,9,2020/06/19 00:00:00+00,0,11,6,7,6646,270105
9162,9,2020/06/20 00:00:00+00,0,22,8,20,6668,270106
9162,9,2020/06/21 00:00:00+00,0,14,7,9,6682,270107
9162,9,2020/06/22 00:00:00+00,0,4,9,1,6686,270108
9162,9,2020/06/23 00:00:00+00,0,18,7,11,6704,270109
9162,9,2020/06/24 00:00:00+00,0,13,12,2,6717,270110
9162,9,2020/06/25 00:00:00+00,0,18,10,7,6735,270111
9162,9,2020/06/26 00:00:00+00,0,17,16,8,6752,270112
9162,9,2020/06/27 00:00:00+00,0,12,7,4,6764,270113
9162,9,2020/06/28 00:00:00+00,0,10,14,8,6774,270114
9162,9,2020/06/29 00:00:00+00,0,21,10,12,6795,270115
9162,9,2020/06/30 00:00:00+00,0,40,6,21,6835,270116
9162,9,2020/07/01 00:00:00+00,0,10,5,4,6845,270117
9162,9,2020/07/02 00:00:00+00,0,23,8,10,6868,270118
9162,9,2020/07/03 00:00:00+00,0,20,8,10,6888,270119
9162,9,2020/07/04 00:00:00+00,0,14,3,11,6902,270120
9162,9,2020/07/05 00:00:00+00,0,4,6,4,6906,270121
9162,9,2020/07/06 00:00:00+00,0,23,5,12,6929,270122
9162,9,2020/07/07 00:00:00+00,0,35,8,27,6964,270123
9162,9,2020/07/08 00:00:00+00,0,21,7,9,6985,270124
9162,9,2020/07/09 00:00:00+00,0,11,4,7,6996,270125
9162,9,2020/07/10 00:00:00+00,0,18,7,4,7014,270126
9162,9,2020/07/11 00:00:00+00,0,2,7,2,7016,270127
9162,9,2020/07/12 00:00:00+00,0,7,5,3,7023,270128
9162,9,2020/07/13 00:00:00+00,0,15,15,6,7038,270129
9162,9,2020/07/14 00:00:00+00,0,11,6,6,7049,270130
9162,9,2020/07/15 00:00:00+00,0,20,12,15,7069,270131
9162,9,2020/07/16 00:00:00+00,0,26,7,10,7095,270132
9162,9,2020/07/17 00:00:00+00,0,26,10,20,7121,270133
9162,9,2020/07/18 00:00:00+00,0,6,7,4,7127,270134
9162,9,2020/07/19 00:00:00+00,0,17,7,8,7144,270135
9162,9,2020/07/20 00:00:00+00,0,10,7,4,7154,270136
9162,9,2020/07/21 00:00:00+00,0,16,5,5,7170,270137
9162,9,2020/07/22 00:00:00+00,0,15,11,6,7185,270138
9162,9,2020/07/23 00:00:00+00,0,16,4,8,7201,270139
9162,9,2020/07/24 00:00:00+00,0,17,5,8,7218,270140
9162,9,2020/07/25 00:00:00+00,0,14,9,5,7232,270141
9162,9,2020/07/26 00:00:00+00,0,2,7,1,7234,270142
9162,9,2020/07/27 00:00:00+00,0,13,12,8,7247,270143
9162,9,2020/07/28 00:00:00+00,0,15,7,9,7262,270144
9162,9,2020/07/29 00:00:00+00,0,17,8,8,7279,270145
9162,9,2020/07/30 00:00:00+00,0,19,7,9,7298,270146
9162,9,2020/07/31 00:00:00+00,0,17,7,8,7315,270147
9162,9,2020/08/01 00:00:00+00,0,11,6,5,7326,270148
9162,9,2020/08/02 00:00:00+00,0,9,6,6,7335,270149
9162,9,2020/08/03 00:00:00+00,0,26,19,12,7361,270150
9162,9,2020/08/04 00:00:00+00,0,18,7,11,7379,270151
9162,9,2020/08/05 00:00:00+00,0,12,14,6,7391,270152
9162,9,2020/08/06 00:00:00+00,0,35,11,18,7426,270153
9162,9,2020/08/07 00:00:00+00,0,19,10,16,7445,270154
9162,9,2020/05/01 00:00:00+00,0,59,26,32,5809,270160
9162,9,2020/05/02 00:00:00+00,0,33,12,18,5842,270163
9162,9,2020/05/03 00:00:00+00,0,25,20,5,5867,270168
9162,9,2020/05/04 00:00:00+00,0,34,14,15,5901,270173
9162,9,2020/05/05 00:00:00+00,0,30,21,10,5931,270178
9162,9,2020/05/06 00:00:00+00,0,19,11,9,5950,270183
9162,9,2020/05/07 00:00:00+00,0,30,20,11,5980,270188
9162,9,2020/05/08 00:00:00+00,0,43,10,21,6023,270193
9162,9,2020/05/09 00:00:00+00,0,24,10,15,6047,270198
9162,9,2020/05/10 00:00:00+00,0,22,10,9,6069,270203
9162,9,2020/05/11 00:00:00+00,0,61,9,40,6130,270208
9162,9,2020/05/12 00:00:00+00,0,27,9,12,6157,270213
9162,9,2020/05/13 00:00:00+00,0,35,4,14,6192,270218
9162,9,2020/05/14 00:00:00+00,0,23,5,13,6215,270223
9162,9,2020/05/15 00:00:00+00,0,18,7,12,6233,270228
9162,9,2020/05/16 00:00:00+00,0,9,3,3,6242,270267
9162,9,2020/05/17 00:00:00+00,0,11,4,5,6253,270271
9162,9,2020/05/18 00:00:00+00,0,7,12,4,6260,270275
9162,9,2020/05/19 00:00:00+00,0,12,6,10,6272,270279
9162,9,2020/05/20 00:00:00+00,0,20,7,9,6292,270283
9162,9,2020/05/21 00:00:00+00,0,19,5,8,6311,270287
9162,9,2020/05/22 00:00:00+00,0,21,7,17,6332,270291
9162,9,2020/05/23 00:00:00+00,0,2,6,1,6334,270295
9162,9,2020/05/24 00:00:00+00,0,6,10,2,6340,270299
9162,9,2020/05/25 00:00:00+00,0,14,5,5,6354,270303
9162,9,2020/05/26 00:00:00+00,0,46,12,25,6400,270307
9162,9,2020/05/27 00:00:00+00,0,34,5,20,6434,270311
9162,9,2020/05/28 00:00:00+00,0,6,6,2,6440,270315
9162,9,2020/05/29 00:00:00+00,0,14,4,9,6454,270319
9162,9,2020/05/30 00:00:00+00,0,33,3,28,6487,270323
9162,9,2020/05/31 00:00:00+00,0,5,5,3,6492,270327
9162,9,2020/06/01 00:00:00+00,0,0,3,0,6492,270331
9162,9,2020/06/02 00:00:00+00,0,5,7,1,6497,270335
9162,9,2020/06/03 00:00:00+00,0,12,4,7,6509,270339
9162,9,2020/06/04 00:00:00+00,0,8,8,3,6517,270343
9162,9,2020/06/05 00:00:00+00,0,14,8,6,6531,270347
9162,9,2020/06/06 00:00:00+00,0,5,5,3,6536,270351
9162,9,2020/06/07 00:00:00+00,0,9,6,5,6545,270355
9162,9,2020/06/08 00:00:00+00,0,13,10,4,6558,270356
9162,9,2020/06/09 00:00:00+00,0,8,2,3,6566,270357
9162,9,2020/06/10 00:00:00+00,0,9,5,3,6575,270358
9162,9,2020/06/11 00:00:00+00,0,2,4,0,6577,270359
9162,9,2020/06/12 00:00:00+00,0,12,5,6,6589,270360
9162,9,2020/06/13 00:00:00+00,0,5,4,0,6594,270361
9162,9,2020/06/14 00:00:00+00,0,11,0,9,6605,270362
9162,9,2020/06/15 00:00:00+00,0,4,5,0,6609,270363
9162,9,2020/06/16 00:00:00+00,0,9,4,3,6618,270364
9162,9,2020/06/17 00:00:00+00,0,13,6,4,6631,270365
9162,9,2020/06/18 00:00:00+00,0,4,3,2,6635,270366
9162,9,2020/03/01 00:00:00+00,0,0,9,0,5,270379
9162,9,2020/03/02 00:00:00+00,0,3,10,0,8,270382
9162,9,2020/03/03 00:00:00+00,0,1,14,0,9,270385
9162,9,2020/03/04 00:00:00+00,0,3,8,1,12,270388
9162,9,2020/03/05 00:00:00+00,0,2,6,1,14,270390
9162,9,2020/03/06 00:00:00+00,0,13,19,8,27,270392
9162,9,2020/03/07 00:00:00+00,0,0,20,0,27,270394
9162,9,2020/03/08 00:00:00+00,0,0,26,0,27,270396
9162,9,2020/03/09 00:00:00+00,0,23,51,14,50,270398
9162,9,2020/03/10 00:00:00+00,0,31,63,21,81,270400
9162,9,2021/07/24 00:00:00+00,0,39,41,8,74487,270401
9162,9,2021/07/25 00:00:00+00,0,18,39,3,74505,270402
9162,9,2021/07/26 00:00:00+00,0,67,64,10,74572,270403
9162,9,2021/07/27 00:00:00+00,0,88,49,15,74660,270404
9162,9,2021/07/28 00:00:00+00,0,59,39,18,74719,270405
9162,9,2021/07/29 00:00:00+00,0,71,39,19,74790,270406
9162,9,2021/07/30 00:00:00+00,0,63,42,16,74853,270407
9162,9,2021/07/31 00:00:00+00,0,59,48,12,74912,270408
9162,9,2021/08/01 00:00:00+00,0,25,38,5,74937,270409
9162,9,2021/08/02 00:00:00+00,0,56,61,13,74993,270410
9162,9,2021/08/03 00:00:00+00,0,62,50,9,75055,270411
9162,9,2021/08/04 00:00:00+00,0,67,59,13,75122,270412
9162,9,2021/08/05 00:00:00+00,0,46,44,9,75168,270413
9162,9,2021/08/06 00:00:00+00,0,104,46,22,75272,270414
9162,9,2021/08/07 00:00:00+00,0,46,47,9,75318,270415
9162,9,2021/08/08 00:00:00+00,0,19,58,5,75337,270416
9162,9,2021/08/09 00:00:00+00,0,67,80,15,75404,270417
9162,9,2021/08/10 00:00:00+00,0,116,60,19,75520,270418
9162,9,2021/08/11 00:00:00+00,0,78,70,12,75598,270419
9162,9,2021/08/12 00:00:00+00,0,72,74,15,75670,270420
9162,9,2021/08/13 00:00:00+00,0,59,79,8,75729,270421
9162,9,2021/08/14 00:00:00+00,0,77,73,17,75806,270422
9162,9,2021/08/15 00:00:00+00,0,46,80,8,75852,270423
9162,9,2021/08/16 00:00:00+00,0,116,122,23,75968,270424
9162,9,2021/08/17 00:00:00+00,0,149,86,35,76117,270425
9162,9,2021/08/18 00:00:00+00,0,142,101,36,76259,270426
9162,9,2021/08/19 00:00:00+00,0,122,84,39,76381,270427
9162,9,2021/08/20 00:00:00+00,0,178,83,67,76559,270428
9162,9,2021/08/21 00:00:00+00,0,128,109,51,76687,270429
9162,9,2021/08/22 00:00:00+00,0,68,100,19,76755,270430
9162,9,2021/08/23 00:00:00+00,0,182,133,61,76937,270431
9162,9,2021/08/24 00:00:00+00,0,272,103,104,77209,270432
9162,9,2021/08/25 00:00:00+00,0,249,135,137,77458,270433
9162,9,2021/08/26 00:00:00+00,0,270,109,133,77728,270434
9162,9,2021/08/27 00:00:00+00,0,169,107,99,77897,270435
9162,9,2021/08/28 00:00:00+00,0,201,123,100,78098,270436
9162,9,2021/08/29 00:00:00+00,0,120,104,67,78218,270437
9162,9,2021/08/30 00:00:00+00,0,279,137,134,78497,270438
9162,9,2021/08/31 00:00:00+00,0,338,129,178,78835,270439
9162,9,2021/09/01 00:00:00+00,0,306,123,188,79141,270440
9162,9,2021/09/02 00:00:00+00,0,335,145,168,79476,270441
9162,9,2021/09/03 00:00:00+00,0,253,144,137,79729,270442
9162,9,2021/09/04 00:00:00+00,0,206,138,113,79935,270443
9162,9,2021/09/05 00:00:00+00,0,120,123,65,80055,270444
9162,9,2021/09/06 00:00:00+00,0,223,169,87,80278,270445
9162,9,2021/09/07 00:00:00+00,0,340,160,121,80618,270446
9162,9,2021/09/08 00:00:00+00,0,337,171,142,80955,270447
9162,9,2021/09/09 00:00:00+00,0,279,153,106,81234,270448
9162,9,2021/09/10 00:00:00+00,0,254,167,115,81488,270449
9162,9,2021/09/11 00:00:00+00,0,222,160,83,81710,270450
9162,9,2020/11/16 00:00:00+00,0,215,32,193,24185,270451
9162,9,2020/11/17 00:00:00+00,0,575,37,537,24760,270452
9162,9,2020/11/18 00:00:00+00,0,520,29,478,25280,270453
9162,9,2020/11/19 00:00:00+00,0,668,35,624,25948,270454
9162,9,2020/08/08 00:00:00+00,0,8,19,5,7453,270455
9162,9,2020/11/20 00:00:00+00,0,491,41,467,26439,270456
9162,9,2020/11/21 00:00:00+00,0,293,33,271,26732,270457
9162,9,2020/11/22 00:00:00+00,0,231,45,210,26963,270458
9162,9,2021/02/24 00:00:00+00,0,119,18,83,53607,270459
9162,9,2020/08/09 00:00:00+00,0,2,21,1,7455,270460
9162,9,2020/09/27 00:00:00+00,0,43,30,27,11322,270461
9162,9,2020/11/23 00:00:00+00,0,355,53,335,27318,270462
9162,9,2021/02/25 00:00:00+00,0,84,39,50,53691,270463
9162,9,2020/08/10 00:00:00+00,0,29,31,13,7484,270464
9162,9,2020/09/28 00:00:00+00,0,106,47,67,11428,270465
9162,9,2020/11/24 00:00:00+00,0,497,59,455,27815,270466
9162,9,2021/02/26 00:00:00+00,0,126,42,87,53817,270467
9162,9,2020/08/11 00:00:00+00,0,43,28,26,7527,270468
9162,9,2020/09/29 00:00:00+00,0,85,34,49,11513,270469
9162,9,2020/11/25 00:00:00+00,0,491,79,439,28306,270470
9162,9,2021/02/27 00:00:00+00,0,70,38,52,53887,270471
9162,9,2020/08/12 00:00:00+00,0,44,24,28,7571,270472
9162,9,2020/09/30 00:00:00+00,0,81,48,45,11594,270473
9162,9,2020/11/26 00:00:00+00,0,620,72,552,28926,270474
9162,9,2021/02/28 00:00:00+00,0,45,33,35,53932,270475
9162,9,2020/08/13 00:00:00+00,0,55,28,33,7626,270476
9162,9,2020/10/01 00:00:00+00,0,83,33,34,11677,270477
9162,9,2020/11/27 00:00:00+00,0,103,62,94,29029,270478
9162,9,2021/03/01 00:00:00+00,0,75,41,51,54007,270479
9162,9,2020/08/14 00:00:00+00,0,55,22,27,7681,270480
9162,9,2020/10/02 00:00:00+00,0,64,49,36,11741,270481
9162,9,2020/10/03 00:00:00+00,0,99,36,49,11840,270482
9162,9,2020/10/04 00:00:00+00,0,23,34,5,11863,270483
9162,9,2020/10/05 00:00:00+00,0,63,48,41,11926,270484
9162,9,2020/10/06 00:00:00+00,0,119,50,66,12045,270485
9162,9,2020/10/07 00:00:00+00,0,129,52,74,12174,270486
9162,9,2020/10/08 00:00:00+00,0,139,62,73,12313,270487
9162,9,2020/10/09 00:00:00+00,0,159,60,102,12472,270488
9162,9,2020/10/10 00:00:00+00,0,93,49,44,12565,270489
9162,9,2020/10/11 00:00:00+00,0,54,66,39,12619,270490
9162,9,2020/10/12 00:00:00+00,0,112,78,68,12731,270491
9162,9,2020/10/13 00:00:00+00,0,156,86,92,12887,270492
9162,9,2020/10/14 00:00:00+00,0,173,98,92,13060,270493
9162,9,2020/10/15 00:00:00+00,0,192,75,97,13252,270494
9162,9,2020/10/16 00:00:00+00,0,198,82,108,13450,270495
9162,9,2020/10/17 00:00:00+00,0,177,85,94,13627,270496
9162,9,2020/10/18 00:00:00+00,0,94,66,55,13721,270497
9162,9,2020/10/19 00:00:00+00,0,134,86,67,13855,270498
9162,9,2020/10/20 00:00:00+00,0,194,78,107,14049,270499
9162,9,2020/10/21 00:00:00+00,0,318,75,206,14367,270500
9162,9,2020/10/22 00:00:00+00,0,319,75,233,14686,270501
9162,9,2020/10/23 00:00:00+00,0,240,79,181,14926,270502
9162,9,2020/10/24 00:00:00+00,0,215,75,182,15141,270503
9162,9,2020/10/25 00:00:00+00,0,289,76,236,15430,270504
9162,9,2020/10/26 00:00:00+00,0,227,95,186,15657,270505
9162,9,2020/10/27 00:00:00+00,0,328,66,273,15985,270506
9162,9,2020/10/28 00:00:00+00,0,359,90,281,16344,270507
9162,9,2020/10/29 00:00:00+00,0,457,67,338,16801,270508
9162,9,2020/10/30 00:00:00+00,0,366,71,266,17167,270509
9162,9,2020/10/31 00:00:00+00,0,202,68,141,17369,270510
9162,9,2020/11/01 00:00:00+00,0,258,73,192,17627,270511
9162,9,2020/11/02 00:00:00+00,0,331,107,247,17958,270512
9162,9,2020/11/03 00:00:00+00,0,498,85,403,18456,270513
9162,9,2020/11/04 00:00:00+00,0,359,76,318,18815,270514
9162,9,2020/11/05 00:00:00+00,0,430,88,350,19245,270515
9162,9,2020/11/06 00:00:00+00,0,632,92,515,19877,270516
9162,9,2020/11/07 00:00:00+00,0,501,59,380,20378,270517
9162,9,2020/11/08 00:00:00+00,0,318,63,254,20696,270518
9162,9,2020/11/09 00:00:00+00,0,447,69,353,21143,270519
9162,9,2020/11/10 00:00:00+00,0,560,50,413,21703,270520
9162,9,2020/11/11 00:00:00+00,0,610,56,472,22313,270521
9162,9,2020/11/12 00:00:00+00,0,544,33,488,22857,270522
9162,9,2020/11/13 00:00:00+00,0,415,44,360,23272,270523
9162,9,2021/01/05 00:00:00+00,0,463,63,367,46028,270524
9162,9,2020/11/14 00:00:00+00,0,500,27,460,23772,270525
9162,9,2020/11/15 00:00:00+00,0,198,28,185,23970,270526
9162,9,2021/06/04 00:00:00+00,0,39,32,13,72781,270527
9162,9,2021/04/15 00:00:00+00,0,401,133,233,63635,270528
9162,9,2020/11/28 00:00:00+00,0,268,67,230,29297,270529
9162,9,2021/04/16 00:00:00+00,0,389,150,240,64024,270530
9162,9,2021/06/05 00:00:00+00,0,56,22,16,72837,270531
9162,9,2020/11/29 00:00:00+00,0,468,73,396,29765,270532
9162,9,2021/04/17 00:00:00+00,0,269,181,169,64293,270533
9162,9,2021/06/06 00:00:00+00,0,20,35,5,72857,270534
9162,9,2021/01/06 00:00:00+00,0,344,51,277,46372,270535
9162,9,2020/11/30 00:00:00+00,0,417,97,335,30182,270536
9162,9,2020/08/15 00:00:00+00,0,27,19,14,7708,270537
9162,9,2021/03/02 00:00:00+00,0,160,45,113,54167,270538
9162,9,2021/04/18 00:00:00+00,0,184,131,106,64477,270539
9162,9,2021/06/07 00:00:00+00,0,51,33,17,72908,270540
9162,9,2021/01/07 00:00:00+00,0,380,35,316,46752,270541
9162,9,2020/12/01 00:00:00+00,0,430,91,352,30612,270542
9162,9,2020/08/16 00:00:00+00,0,48,25,37,7756,270543
9162,9,2021/03/03 00:00:00+00,0,152,43,105,54319,270544
9162,9,2021/04/19 00:00:00+00,0,247,183,128,64724,270545
9162,9,2021/06/08 00:00:00+00,0,69,22,28,72977,270546
9162,9,2021/01/08 00:00:00+00,0,515,53,444,47267,270547
9162,9,2020/12/02 00:00:00+00,0,483,94,394,31095,270548
9162,9,2020/08/17 00:00:00+00,0,86,35,50,7842,270549
9162,9,2021/03/04 00:00:00+00,0,111,48,79,54430,270550
9162,9,2021/04/20 00:00:00+00,0,538,171,293,65262,270551
9162,9,2021/06/09 00:00:00+00,0,43,27,13,73020,270552
9162,9,2021/01/09 00:00:00+00,0,369,33,332,47636,270553
9162,9,2020/12/03 00:00:00+00,0,619,106,519,31714,270554
9162,9,2020/08/18 00:00:00+00,0,61,33,33,7903,270555
9162,9,2021/03/05 00:00:00+00,0,144,44,96,54574,270556
9162,9,2021/04/21 00:00:00+00,0,421,189,204,65683,270557
9162,9,2021/06/10 00:00:00+00,0,56,26,20,73076,270558
9162,9,2021/01/10 00:00:00+00,0,140,36,130,47776,270559
9162,9,2020/12/04 00:00:00+00,0,239,98,186,31953,270560
9162,9,2020/08/19 00:00:00+00,0,88,24,53,7991,270561
9162,9,2021/03/06 00:00:00+00,0,115,48,79,54689,270562
9162,9,2021/04/22 00:00:00+00,0,369,162,181,66052,270563
9162,9,2021/06/11 00:00:00+00,0,21,20,10,73097,270564
9162,9,2021/01/11 00:00:00+00,0,204,49,184,47980,270565
9162,9,2020/12/05 00:00:00+00,0,208,105,167,32161,270566
9162,9,2020/08/20 00:00:00+00,0,86,16,56,8077,270567
9162,9,2021/03/07 00:00:00+00,0,61,32,37,54750,270568
9162,9,2021/04/23 00:00:00+00,0,346,150,174,66398,270569
9162,9,2021/06/12 00:00:00+00,0,26,25,9,73123,270570
9162,9,2021/01/12 00:00:00+00,0,392,54,368,48372,270571
9162,9,2020/12/06 00:00:00+00,0,538,79,443,32699,270572
9162,9,2020/08/21 00:00:00+00,0,71,35,45,8148,270573
9162,9,2021/03/08 00:00:00+00,0,123,60,75,54873,270574
9162,9,2021/04/24 00:00:00+00,0,165,154,79,66563,270575
9162,9,2021/06/13 00:00:00+00,0,16,14,7,73139,270576
9162,9,2021/01/13 00:00:00+00,0,366,50,333,48738,270577
9162,9,2020/12/07 00:00:00+00,0,610,108,506,33309,270578
9162,9,2020/08/22 00:00:00+00,0,31,22,21,8179,270579
9162,9,2021/03/09 00:00:00+00,0,165,54,117,55038,270580
9162,9,2021/04/25 00:00:00+00,0,190,132,69,66753,270581
9162,9,2021/06/14 00:00:00+00,0,39,20,10,73178,270582
9162,9,2021/01/14 00:00:00+00,0,274,65,234,49012,270583
9162,9,2020/12/08 00:00:00+00,0,489,122,381,33798,270584
9162,9,2020/08/23 00:00:00+00,0,41,31,25,8220,270585
9162,9,2021/03/10 00:00:00+00,0,218,47,151,55256,270586
9162,9,2021/04/26 00:00:00+00,0,302,191,136,67055,270587
9162,9,2021/06/15 00:00:00+00,0,47,15,12,73225,270588
9162,9,2021/01/15 00:00:00+00,0,267,68,223,49279,270589
9162,9,2020/12/09 00:00:00+00,0,590,81,477,34388,270590
9162,9,2020/08/24 00:00:00+00,0,87,34,52,8307,270591
9162,9,2021/03/11 00:00:00+00,0,170,59,122,55426,270592
9162,9,2021/04/27 00:00:00+00,0,430,184,185,67485,270593
9162,9,2021/06/16 00:00:00+00,0,27,17,8,73252,270594
9162,9,2021/01/16 00:00:00+00,0,217,58,165,49496,270595
9162,9,2020/12/10 00:00:00+00,0,375,74,304,34763,270596
9162,9,2020/08/25 00:00:00+00,0,85,38,54,8392,270597
9162,9,2021/03/12 00:00:00+00,0,165,54,110,55591,270598
9162,9,2021/04/28 00:00:00+00,0,400,129,192,67885,270599
9162,9,2021/06/17 00:00:00+00,0,29,15,16,73281,270600
9162,9,2021/01/17 00:00:00+00,0,86,65,75,49582,270601
9162,9,2020/12/11 00:00:00+00,0,593,97,490,35356,270602
9162,9,2020/08/26 00:00:00+00,0,105,36,69,8497,270603
9162,9,2021/03/13 00:00:00+00,0,104,58,72,55695,270604
9162,9,2021/04/29 00:00:00+00,0,301,92,138,68186,270605
9162,9,2021/06/18 00:00:00+00,0,21,17,9,73302,270606
9162,9,2021/01/18 00:00:00+00,0,135,78,106,49717,270607
9162,9,2020/12/12 00:00:00+00,0,383,96,322,35739,270608
9162,9,2020/08/27 00:00:00+00,0,108,19,55,8605,270609
9162,9,2020/08/28 00:00:00+00,0,65,26,44,8670,270610
9162,9,2020/08/29 00:00:00+00,0,53,15,29,8723,270611
9162,9,2020/08/30 00:00:00+00,0,26,17,17,8749,270612
9162,9,2020/08/31 00:00:00+00,0,71,29,35,8820,270613
9162,9,2020/09/01 00:00:00+00,0,83,45,59,8903,270614
9162,9,2020/09/02 00:00:00+00,0,69,31,47,8972,270615
9162,9,2020/09/03 00:00:00+00,0,88,36,51,9060,270616
9162,9,2020/09/04 00:00:00+00,0,116,35,81,9176,270617
9162,9,2020/09/05 00:00:00+00,0,104,30,66,9280,270618
9162,9,2020/09/06 00:00:00+00,0,61,28,38,9341,270619
9162,9,2020/09/07 00:00:00+00,0,92,58,55,9433,270620
9162,9,2020/09/08 00:00:00+00,0,91,54,57,9524,270621
9162,9,2020/09/09 00:00:00+00,0,118,45,69,9642,270622
9162,9,2020/09/10 00:00:00+00,0,100,50,50,9742,270623
9162,9,2020/09/11 00:00:00+00,0,74,55,32,9816,270624
9162,9,2020/09/12 00:00:00+00,0,61,32,22,9877,270625
9162,9,2020/09/13 00:00:00+00,0,49,43,23,9926,270626
9162,9,2020/09/14 00:00:00+00,0,100,76,49,10026,270627
9162,9,2020/09/15 00:00:00+00,0,168,54,96,10194,270628
9162,9,2020/09/16 00:00:00+00,0,150,51,84,10344,270629
9162,9,2020/09/17 00:00:00+00,0,140,52,64,10484,270630
9162,9,2020/09/18 00:00:00+00,0,129,31,61,10613,270631
9162,9,2020/09/19 00:00:00+00,0,77,20,48,10690,270632
9162,9,2020/09/20 00:00:00+00,0,60,29,23,10750,270633
9162,9,2020/09/21 00:00:00+00,0,97,38,65,10847,270634
9162,9,2020/09/22 00:00:00+00,0,93,30,67,10940,270635
9162,9,2020/09/23 00:00:00+00,0,107,31,63,11047,270636
9162,9,2020/09/24 00:00:00+00,0,90,39,46,11137,270637
9162,9,2020/09/25 00:00:00+00,0,68,29,39,11205,270638
9162,9,2020/09/26 00:00:00+00,0,74,29,49,11279,270639
9162,9,2021/01/19 00:00:00+00,0,238,80,181,49955,270640
9162,9,2020/12/13 00:00:00+00,0,394,68,336,36133,270641
9162,9,2021/01/20 00:00:00+00,0,252,48,185,50207,270642
9162,9,2021/06/19 00:00:00+00,0,15,14,3,73317,270643
9162,9,2021/04/30 00:00:00+00,0,274,145,130,68460,270644
9162,9,2021/03/14 00:00:00+00,0,88,48,65,55783,270645
9162,9,2020/12/14 00:00:00+00,0,526,102,420,36659,270646
9162,9,2021/01/21 00:00:00+00,0,176,58,127,50383,270647
9162,9,2021/06/20 00:00:00+00,0,7,15,2,73324,270648
9162,9,2021/05/01 00:00:00+00,0,185,137,101,68645,270649
9162,9,2021/03/15 00:00:00+00,0,144,64,106,55927,270650
9162,9,2020/12/15 00:00:00+00,0,870,76,727,37529,270651
9162,9,2021/01/22 00:00:00+00,0,178,50,138,50561,270652
9162,9,2021/06/21 00:00:00+00,0,11,25,3,73335,270653
9162,9,2021/05/02 00:00:00+00,0,180,111,71,68825,270654
9162,9,2021/03/16 00:00:00+00,0,201,80,141,56128,270655
9162,9,2020/12/16 00:00:00+00,0,644,74,534,38173,270656
9162,9,2021/01/23 00:00:00+00,0,131,45,89,50692,270657
9162,9,2021/06/22 00:00:00+00,0,43,15,7,73378,270658
9162,9,2021/05/03 00:00:00+00,0,175,148,60,69000,270659
9162,9,2021/03/17 00:00:00+00,0,235,56,144,56363,270660
9162,9,2020/12/17 00:00:00+00,0,815,77,682,38988,270661
9162,9,2021/01/24 00:00:00+00,0,60,60,48,50752,270662
9162,9,2021/06/23 00:00:00+00,0,23,21,5,73401,270663
9162,9,2021/05/04 00:00:00+00,0,298,133,98,69298,270664
9162,9,2021/03/18 00:00:00+00,0,208,60,137,56571,270665
9162,9,2020/12/18 00:00:00+00,0,704,70,601,39692,270666
9162,9,2021/01/25 00:00:00+00,0,92,80,61,50844,270667
9162,9,2021/06/24 00:00:00+00,0,22,17,6,73423,270668
9162,9,2021/05/05 00:00:00+00,0,354,139,134,69652,270669
9162,9,2021/03/19 00:00:00+00,0,223,51,154,56794,270670
9162,9,2020/12/19 00:00:00+00,0,600,64,510,40292,270671
9162,9,2021/01/26 00:00:00+00,0,197,51,141,51041,270672
9162,9,2021/06/25 00:00:00+00,0,21,11,5,73444,270673
9162,9,2021/05/06 00:00:00+00,0,261,103,116,69913,270674
9162,9,2021/03/20 00:00:00+00,0,147,54,102,56941,270675
9162,9,2020/12/20 00:00:00+00,0,208,63,178,40500,270676
9162,9,2021/01/27 00:00:00+00,0,173,62,122,51214,270677
9162,9,2021/06/26 00:00:00+00,0,16,12,4,73460,270678
9162,9,2021/05/07 00:00:00+00,0,181,99,70,70094,270679
9162,9,2021/03/21 00:00:00+00,0,134,58,101,57075,270680
9162,9,2020/12/21 00:00:00+00,0,265,77,213,40765,270681
9162,9,2021/01/28 00:00:00+00,0,133,70,93,51347,270682
9162,9,2021/06/27 00:00:00+00,0,18,12,4,73478,270683
9162,9,2021/05/08 00:00:00+00,0,126,93,47,70220,270684
9162,9,2021/03/22 00:00:00+00,0,101,79,76,57176,270685
9162,9,2020/12/22 00:00:00+00,0,363,58,322,41128,270686
9162,9,2021/01/29 00:00:00+00,0,140,59,93,51487,270687
9162,9,2021/06/28 00:00:00+00,0,32,34,11,73510,270688
9162,9,2021/05/09 00:00:00+00,0,70,76,27,70290,270689
9162,9,2021/03/23 00:00:00+00,0,239,59,160,57415,270690
9162,9,2020/12/23 00:00:00+00,0,604,74,505,41732,270691
9162,9,2021/01/30 00:00:00+00,0,113,42,79,51600,270692
9162,9,2021/06/29 00:00:00+00,0,33,25,8,73543,270693
9162,9,2021/05/10 00:00:00+00,0,131,108,48,70421,270694
9162,9,2021/03/24 00:00:00+00,0,278,72,198,57693,270695
9162,9,2020/12/24 00:00:00+00,0,289,59,246,42021,270696
9162,9,2021/01/31 00:00:00+00,0,47,44,24,51647,270697
9162,9,2021/06/30 00:00:00+00,0,38,39,7,73581,270698
9162,9,2021/05/11 00:00:00+00,0,251,91,88,70672,270699
9162,9,2021/03/25 00:00:00+00,0,265,93,193,57958,270700
9162,9,2020/12/25 00:00:00+00,0,0,44,0,42021,270701
9162,9,2021/05/12 00:00:00+00,0,191,81,70,70863,270702
9162,9,2021/07/01 00:00:00+00,0,22,14,6,73603,270703
9162,9,2021/02/01 00:00:00+00,0,78,32,39,51725,270704
9162,9,2021/03/26 00:00:00+00,0,296,76,206,58254,270705
9162,9,2020/12/26 00:00:00+00,0,586,54,471,42607,270706
9162,9,2021/05/13 00:00:00+00,0,109,72,39,70972,270707
9162,9,2021/07/02 00:00:00+00,0,33,25,6,73636,270708
9162,9,2021/02/02 00:00:00+00,0,100,37,70,51825,270709
9162,9,2021/03/27 00:00:00+00,0,182,89,127,58436,270710
9162,9,2020/12/27 00:00:00+00,0,357,57,299,42964,270711
9162,9,2021/05/14 00:00:00+00,0,131,79,43,71103,270712
9162,9,2021/07/03 00:00:00+00,0,18,20,7,73654,270713
9162,9,2021/02/03 00:00:00+00,0,110,40,71,51935,270714
9162,9,2021/03/28 00:00:00+00,0,110,64,81,58546,270715
9162,9,2020/12/28 00:00:00+00,0,228,81,186,43192,270716
9162,9,2021/05/15 00:00:00+00,0,58,67,20,71161,270717
9162,9,2021/07/04 00:00:00+00,0,11,17,3,73665,270718
9162,9,2021/02/04 00:00:00+00,0,132,34,92,52067,270719
9162,9,2021/03/29 00:00:00+00,0,167,104,100,58713,270720
9162,9,2020/12/29 00:00:00+00,0,538,54,445,43730,270721
9162,9,2021/05/16 00:00:00+00,0,100,81,36,71261,270722
9162,9,2021/07/05 00:00:00+00,0,22,27,1,73687,270723
9162,9,2021/02/05 00:00:00+00,0,141,35,91,52208,270724
9162,9,2021/03/30 00:00:00+00,0,289,108,193,59002,270725
9162,9,2020/12/30 00:00:00+00,0,648,70,528,44378,270726
9162,9,2021/05/17 00:00:00+00,0,119,76,52,71380,270727
9162,9,2021/07/06 00:00:00+00,0,34,43,7,73721,270728
9162,9,2021/02/06 00:00:00+00,0,68,27,42,52276,270729
9162,9,2021/03/31 00:00:00+00,0,313,88,208,59315,270730
9162,9,2020/12/31 00:00:00+00,0,346,51,285,44724,270731
9162,9,2021/05/18 00:00:00+00,0,163,65,59,71543,270732
9162,9,2021/07/07 00:00:00+00,0,22,21,3,73743,270733
9162,9,2021/02/07 00:00:00+00,0,30,18,20,52306,270734
9162,9,2021/02/08 00:00:00+00,0,71,38,51,52377,270735
9162,9,2021/02/09 00:00:00+00,0,146,37,92,52523,270736
9162,9,2021/02/10 00:00:00+00,0,100,25,59,52623,270737
9162,9,2021/02/11 00:00:00+00,0,94,28,71,52717,270738
9162,9,2021/02/12 00:00:00+00,0,74,27,45,52791,270739
9162,9,2021/02/13 00:00:00+00,0,44,33,26,52835,270740
9162,9,2021/02/14 00:00:00+00,0,19,21,11,52854,270741
9162,9,2021/02/15 00:00:00+00,0,60,44,46,52914,270742
9162,9,2021/02/16 00:00:00+00,0,33,20,24,52947,270743
9162,9,2021/02/17 00:00:00+00,0,116,30,57,53063,270744
9162,9,2021/02/18 00:00:00+00,0,107,31,65,53170,270745
9162,9,2021/02/19 00:00:00+00,0,80,26,57,53250,270746
9162,9,2021/02/20 00:00:00+00,0,64,23,34,53314,270747
9162,9,2021/02/21 00:00:00+00,0,23,27,12,53337,270748
9162,9,2021/02/22 00:00:00+00,0,60,35,43,53397,270749
9162,9,2021/02/23 00:00:00+00,0,91,25,56,53488,270750
9162,9,2021/01/01 00:00:00+00,0,1,55,0,44725,270751
9162,9,2021/04/01 00:00:00+00,0,253,113,125,59568,270752
9162,9,2021/07/08 00:00:00+00,0,45,32,11,73788,270753
9162,9,2021/05/19 00:00:00+00,0,143,66,51,71686,270754
9162,9,2021/01/02 00:00:00+00,0,337,71,276,45062,270755
9162,9,2021/04/02 00:00:00+00,0,181,90,95,59749,270756
9162,9,2021/07/09 00:00:00+00,0,37,24,4,73825,270757
9162,9,2021/05/20 00:00:00+00,0,155,42,55,71841,270758
9162,9,2021/01/03 00:00:00+00,0,217,86,161,45279,270759
9162,9,2021/04/03 00:00:00+00,0,123,106,65,59872,270760
9162,9,2021/07/10 00:00:00+00,0,20,20,6,73845,270761
9162,9,2021/05/21 00:00:00+00,0,83,38,35,71924,270762
9162,9,2021/01/04 00:00:00+00,0,286,73,215,45565,270763
9162,9,2021/04/04 00:00:00+00,0,118,116,57,59990,270764
9162,9,2021/07/11 00:00:00+00,0,14,38,1,73859,270765
9162,9,2021/05/22 00:00:00+00,0,60,49,23,71984,270766
9162,9,2021/04/05 00:00:00+00,0,88,135,48,60078,270767
9162,9,2021/07/12 00:00:00+00,0,36,41,11,73895,270768
9162,9,2021/05/23 00:00:00+00,0,37,48,13,72021,270769
9162,9,2021/04/06 00:00:00+00,0,265,143,148,60343,270770
9162,9,2021/07/13 00:00:00+00,0,52,33,12,73947,270771
9162,9,2021/05/24 00:00:00+00,0,54,56,32,72075,270772
9162,9,2021/04/07 00:00:00+00,0,426,131,239,60769,270773
9162,9,2021/07/14 00:00:00+00,0,49,43,8,73996,270774
9162,9,2021/05/25 00:00:00+00,0,91,45,40,72166,270775
9162,9,2021/04/08 00:00:00+00,0,348,119,197,61117,270776
9162,9,2021/07/15 00:00:00+00,0,53,28,9,74049,270777
9162,9,2021/05/26 00:00:00+00,0,103,49,28,72269,270778
9162,9,2021/04/09 00:00:00+00,0,304,132,178,61421,270779
9162,9,2021/07/16 00:00:00+00,0,48,42,7,74097,270780
9162,9,2021/05/27 00:00:00+00,0,63,46,26,72332,270781
9162,9,2021/04/10 00:00:00+00,0,282,157,162,61703,270782
9162,9,2021/07/17 00:00:00+00,0,20,30,7,74117,270783
9162,9,2021/05/28 00:00:00+00,0,94,40,32,72426,270784
9162,9,2021/04/11 00:00:00+00,0,245,114,142,61948,270785
9162,9,2021/07/18 00:00:00+00,0,19,34,4,74136,270786
9162,9,2021/05/29 00:00:00+00,0,39,27,18,72465,270787
9162,9,2021/04/12 00:00:00+00,0,292,156,172,62240,270788
9162,9,2021/07/19 00:00:00+00,0,57,62,11,74193,270789
9162,9,2021/05/30 00:00:00+00,0,45,22,21,72510,270790
9162,9,2021/04/13 00:00:00+00,0,471,121,295,62711,270791
9162,9,2021/07/20 00:00:00+00,0,56,68,10,74249,270792
9162,9,2021/05/31 00:00:00+00,0,45,29,15,72555,270793
9162,9,2021/04/14 00:00:00+00,0,523,140,349,63234,270794
9162,9,2021/07/21 00:00:00+00,0,68,49,7,74317,270795
9162,9,2021/06/01 00:00:00+00,0,93,26,45,72648,270796
9162,9,2021/07/22 00:00:00+00,0,69,41,11,74386,270797
9162,9,2021/06/02 00:00:00+00,0,63,35,30,72711,270798
9162,9,2021/07/23 00:00:00+00,0,62,45,8,74448,270799
9162,9,2021/06/03 00:00:00+00,0,31,24,17,72742,270800
9162,9,2022/07/09 00:00:00+00,0,36,472,29,570057,270801
9162,9,2022/07/10 00:00:00+00,0,26,569,17,570083,270802
9162,9,2022/07/11 00:00:00+00,0,2603,637,1860,572686,270803
9162,9,2022/07/12 00:00:00+00,0,2894,569,2131,575580,270804
9162,9,2022/07/13 00:00:00+00,0,2449,576,1770,578029,270805
9162,9,2022/07/14 00:00:00+00,0,2173,572,1535,580202,270806
9162,9,2022/07/15 00:00:00+00,0,2336,540,1702,582538,270807
9162,9,2022/07/16 00:00:00+00,0,5,552,4,582543,270808
9162,9,2022/07/17 00:00:00+00,0,8,614,5,582551,270809
9162,9,2022/07/18 00:00:00+00,0,2900,578,2097,585451,270810
9162,9,2022/07/19 00:00:00+00,0,3138,584,2133,588589,270811
9162,9,2022/07/20 00:00:00+00,0,3115,507,2228,591704,270812
9162,9,2022/07/21 00:00:00+00,0,2803,446,2056,594507,270813
9162,9,2022/07/22 00:00:00+00,0,2103,398,1461,596610,270814
9162,9,2022/07/23 00:00:00+00,0,8,380,6,596618,270815
9162,9,2022/07/24 00:00:00+00,0,18,322,15,596636,270816
9162,9,2022/07/25 00:00:00+00,0,2599,320,1912,599235,270817
9162,9,2022/07/26 00:00:00+00,0,2204,292,1537,601439,270818
9162,9,2022/07/27 00:00:00+00,0,2458,199,1842,603897,270819
9162,9,2022/07/28 00:00:00+00,0,1609,159,1203,605506,270820
9162,9,2022/07/29 00:00:00+00,0,1185,152,971,606691,270821
9162,9,2022/07/30 00:00:00+00,0,7,156,7,606698,270822
9162,9,2022/07/31 00:00:00+00,0,7,135,6,606705,270823
9162,9,2022/08/01 00:00:00+00,0,1930,166,1525,608635,270824
9162,9,2022/08/02 00:00:00+00,0,1354,139,1117,609989,270825
9162,9,2022/08/03 00:00:00+00,0,1013,103,829,611002,270826
9162,9,2022/08/04 00:00:00+00,0,763,98,654,611765,270827
9162,9,2022/08/05 00:00:00+00,0,794,76,667,612559,270828
9162,9,2022/08/06 00:00:00+00,0,12,111,10,612571,270829
9162,9,2022/08/07 00:00:00+00,0,5,82,2,612576,270830
9162,9,2022/08/08 00:00:00+00,0,1290,124,1065,613866,270831
9162,9,2022/08/09 00:00:00+00,0,792,98,654,614658,270832
9162,9,2022/08/10 00:00:00+00,0,595,84,473,615253,270833
9162,9,2022/08/11 00:00:00+00,0,564,53,456,615817,270834
9162,9,2022/08/12 00:00:00+00,0,537,77,451,616354,270835
9162,9,2022/08/13 00:00:00+00,0,1,82,1,616355,270836
9162,9,2022/08/14 00:00:00+00,0,0,70,0,616355,270837
9162,9,2022/08/15 00:00:00+00,0,5,105,2,616360,270838
9162,9,2022/08/16 00:00:00+00,0,1158,105,928,617518,270839
9162,9,2022/08/17 00:00:00+00,0,807,81,666,618325,270840
9162,9,2022/08/18 00:00:00+00,0,622,75,506,618947,270841
9162,9,2022/08/19 00:00:00+00,0,491,83,414,619438,270842
9162,9,2022/08/20 00:00:00+00,0,1,60,1,619439,270843
9162,9,2022/08/21 00:00:00+00,0,1,82,0,619440,270844
9162,9,2022/08/22 00:00:00+00,0,747,93,578,620187,270845
9162,9,2022/08/23 00:00:00+00,0,649,80,529,620836,270846
9162,9,2022/08/24 00:00:00+00,0,493,97,409,621329,270847
9162,9,2022/08/25 00:00:00+00,0,537,80,417,621866,270848
9162,9,2022/08/26 00:00:00+00,0,380,83,315,622246,270849
9162,9,2022/08/28 00:00:00+00,0,0,88,0,622247,270850
9162,9,2022/08/27 00:00:00+00,0,1,72,1,622247,270851
9162,9,2022/08/29 00:00:00+00,0,920,80,694,623167,270852
9162,9,2022/08/30 00:00:00+00,0,630,78,503,623797,270853
9162,9,2022/08/31 00:00:00+00,0,509,66,415,624306,270854
9162,9,2022/09/01 00:00:00+00,0,407,62,331,624713,270855
9162,9,2021/11/01 00:00:00+00,0,326,412,146,97635,270856
9162,9,2022/09/02 00:00:00+00,0,354,56,296,625067,270857
9162,9,2022/09/03 00:00:00+00,0,9,78,8,625076,270858
9162,9,2022/09/04 00:00:00+00,0,8,69,5,625084,270859
9162,9,2022/09/05 00:00:00+00,0,858,87,696,625942,270860
9162,9,2022/09/06 00:00:00+00,0,628,95,530,626570,270861
9162,9,2022/09/07 00:00:00+00,0,479,81,394,627049,270862
9162,9,2022/09/08 00:00:00+00,0,418,67,333,627467,270863
9162,9,2022/09/09 00:00:00+00,0,416,71,346,627883,270864
9162,9,2022/09/10 00:00:00+00,0,6,83,5,627889,270865
9162,9,2022/09/11 00:00:00+00,0,14,82,11,627903,270866
9162,9,2022/09/12 00:00:00+00,0,831,87,643,628734,270867
9162,9,2022/09/13 00:00:00+00,0,683,111,568,629417,270868
9162,9,2022/09/14 00:00:00+00,0,590,110,476,630007,270869
9162,9,2022/09/15 00:00:00+00,0,619,101,507,630626,270870
9162,9,2022/09/16 00:00:00+00,0,520,127,444,631146,270871
9162,9,2022/09/17 00:00:00+00,0,1,121,1,631147,270872
9162,9,2022/09/18 00:00:00+00,0,13,118,9,631160,270873
9162,9,2022/09/19 00:00:00+00,0,1203,163,898,632363,270874
9162,9,2022/09/20 00:00:00+00,0,890,171,718,633253,270875
9162,9,2022/09/21 00:00:00+00,0,806,224,654,634059,270876
9162,9,2022/09/22 00:00:00+00,0,909,212,751,634968,270877
9162,9,2022/09/23 00:00:00+00,0,1088,223,888,636056,270878
9162,9,2022/09/24 00:00:00+00,0,979,220,777,637035,270879
9162,9,2022/09/25 00:00:00+00,0,28,103,24,637063,270880
9162,9,2022/09/26 00:00:00+00,0,1993,86,1488,639056,270881
9162,9,2022/09/27 00:00:00+00,0,3042,79,2922,642098,270882
9162,9,2022/09/28 00:00:00+00,0,3146,56,3060,645244,270883
9162,9,2022/09/29 00:00:00+00,0,1994,55,1938,647238,270884
9162,9,2022/09/30 00:00:00+00,0,1880,55,1846,649118,270885
9162,9,2022/10/01 00:00:00+00,0,1558,66,1529,650676,270886
9162,9,2022/10/02 00:00:00+00,0,28,65,25,650704,270887
9162,9,2022/10/03 00:00:00+00,0,71,91,70,650775,270888
9162,9,2022/10/04 00:00:00+00,0,3019,89,2871,653794,270889
9162,9,2022/10/05 00:00:00+00,0,5964,73,5816,659758,270890
9162,9,2022/10/06 00:00:00+00,0,4180,43,4060,663938,270891
9162,9,2022/10/07 00:00:00+00,0,2839,59,2786,666777,270892
9162,9,2022/10/08 00:00:00+00,0,1560,51,1546,668337,270893
9162,9,2022/10/09 00:00:00+00,0,2268,40,2224,670605,270894
9162,9,2022/10/10 00:00:00+00,0,3220,52,3132,673825,270895
9162,9,2022/10/11 00:00:00+00,0,2742,44,2659,676567,270896
9162,9,2022/10/12 00:00:00+00,0,1981,36,1909,678548,270897
9162,9,2022/10/13 00:00:00+00,0,1576,37,1529,680124,270898
9162,9,2022/10/14 00:00:00+00,0,1335,25,1292,681459,270899
9162,9,2022/10/15 00:00:00+00,0,973,18,950,682432,270900
9162,9,2022/10/16 00:00:00+00,0,2,23,2,682434,270901
9162,9,2022/02/09 00:00:00+00,0,5067,842,3621,271239,270902
9162,9,2022/03/31 00:00:00+00,0,4012,485,3062,445445,270903
9162,9,2022/05/20 00:00:00+00,0,772,184,500,520268,270904
9162,9,2022/05/21 00:00:00+00,0,439,177,274,520707,270905
9162,9,2022/05/22 00:00:00+00,0,313,194,182,521020,270906
9162,9,2022/05/23 00:00:00+00,0,542,186,341,521562,270907
9162,9,2022/02/10 00:00:00+00,0,4674,726,3504,275913,270908
9162,9,2022/05/24 00:00:00+00,0,777,228,530,522339,270909
9162,9,2021/11/02 00:00:00+00,0,673,461,312,98308,270910
9162,9,2022/02/11 00:00:00+00,0,3746,824,2845,279659,270911
9162,9,2022/05/25 00:00:00+00,0,590,214,357,522929,270912
9162,9,2021/11/03 00:00:00+00,0,874,442,368,99182,270913
9162,9,2022/02/12 00:00:00+00,0,1661,844,1230,281320,270914
9162,9,2022/05/26 00:00:00+00,0,451,170,289,523380,270915
9162,9,2021/11/04 00:00:00+00,0,423,381,222,99605,270916
9162,9,2022/02/13 00:00:00+00,0,2025,823,1449,283345,270917
9162,9,2022/05/27 00:00:00+00,0,333,168,187,523713,270918
9162,9,2021/11/05 00:00:00+00,0,243,403,109,99848,270919
9162,9,2022/02/14 00:00:00+00,0,2562,1065,1727,285907,270920
9162,9,2022/05/28 00:00:00+00,0,547,186,322,524260,270921
9162,9,2021/11/06 00:00:00+00,0,118,378,60,99966,270922
9162,9,2022/02/15 00:00:00+00,0,3684,966,2652,289591,270923
9162,9,2022/05/29 00:00:00+00,0,313,192,180,524573,270924
9162,9,2021/11/07 00:00:00+00,0,83,374,37,100049,270925
9162,9,2022/02/16 00:00:00+00,0,4643,873,3358,294234,270926
9162,9,2022/05/30 00:00:00+00,0,393,230,251,524966,270927
9162,9,2021/11/08 00:00:00+00,0,282,501,157,100331,270928
9162,9,2022/02/17 00:00:00+00,0,4010,771,2916,298244,270929
9162,9,2022/05/31 00:00:00+00,0,871,249,583,525837,270930
9162,9,2021/11/09 00:00:00+00,0,469,498,266,100800,270931
9162,9,2022/02/18 00:00:00+00,0,3314,816,2421,301558,270932
9162,9,2022/06/01 00:00:00+00,0,743,246,487,526580,270933
9162,9,2021/11/10 00:00:00+00,0,841,468,464,101641,270934
9162,9,2022/02/19 00:00:00+00,0,1582,847,1106,303140,270935
9162,9,2022/06/02 00:00:00+00,0,623,208,409,527203,270936
9162,9,2021/11/11 00:00:00+00,0,1079,479,547,102720,270937
9162,9,2022/02/20 00:00:00+00,0,1993,790,1325,305133,270938
9162,9,2022/06/03 00:00:00+00,0,689,222,442,527892,270939
9162,9,2021/11/12 00:00:00+00,0,1313,494,724,104033,270940
9162,9,2022/02/21 00:00:00+00,0,2426,924,1630,307559,270941
9162,9,2022/06/04 00:00:00+00,0,2,273,1,527894,270942
9162,9,2021/11/13 00:00:00+00,0,1120,473,661,105153,270943
9162,9,2022/02/22 00:00:00+00,0,3498,880,2427,311057,270944
9162,9,2022/06/05 00:00:00+00,0,7,305,2,527901,270945
9162,9,2021/11/14 00:00:00+00,0,1235,491,687,106388,270946
9162,9,2022/02/23 00:00:00+00,0,3576,713,2560,314633,270947
9162,9,2022/06/06 00:00:00+00,0,8,306,2,527909,270948
9162,9,2021/11/15 00:00:00+00,0,1200,661,701,107588,270949
9162,9,2022/02/24 00:00:00+00,0,3584,605,2679,318217,270950
9162,9,2022/06/07 00:00:00+00,0,1568,335,952,529477,270951
9162,9,2021/11/16 00:00:00+00,0,2189,581,1134,109777,270952
9162,9,2022/02/25 00:00:00+00,0,2867,671,2066,321084,270953
9162,9,2022/06/08 00:00:00+00,0,1412,333,887,530889,270954
9162,9,2021/11/17 00:00:00+00,0,3308,482,1736,113085,270955
9162,9,2022/02/26 00:00:00+00,0,1449,690,1026,322533,270956
9162,9,2022/06/09 00:00:00+00,0,1140,295,708,532029,270957
9162,9,2021/11/18 00:00:00+00,0,1477,477,832,114562,270958
9162,9,2022/02/27 00:00:00+00,0,1815,694,1342,324348,270959
9162,9,2022/06/10 00:00:00+00,0,956,257,648,532985,270960
9162,9,2021/11/19 00:00:00+00,0,1225,544,689,115787,270961
9162,9,2022/02/28 00:00:00+00,0,2477,844,1713,326825,270962
9162,9,2022/06/11 00:00:00+00,0,0,277,0,532985,270963
9162,9,2021/11/20 00:00:00+00,0,680,508,367,116467,270964
9162,9,2022/03/01 00:00:00+00,0,1971,978,1357,328796,270965
9162,9,2022/06/12 00:00:00+00,0,7,283,4,532992,270966
9162,9,2021/11/21 00:00:00+00,0,973,438,538,117440,270967
9162,9,2022/03/02 00:00:00+00,0,3984,870,2827,332780,270968
9162,9,2022/06/13 00:00:00+00,0,1603,386,1033,534595,270969
9162,9,2021/11/22 00:00:00+00,0,689,478,394,118129,270970
9162,9,2022/03/03 00:00:00+00,0,3326,828,2400,336106,270971
9162,9,2022/06/14 00:00:00+00,0,1399,343,900,535994,270972
9162,9,2021/11/23 00:00:00+00,0,1446,488,819,119575,270973
9162,9,2022/03/04 00:00:00+00,0,2733,856,2006,338839,270974
9162,9,2022/06/15 00:00:00+00,0,1210,302,775,537204,270975
9162,9,2021/11/24 00:00:00+00,0,1573,442,932,121148,270976
9162,9,2022/03/05 00:00:00+00,0,1429,924,1007,340268,270977
9162,9,2022/06/16 00:00:00+00,0,2,333,2,537206,270978
9162,9,2021/11/25 00:00:00+00,0,1352,399,744,122500,270979
9162,9,2022/03/06 00:00:00+00,0,2289,1033,1606,342557,270980
9162,9,2022/06/17 00:00:00+00,0,1273,355,824,538479,270981
9162,9,2021/11/26 00:00:00+00,0,781,403,429,123281,270982
9162,9,2022/03/07 00:00:00+00,0,2630,1337,1904,345187,270983
9162,9,2022/06/18 00:00:00+00,0,15,386,10,538494,270984
9162,9,2021/11/27 00:00:00+00,0,829,391,467,124110,270985
9162,9,2021/11/28 00:00:00+00,0,782,305,454,124892,270986
9162,9,2021/11/29 00:00:00+00,0,571,405,306,125463,270987
9162,9,2021/11/30 00:00:00+00,0,1108,417,654,126571,270988
9162,9,2021/12/01 00:00:00+00,0,1499,442,847,128070,270989
9162,9,2021/12/02 00:00:00+00,0,1108,323,608,129178,270990
9162,9,2021/12/03 00:00:00+00,0,924,330,497,130102,270991
9162,9,2021/12/04 00:00:00+00,0,549,300,335,130651,270992
9162,9,2021/12/05 00:00:00+00,0,597,262,315,131248,270993
9162,9,2021/12/06 00:00:00+00,0,339,331,189,131587,270994
9162,9,2021/12/07 00:00:00+00,0,1217,266,671,132804,270995
9162,9,2021/12/08 00:00:00+00,0,833,254,455,133637,270996
9162,9,2021/12/09 00:00:00+00,0,641,199,391,134278,270997
9162,9,2021/12/10 00:00:00+00,0,553,251,315,134831,270998
9162,9,2021/12/11 00:00:00+00,0,387,185,200,135218,270999
9162,9,2021/12/12 00:00:00+00,0,266,194,161,135484,271000
9162,9,2021/12/13 00:00:00+00,0,395,239,217,135879,271001
9162,9,2021/12/14 00:00:00+00,0,765,231,418,136644,271002
9162,9,2021/12/15 00:00:00+00,0,636,211,372,137280,271003
9162,9,2021/12/16 00:00:00+00,0,476,171,286,137756,271004
9162,9,2021/12/17 00:00:00+00,0,628,175,366,138384,271005
9162,9,2021/12/18 00:00:00+00,0,225,188,136,138609,271006
9162,9,2021/12/19 00:00:00+00,0,353,175,206,138962,271007
9162,9,2021/12/20 00:00:00+00,0,350,214,211,139312,271008
9162,9,2022/04/01 00:00:00+00,0,2926,554,2248,448371,271009
9162,9,2021/09/12 00:00:00+00,0,142,126,47,81852,271010
9162,9,2021/09/13 00:00:00+00,0,227,168,73,82079,271011
9162,9,2021/09/14 00:00:00+00,0,444,136,157,82523,271012
9162,9,2021/09/15 00:00:00+00,0,373,121,183,82896,271013
9162,9,2021/09/16 00:00:00+00,0,301,149,158,83197,271014
9162,9,2021/09/17 00:00:00+00,0,293,122,128,83490,271015
9162,9,2021/09/18 00:00:00+00,0,183,98,94,83673,271016
9162,9,2021/09/19 00:00:00+00,0,105,110,51,83778,271017
9162,9,2021/09/20 00:00:00+00,0,278,157,131,84056,271018
9162,9,2021/09/21 00:00:00+00,0,315,136,158,84371,271019
9162,9,2021/09/22 00:00:00+00,0,289,129,117,84660,271020
9162,9,2021/09/23 00:00:00+00,0,275,134,116,84935,271021
9162,9,2021/09/24 00:00:00+00,0,218,156,107,85153,271022
9162,9,2021/09/25 00:00:00+00,0,164,119,68,85317,271023
9162,9,2021/09/26 00:00:00+00,0,139,123,52,85456,271024
9162,9,2021/09/27 00:00:00+00,0,274,180,99,85730,271025
9162,9,2021/09/28 00:00:00+00,0,379,169,169,86109,271026
9162,9,2021/09/29 00:00:00+00,0,271,152,121,86380,271027
9162,9,2021/09/30 00:00:00+00,0,244,131,101,86624,271028
9162,9,2021/10/01 00:00:00+00,0,281,147,118,86905,271029
9162,9,2021/10/02 00:00:00+00,0,171,129,71,87076,271030
9162,9,2021/10/03 00:00:00+00,0,132,112,56,87208,271031
9162,9,2021/10/04 00:00:00+00,0,236,168,94,87444,271032
9162,9,2021/10/05 00:00:00+00,0,320,168,139,87764,271033
9162,9,2021/10/06 00:00:00+00,0,295,132,122,88059,271034
9162,9,2021/10/07 00:00:00+00,0,291,117,123,88350,271035
9162,9,2021/10/08 00:00:00+00,0,226,139,102,88576,271036
9162,9,2021/10/09 00:00:00+00,0,190,148,85,88766,271037
9162,9,2021/10/10 00:00:00+00,0,92,148,31,88858,271038
9162,9,2021/10/11 00:00:00+00,0,164,195,65,89022,271039
9162,9,2021/10/12 00:00:00+00,0,358,207,115,89380,271040
9162,9,2021/10/13 00:00:00+00,0,333,176,122,89713,271041
9162,9,2021/10/14 00:00:00+00,0,328,196,131,90041,271042
9162,9,2021/10/15 00:00:00+00,0,396,231,173,90437,271043
9162,9,2021/10/16 00:00:00+00,0,246,177,113,90683,271044
9162,9,2021/10/17 00:00:00+00,0,132,179,53,90815,271045
9162,9,2021/10/18 00:00:00+00,0,353,238,175,91168,271046
9162,9,2021/10/19 00:00:00+00,0,596,223,289,91764,271047
9162,9,2021/10/20 00:00:00+00,0,425,246,196,92189,271048
9162,9,2021/10/21 00:00:00+00,0,522,202,258,92711,271049
9162,9,2021/10/22 00:00:00+00,0,511,217,265,93222,271050
9162,9,2021/10/23 00:00:00+00,0,357,213,171,93579,271051
9162,9,2021/10/24 00:00:00+00,0,176,218,92,93755,271052
9162,9,2021/10/25 00:00:00+00,0,456,278,230,94211,271053
9162,9,2021/10/26 00:00:00+00,0,762,296,374,94973,271054
9162,9,2021/10/27 00:00:00+00,0,551,285,264,95524,271055
9162,9,2021/10/28 00:00:00+00,0,580,294,290,96104,271056
9162,9,2021/10/29 00:00:00+00,0,659,280,304,96763,271057
9162,9,2021/10/30 00:00:00+00,0,297,336,145,97060,271058
9162,9,2021/10/31 00:00:00+00,0,249,274,117,97309,271059
9162,9,2022/03/08 00:00:00+00,0,3710,1309,2617,348897,271060
9162,9,2022/06/19 00:00:00+00,0,11,447,5,538505,271061
9162,9,2022/03/09 00:00:00+00,0,4278,1013,3105,353175,271062
9162,9,2022/06/20 00:00:00+00,0,1513,499,1006,540018,271063
9162,9,2022/04/02 00:00:00+00,0,1843,472,1429,450214,271064
9162,9,2022/03/10 00:00:00+00,0,4488,1007,3303,357663,271065
9162,9,2022/06/21 00:00:00+00,0,1820,491,1158,541838,271066
9162,9,2022/04/03 00:00:00+00,0,1584,499,1281,451798,271067
9162,9,2022/03/11 00:00:00+00,0,3995,1000,2926,361658,271068
9162,9,2021/12/21 00:00:00+00,0,641,189,358,139953,271069
9162,9,2022/06/22 00:00:00+00,0,2241,413,1397,544079,271070
9162,9,2022/04/04 00:00:00+00,0,2010,588,1550,453808,271071
9162,9,2022/03/12 00:00:00+00,0,3154,1037,2377,364812,271072
9162,9,2021/12/22 00:00:00+00,0,543,180,307,140496,271073
9162,9,2022/06/23 00:00:00+00,0,1937,363,1296,546016,271074
9162,9,2022/04/05 00:00:00+00,0,2693,515,2061,456501,271075
9162,9,2022/03/13 00:00:00+00,0,3495,1081,2561,368307,271076
9162,9,2021/12/23 00:00:00+00,0,414,234,238,140910,271077
9162,9,2022/06/24 00:00:00+00,0,1171,462,799,547187,271078
9162,9,2022/04/06 00:00:00+00,0,3494,383,2764,459995,271079
9162,9,2022/03/14 00:00:00+00,0,3885,1317,2841,372192,271080
9162,9,2021/12/24 00:00:00+00,0,348,240,195,141258,271081
9162,9,2022/06/25 00:00:00+00,0,3,436,0,547190,271082
9162,9,2022/04/07 00:00:00+00,0,3288,312,2574,463283,271083
9162,9,2022/03/15 00:00:00+00,0,4540,1229,3241,376732,271084
9162,9,2021/12/25 00:00:00+00,0,12,242,6,141270,271085
9162,9,2022/06/26 00:00:00+00,0,1,535,0,547191,271086
9162,9,2022/04/08 00:00:00+00,0,2611,280,2118,465894,271087
9162,9,2022/03/16 00:00:00+00,0,4807,1047,3517,381539,271088
9162,9,2021/12/26 00:00:00+00,0,414,281,225,141684,271089
9162,9,2022/06/27 00:00:00+00,0,2220,629,1412,549411,271090
9162,9,2022/04/09 00:00:00+00,0,1616,230,1322,467510,271091
9162,9,2022/03/17 00:00:00+00,0,4667,898,3555,386206,271092
9162,9,2021/12/27 00:00:00+00,0,644,391,319,142328,271093
9162,9,2022/06/28 00:00:00+00,0,1960,554,1210,551371,271094
9162,9,2022/04/10 00:00:00+00,0,1359,171,1086,468869,271095
9162,9,2022/03/18 00:00:00+00,0,4370,953,3359,390576,271096
9162,9,2021/12/28 00:00:00+00,0,613,352,302,142941,271097
9162,9,2022/06/29 00:00:00+00,0,2213,456,1496,553584,271098
9162,9,2022/04/11 00:00:00+00,0,1927,139,1598,470796,271099
9162,9,2022/03/19 00:00:00+00,0,2822,909,2170,393398,271100
9162,9,2021/12/29 00:00:00+00,0,624,332,332,143565,271101
9162,9,2022/06/30 00:00:00+00,0,2262,413,1503,555846,271102
9162,9,2022/04/12 00:00:00+00,0,2555,75,2209,473351,271103
9162,9,2022/03/20 00:00:00+00,0,3893,983,2962,397291,271104
9162,9,2021/12/30 00:00:00+00,0,682,335,312,144247,271105
9162,9,2022/07/01 00:00:00+00,0,1616,502,1121,557462,271106
9162,9,2022/04/13 00:00:00+00,0,2183,16,1994,475534,271107
9162,9,2022/03/21 00:00:00+00,0,4073,1206,3201,401364,271108
9162,9,2021/12/31 00:00:00+00,0,421,319,213,144668,271109
9162,9,2022/07/02 00:00:00+00,0,21,502,12,557483,271110
9162,9,2022/04/14 00:00:00+00,0,1999,17,1950,477533,271111
9162,9,2022/03/22 00:00:00+00,0,4697,1023,3533,406061,271112
9162,9,2022/03/23 00:00:00+00,0,5216,883,3867,411277,271113
9162,9,2022/03/24 00:00:00+00,0,5225,776,3933,416502,271114
9162,9,2022/03/25 00:00:00+00,0,4157,758,3190,420659,271115
9162,9,2022/03/26 00:00:00+00,0,2814,811,2197,423473,271116
9162,9,2022/03/27 00:00:00+00,0,3271,848,2506,426744,271117
9162,9,2022/03/28 00:00:00+00,0,4666,880,3497,431410,271118
9162,9,2022/03/29 00:00:00+00,0,4840,811,3635,436250,271119
9162,9,2022/03/30 00:00:00+00,0,5183,648,3972,441433,271120
9162,9,2022/07/03 00:00:00+00,0,26,582,16,557509,271121
9162,9,2022/01/01 00:00:00+00,0,8,471,5,144676,271122
9162,9,2022/04/15 00:00:00+00,0,1318,9,1300,478851,271123
9162,9,2022/07/04 00:00:00+00,0,2780,702,1897,560289,271124
9162,9,2022/01/02 00:00:00+00,0,617,591,292,145293,271125
9162,9,2022/04/16 00:00:00+00,0,1114,13,1099,479965,271126
9162,9,2022/07/05 00:00:00+00,0,2765,591,1899,563054,271127
9162,9,2022/01/03 00:00:00+00,0,805,839,410,146098,271128
9162,9,2022/04/17 00:00:00+00,0,969,9,960,480934,271129
9162,9,2022/07/06 00:00:00+00,0,2393,488,1683,565447,271130
9162,9,2022/01/04 00:00:00+00,0,1073,644,530,147171,271131
9162,9,2022/04/18 00:00:00+00,0,915,9,905,481849,271132
9162,9,2022/07/07 00:00:00+00,0,2806,492,1965,568253,271133
9162,9,2022/01/05 00:00:00+00,0,1344,649,718,148515,271134
9162,9,2022/04/19 00:00:00+00,0,1493,12,1479,483342,271135
9162,9,2022/07/08 00:00:00+00,0,1768,431,1297,570021,271136
9162,9,2022/01/06 00:00:00+00,0,1278,652,692,149793,271137
9162,9,2022/04/20 00:00:00+00,0,1987,14,1978,485329,271138
9162,9,2022/01/07 00:00:00+00,0,1465,681,773,151258,271139
9162,9,2022/04/21 00:00:00+00,0,1751,16,1735,487080,271140
9162,9,2022/01/08 00:00:00+00,0,1094,817,612,152352,271141
9162,9,2022/04/22 00:00:00+00,0,1285,18,1268,488365,271142
9162,9,2022/01/09 00:00:00+00,0,1032,869,564,153384,271143
9162,9,2022/04/23 00:00:00+00,0,1112,12,1104,489477,271144
9162,9,2022/01/10 00:00:00+00,0,1748,1142,1022,155132,271145
9162,9,2022/04/24 00:00:00+00,0,1136,12,1130,490613,271146
9162,9,2022/01/11 00:00:00+00,0,2316,1061,1257,157448,271147
9162,9,2022/04/25 00:00:00+00,0,1333,36,1323,491946,271148
9162,9,2022/01/12 00:00:00+00,0,2373,964,1338,159821,271149
9162,9,2022/04/26 00:00:00+00,0,1888,34,1863,493834,271150
9162,9,2022/01/13 00:00:00+00,0,2220,1028,1202,162041,271151
9162,9,2022/04/27 00:00:00+00,0,1601,58,1586,495435,271152
9162,9,2022/01/14 00:00:00+00,0,2236,1106,1228,164277,271153
9162,9,2022/04/28 00:00:00+00,0,1327,88,1306,496762,271154
9162,9,2022/01/15 00:00:00+00,0,1809,1337,1048,166086,271155
9162,9,2022/04/29 00:00:00+00,0,961,112,908,497723,271156
9162,9,2022/01/16 00:00:00+00,0,1773,1546,1055,167859,271157
9162,9,2022/04/30 00:00:00+00,0,1149,189,1094,498872,271158
9162,9,2022/01/17 00:00:00+00,0,2247,1816,1240,170106,271159
9162,9,2022/05/01 00:00:00+00,0,863,296,849,499735,271160
9162,9,2022/01/18 00:00:00+00,0,3326,1836,1823,173432,271161
9162,9,2022/05/02 00:00:00+00,0,960,370,926,500695,271162
9162,9,2022/01/19 00:00:00+00,0,3341,1790,1772,176773,271163
9162,9,2022/05/03 00:00:00+00,0,1605,470,1243,502300,271164
9162,9,2022/01/20 00:00:00+00,0,4228,1573,2312,181001,271165
9162,9,2022/05/04 00:00:00+00,0,1711,408,1158,504011,271166
9162,9,2022/01/21 00:00:00+00,0,4631,1790,2658,185632,271167
9162,9,2022/05/05 00:00:00+00,0,1462,342,1007,505473,271168
9162,9,2022/01/22 00:00:00+00,0,2411,1780,1311,188043,271169
9162,9,2022/05/06 00:00:00+00,0,1266,357,859,506739,271170
9162,9,2022/01/23 00:00:00+00,0,3481,1884,2035,191524,271171
9162,9,2022/05/07 00:00:00+00,0,923,370,612,507662,271172
9162,9,2022/01/24 00:00:00+00,0,5189,2127,2902,196713,271173
9162,9,2022/05/08 00:00:00+00,0,626,435,385,508288,271174
9162,9,2022/01/25 00:00:00+00,0,4822,1959,2579,201535,271175
9162,9,2022/05/09 00:00:00+00,0,1001,441,608,509289,271176
9162,9,2022/01/26 00:00:00+00,0,4478,1699,2436,206013,271177
9162,9,2022/05/10 00:00:00+00,0,1505,432,992,510794,271178
9162,9,2022/01/27 00:00:00+00,0,3762,1524,2297,209775,271179
9162,9,2022/05/11 00:00:00+00,0,1540,314,1002,512334,271180
9162,9,2022/01/28 00:00:00+00,0,3812,1534,2315,213587,271181
9162,9,2022/05/12 00:00:00+00,0,1272,315,893,513606,271182
9162,9,2022/01/29 00:00:00+00,0,2185,1525,1323,215772,271183
9162,9,2022/05/13 00:00:00+00,0,1022,257,694,514628,271184
9162,9,2022/01/30 00:00:00+00,0,3788,1451,2239,219560,271185
9162,9,2022/05/14 00:00:00+00,0,796,265,499,515424,271186
9162,9,2022/01/31 00:00:00+00,0,5182,1718,3051,224742,271187
9162,9,2022/05/15 00:00:00+00,0,559,287,338,515983,271188
9162,9,2022/02/01 00:00:00+00,0,4854,1753,3076,229596,271189
9162,9,2022/05/16 00:00:00+00,0,814,276,510,516797,271190
9162,9,2022/02/02 00:00:00+00,0,5834,1434,3649,235430,271191
9162,9,2022/05/17 00:00:00+00,0,942,249,637,517739,271192
9162,9,2022/02/03 00:00:00+00,0,7445,1247,4934,242875,271193
9162,9,2022/05/18 00:00:00+00,0,891,231,616,518630,271194
9162,9,2022/02/04 00:00:00+00,0,6163,1130,4188,249038,271195
9162,9,2022/05/19 00:00:00+00,0,866,203,584,519496,271196
9162,9,2022/02/05 00:00:00+00,0,3459,1102,2382,252497,271197
9162,9,2022/02/06 00:00:00+00,0,4216,1048,2826,256713,271198
9162,9,2022/02/07 00:00:00+00,0,4260,1127,2909,260973,271199
9162,9,2022/02/08 00:00:00+00,0,5199,965,3566,266172,271200
9162,9,2023/01/25 00:00:00+00,0,184,7,178,710206,271201
9162,9,2023/01/26 00:00:00+00,0,188,8,181,710394,271202
9162,9,2023/01/27 00:00:00+00,0,154,11,141,710548,271203
9162,9,2023/01/28 00:00:00+00,0,0,4,0,710548,271204
9162,9,2023/01/29 00:00:00+00,0,0,8,0,710548,271205
9162,9,2023/01/30 00:00:00+00,0,378,12,363,710926,271206
9162,9,2023/01/31 00:00:00+00,0,313,8,298,711239,271207
9162,9,2023/02/01 00:00:00+00,0,221,12,214,711460,271208
9162,9,2023/02/02 00:00:00+00,0,231,10,220,711691,271209
9162,9,2023/02/03 00:00:00+00,0,216,12,208,711907,271210
9162,9,2023/02/04 00:00:00+00,0,0,8,0,711907,271211
9162,9,2023/02/05 00:00:00+00,0,0,6,0,711907,271212
9162,9,2023/02/06 00:00:00+00,0,363,12,346,712270,271213
9162,9,2023/02/07 00:00:00+00,0,296,12,282,712566,271214
9162,9,2023/02/08 00:00:00+00,0,347,14,333,712913,271216
9162,9,2023/02/09 00:00:00+00,0,284,7,270,713197,271217
9162,9,2022/10/17 00:00:00+00,0,1258,23,1210,683692,271219
9162,9,2023/02/10 00:00:00+00,0,280,11,268,713477,271220
9162,9,2023/03/16 00:00:00+00,0,106,4,100,719122,271222
9162,9,2022/12/06 00:00:00+00,0,392,13,380,699523,271223
9162,9,2022/10/18 00:00:00+00,0,1271,24,1242,684963,271225
9162,9,2023/02/11 00:00:00+00,0,0,7,0,713477,271226
9162,9,2023/03/17 00:00:00+00,0,75,5,70,719197,271229
9162,9,2022/12/07 00:00:00+00,0,320,16,307,699843,271230
9162,9,2022/10/19 00:00:00+00,0,962,21,934,685925,271232
9162,9,2023/02/12 00:00:00+00,0,1,16,0,713478,271234
9162,9,2023/03/18 00:00:00+00,0,0,3,0,719197,271237
9162,9,2022/12/08 00:00:00+00,0,289,9,276,700132,271238
9162,9,2022/10/20 00:00:00+00,0,719,9,691,686644,271240
9162,9,2023/02/13 00:00:00+00,0,469,20,446,713947,271241
9162,9,2023/03/19 00:00:00+00,0,0,6,0,719197,271244
9162,9,2022/12/09 00:00:00+00,0,284,9,279,700416,271245
9162,9,2022/10/21 00:00:00+00,0,660,8,649,687304,271248
9162,9,2023/02/14 00:00:00+00,0,352,3,326,714299,271249
9162,9,2022/10/22 00:00:00+00,0,439,8,435,687743,271250
9162,9,2023/02/15 00:00:00+00,0,307,11,303,714606,271253
9162,9,2023/03/20 00:00:00+00,0,166,2,155,719363,271254
9162,9,2022/10/23 00:00:00+00,0,0,11,0,687743,271255
9162,9,2022/12/10 00:00:00+00,0,0,12,0,700416,271257
9162,9,2023/02/16 00:00:00+00,0,279,8,268,714885,271261
9162,9,2023/03/21 00:00:00+00,0,127,3,121,719490,271262
9162,9,2022/10/24 00:00:00+00,0,716,24,693,688459,271263
9162,9,2022/12/11 00:00:00+00,0,0,6,0,700416,271265
9162,9,2023/02/17 00:00:00+00,0,215,10,207,715100,271269
9162,9,2023/03/22 00:00:00+00,0,69,2,68,719559,271270
9162,9,2022/10/25 00:00:00+00,0,703,10,694,689162,271271
9162,9,2022/12/12 00:00:00+00,0,545,15,518,700961,271273
9162,9,2023/02/18 00:00:00+00,0,0,10,0,715100,271277
9162,9,2023/03/23 00:00:00+00,0,87,3,84,719646,271278
9162,9,2022/10/26 00:00:00+00,0,534,10,518,689696,271279
9162,9,2022/12/13 00:00:00+00,0,401,13,386,701362,271281
9162,9,2023/02/19 00:00:00+00,0,0,15,0,715100,271285
9162,9,2023/03/24 00:00:00+00,0,90,0,87,719736,271286
9162,9,2022/10/27 00:00:00+00,0,473,10,460,690169,271287
9162,9,2022/12/14 00:00:00+00,0,346,12,329,701708,271289
9162,9,2023/02/20 00:00:00+00,0,491,24,457,715591,271293
9162,9,2023/03/25 00:00:00+00,0,0,1,0,719736,271294
9162,9,2022/10/28 00:00:00+00,0,303,9,292,690472,271295
9162,9,2022/12/15 00:00:00+00,0,299,14,285,702007,271297
9162,9,2023/02/21 00:00:00+00,0,238,14,225,715829,271301
9162,9,2023/03/26 00:00:00+00,0,0,0,0,719736,271302
9162,9,2022/10/29 00:00:00+00,0,310,5,302,690782,271303
9162,9,2022/12/16 00:00:00+00,0,262,13,250,702269,271305
9162,9,2023/02/22 00:00:00+00,1,397,12,370,716227,271309
9162,9,2023/03/27 00:00:00+00,0,105,4,100,719841,271310
9162,9,2022/10/30 00:00:00+00,0,0,10,0,690782,271311
9162,9,2022/12/17 00:00:00+00,0,0,8,0,702269,271313
9162,9,2023/02/23 00:00:00+00,0,266,12,253,716493,271317
9162,9,2023/03/28 00:00:00+00,0,53,1,50,719894,271318
9162,9,2022/10/31 00:00:00+00,0,346,7,334,691128,271319
9162,9,2022/12/18 00:00:00+00,0,0,5,0,702269,271321
9162,9,2023/02/24 00:00:00+00,0,230,4,220,716723,271325
9162,9,2023/03/29 00:00:00+00,0,61,1,59,719955,271326
9162,9,2022/11/01 00:00:00+00,0,0,9,0,691128,271327
9162,9,2022/12/19 00:00:00+00,0,613,32,577,702882,271329
9162,9,2023/02/25 00:00:00+00,0,0,5,0,716723,271333
9162,9,2023/03/30 00:00:00+00,8,59,0,66,720022,271334
9162,9,2022/11/02 00:00:00+00,0,580,8,562,691708,271335
9162,9,2022/12/20 00:00:00+00,0,463,14,445,703345,271337
9162,9,2023/02/26 00:00:00+00,0,0,8,0,716723,271341
9162,9,2023/03/31 00:00:00+00,27,0,0,27,720049,271342
9162,9,2022/11/03 00:00:00+00,0,340,5,332,692048,271343
9162,9,2022/12/21 00:00:00+00,0,441,15,429,703786,271345
9162,9,2023/02/27 00:00:00+00,0,269,9,253,716992,271349
9162,9,2022/11/04 00:00:00+00,0,349,7,344,692397,271351
9162,9,2022/12/22 00:00:00+00,0,369,20,347,704155,271353
9162,9,2023/02/28 00:00:00+00,0,304,11,289,717296,271357
9162,9,2022/11/05 00:00:00+00,0,1,4,1,692398,271359
9162,9,2022/12/23 00:00:00+00,0,349,14,334,704504,271361
9162,9,2023/03/01 00:00:00+00,0,303,8,293,717599,271365
9162,9,2022/12/24 00:00:00+00,0,0,6,0,704504,271399
9162,9,2023/03/02 00:00:00+00,0,168,4,156,717767,271402
9162,9,2022/11/06 00:00:00+00,0,1,7,1,692399,271405
9162,9,2022/12/25 00:00:00+00,0,0,10,0,704504,271406
9162,9,2023/03/03 00:00:00+00,0,118,5,116,717885,271409
9162,9,2022/11/07 00:00:00+00,0,604,9,589,693003,271412
9162,9,2022/12/26 00:00:00+00,0,0,13,0,704504,271413
9162,9,2023/03/04 00:00:00+00,0,0,4,0,717885,271416
9162,9,2022/11/08 00:00:00+00,0,389,3,380,693392,271419
9162,9,2022/12/27 00:00:00+00,0,787,15,751,705291,271420
9162,9,2023/03/05 00:00:00+00,0,0,7,0,717885,271423
9162,9,2022/11/09 00:00:00+00,0,330,8,324,693722,271426
9162,9,2022/12/28 00:00:00+00,0,368,10,356,705659,271427
9162,9,2023/03/06 00:00:00+00,0,225,8,210,718110,271430
9162,9,2022/11/10 00:00:00+00,0,256,6,250,693978,271433
9162,9,2022/12/29 00:00:00+00,0,329,12,320,705988,271434
9162,9,2023/03/07 00:00:00+00,0,127,6,120,718237,271437
9162,9,2022/11/11 00:00:00+00,0,200,8,196,694178,271440
9162,9,2022/12/30 00:00:00+00,0,199,8,189,706187,271441
9162,9,2023/03/08 00:00:00+00,0,129,3,124,718366,271444
9162,9,2022/11/12 00:00:00+00,0,37,8,36,694215,271447
9162,9,2022/12/31 00:00:00+00,0,7,7,7,706194,271448
9162,9,2023/03/09 00:00:00+00,0,113,4,108,718479,271451
9162,9,2022/11/13 00:00:00+00,0,0,6,0,694215,271454
9162,9,2023/01/01 00:00:00+00,0,7,10,7,706201,271455
9162,9,2023/03/10 00:00:00+00,0,118,3,111,718597,271458
9162,9,2022/11/14 00:00:00+00,0,436,9,420,694651,271461
9162,9,2023/01/02 00:00:00+00,0,368,12,355,706569,271462
9162,9,2023/03/11 00:00:00+00,0,0,6,0,718597,271465
9162,9,2022/11/15 00:00:00+00,0,244,12,238,694895,271468
9162,9,2023/01/03 00:00:00+00,0,256,6,242,706825,271469
9162,9,2023/03/12 00:00:00+00,0,0,2,0,718597,271472
9162,9,2022/11/16 00:00:00+00,0,247,6,238,695142,271475
9162,9,2023/01/04 00:00:00+00,0,294,2,284,707119,271476
9162,9,2023/03/13 00:00:00+00,0,168,4,163,718765,271479
9162,9,2022/11/17 00:00:00+00,0,235,6,230,695377,271482
9162,9,2023/01/05 00:00:00+00,0,158,10,154,707277,271483
9162,9,2023/03/14 00:00:00+00,0,128,4,125,718893,271486
9162,9,2022/11/18 00:00:00+00,0,191,6,187,695568,271489
9162,9,2023/01/06 00:00:00+00,0,0,2,0,707277,271490
9162,9,2023/01/07 00:00:00+00,0,0,11,0,707277,271526
9162,9,2023/01/08 00:00:00+00,0,1,10,0,707278,271527
9162,9,2023/01/09 00:00:00+00,0,555,11,527,707833,271528
9162,9,2023/01/10 00:00:00+00,0,305,9,294,708138,271529
9162,9,2023/01/11 00:00:00+00,0,250,5,241,708388,271530
9162,9,2023/01/12 00:00:00+00,0,191,2,183,708579,271531
9162,9,2023/01/13 00:00:00+00,0,116,9,115,708695,271532
9162,9,2023/01/14 00:00:00+00,0,0,5,0,708695,271533
9162,9,2023/01/15 00:00:00+00,0,0,2,0,708695,271534
9162,9,2023/01/16 00:00:00+00,0,286,9,268,708981,271535
9162,9,2023/01/17 00:00:00+00,0,156,5,149,709137,271536
9162,9,2023/01/18 00:00:00+00,0,180,9,167,709317,271537
9162,9,2023/01/19 00:00:00+00,0,118,5,111,709435,271538
9162,9,2023/01/20 00:00:00+00,0,142,11,136,709577,271539
9162,9,2023/01/21 00:00:00+00,0,0,2,0,709577,271540
9162,9,2023/01/22 00:00:00+00,0,0,6,0,709577,271541
9162,9,2022/11/19 00:00:00+00,0,18,7,16,695586,271542
9162,9,2023/01/23 00:00:00+00,0,245,9,228,709822,271543
9162,9,2022/11/20 00:00:00+00,0,0,7,0,695586,271544
9162,9,2023/01/24 00:00:00+00,0,200,7,190,710022,271546
9162,9,2022/11/21 00:00:00+00,0,497,19,477,696083,271548
9162,9,2023/03/15 00:00:00+00,0,123,4,118,719016,271550
9162,9,2022/11/22 00:00:00+00,0,322,4,310,696405,271552
9162,9,2022/11/23 00:00:00+00,0,270,10,266,696675,271555
9162,9,2022/11/24 00:00:00+00,0,274,8,265,696949,271558
9162,9,2022/11/25 00:00:00+00,0,138,11,136,697087,271561
9162,9,2022/11/26 00:00:00+00,0,18,6,18,697105,271564
9162,9,2022/11/27 00:00:00+00,0,0,10,0,697105,271567
9162,9,2022/11/28 00:00:00+00,0,519,4,496,697624,271570
9162,9,2022/11/29 00:00:00+00,0,307,7,299,697931,271573
9162,9,2022/11/30 00:00:00+00,0,269,7,264,698200,271576
9162,9,2022/12/01 00:00:00+00,0,281,9,271,698481,271579
9162,9,2022/12/02 00:00:00+00,0,197,3,192,698678,271582
9162,9,2022/12/03 00:00:00+00,0,0,8,0,698678,271585
9162,9,2022/12/04 00:00:00+00,0,0,11,0,698678,271588
9162,9,2022/12/05 00:00:00+00,0,453,7,441,699131,271591
