﻿AdmUnitId,BundeslandId,Datum,AnzFallNeu,AnzFallVortag,AnzFallErkrankung,AnzFallMeldung,KumFall,ObjectId
9162,9,2020/09/07 00:00:00+00,0,92,58,55,9433,269601
9162,9,2020/09/08 00:00:00+00,0,91,54,57,9524,269602
9162,9,2020/09/09 00:00:00+00,0,118,45,69,9642,269603
9162,9,2020/09/10 00:00:00+00,0,100,50,50,9742,269604
9162,9,2020/09/11 00:00:00+00,0,74,55,32,9816,269605
9162,9,2020/09/12 00:00:00+00,0,61,32,22,9877,269606
9162,9,2020/09/13 00:00:00+00,0,49,43,23,9926,269607
9162,9,2020/09/14 00:00:00+00,0,100,76,49,10026,269608
9162,9,2020/05/30 00:00:00+00,0,33,3,28,6487,269609
9162,9,2020/09/15 00:00:00+00,0,168,54,96,10194,269610
9162,9,2020/09/16 00:00:00+00,0,150,51,84,10344,269611
9162,9,2020/05/31 00:00:00+00,0,5,5,3,6492,269613
9162,9,2020/09/17 00:00:00+00,0,140,52,64,10484,269614
9162,9,2020/07/19 00:00:00+00,0,17,7,8,7144,269616
9162,9,2020/06/01 00:00:00+00,0,0,3,0,6492,269618
9162,9,2020/09/18 00:00:00+00,0,129,31,61,10613,269619
9162,9,2020/07/20 00:00:00+00,0,10,7,4,7154,269621
9162,9,2020/06/02 00:00:00+00,0,5,7,1,6497,269623
9162,9,2020/04/10 00:00:00+00,0,98,27,22,4463,269624
9162,9,2020/09/19 00:00:00+00,0,77,20,48,10690,269625
9162,9,2020/07/21 00:00:00+00,0,16,5,5,7170,269627
9162,9,2020/06/03 00:00:00+00,0,12,4,7,6509,269629
9162,9,2020/04/11 00:00:00+00,0,104,38,41,4567,269630
9162,9,2020/09/20 00:00:00+00,0,60,29,23,10750,269631
9162,9,2020/07/22 00:00:00+00,0,15,11,6,7185,269635
9162,9,2020/06/04 00:00:00+00,0,8,8,3,6517,269637
9162,9,2020/04/12 00:00:00+00,0,72,35,16,4639,269638
9162,9,2020/09/21 00:00:00+00,0,97,38,65,10847,269639
9162,9,2020/09/22 00:00:00+00,0,93,30,67,10940,269640
9162,9,2020/09/23 00:00:00+00,0,107,31,63,11047,269641
9162,9,2020/09/24 00:00:00+00,0,90,39,46,11137,269642
9162,9,2020/09/25 00:00:00+00,0,68,29,39,11205,269643
9162,9,2020/09/26 00:00:00+00,0,74,29,49,11279,269644
9162,9,2020/09/27 00:00:00+00,0,43,30,27,11322,269645
9162,9,2020/09/28 00:00:00+00,0,106,47,67,11428,269646
9162,9,2020/09/29 00:00:00+00,0,85,34,49,11513,269647
9162,9,2020/09/30 00:00:00+00,0,81,48,45,11594,269648
9162,9,2020/10/01 00:00:00+00,0,83,33,34,11677,269649
9162,9,2020/10/02 00:00:00+00,0,64,49,36,11741,269650
9162,9,2020/10/03 00:00:00+00,0,99,36,49,11840,269651
9162,9,2020/10/04 00:00:00+00,0,23,34,5,11863,269652
9162,9,2020/10/05 00:00:00+00,0,63,48,41,11926,269653
9162,9,2020/10/06 00:00:00+00,0,119,50,66,12045,269654
9162,9,2020/10/07 00:00:00+00,0,129,52,74,12174,269655
9162,9,2020/10/08 00:00:00+00,0,139,62,73,12313,269656
9162,9,2020/10/09 00:00:00+00,0,159,60,102,12472,269657
9162,9,2020/10/10 00:00:00+00,0,93,49,44,12565,269658
9162,9,2020/10/11 00:00:00+00,0,54,66,39,12619,269659
9162,9,2020/10/12 00:00:00+00,0,112,78,68,12731,269660
9162,9,2020/10/13 00:00:00+00,0,156,86,92,12887,269661
9162,9,2020/10/14 00:00:00+00,0,173,98,92,13060,269662
9162,9,2020/10/15 00:00:00+00,0,192,75,97,13252,269663
9162,9,2020/10/16 00:00:00+00,0,198,82,108,13450,269664
9162,9,2020/10/17 00:00:00+00,0,177,85,94,13627,269665
9162,9,2020/10/18 00:00:00+00,0,94,66,55,13721,269666
9162,9,2020/10/19 00:00:00+00,0,134,86,67,13855,269667
9162,9,2020/10/20 00:00:00+00,0,194,78,107,14049,269668
9162,9,2020/10/21 00:00:00+00,0,318,75,206,14367,269669
9162,9,2020/10/22 00:00:00+00,0,319,75,233,14686,269670
9162,9,2020/10/23 00:00:00+00,0,240,79,181,14926,269671
9162,9,2020/10/24 00:00:00+00,0,215,75,182,15141,269672
9162,9,2020/10/25 00:00:00+00,0,289,76,236,15430,269673
9162,9,2020/10/26 00:00:00+00,0,227,95,186,15657,269674
9162,9,2020/06/05 00:00:00+00,0,14,8,6,6531,269675
9162,9,2020/04/13 00:00:00+00,0,61,37,27,4700,269678
9162,9,2020/06/06 00:00:00+00,0,5,5,3,6536,269680
9162,9,2020/07/23 00:00:00+00,0,16,4,8,7201,269683
9162,9,2020/04/14 00:00:00+00,0,86,34,32,4786,269685
9162,9,2020/06/07 00:00:00+00,0,9,6,5,6545,269687
9162,9,2020/07/24 00:00:00+00,0,17,5,8,7218,269690
9162,9,2020/04/15 00:00:00+00,0,109,32,42,4895,269692
9162,9,2020/06/08 00:00:00+00,0,13,10,4,6558,269694
9162,9,2020/07/25 00:00:00+00,0,14,9,5,7232,269697
9162,9,2020/04/16 00:00:00+00,0,95,29,34,4990,269699
9162,9,2020/06/09 00:00:00+00,0,8,2,3,6566,269701
9162,9,2020/07/26 00:00:00+00,0,2,7,1,7234,269704
9162,9,2020/04/17 00:00:00+00,0,93,26,37,5083,269706
9162,9,2020/06/10 00:00:00+00,0,9,5,3,6575,269708
9162,9,2020/07/27 00:00:00+00,0,13,12,8,7247,269711
9162,9,2020/03/01 00:00:00+00,0,0,9,0,5,269712
9162,9,2020/04/18 00:00:00+00,0,46,22,14,5129,269713
9162,9,2020/06/11 00:00:00+00,0,2,4,0,6577,269715
9162,9,2020/07/28 00:00:00+00,0,15,7,9,7262,269718
9162,9,2020/03/02 00:00:00+00,0,3,10,0,8,269719
9162,9,2020/04/19 00:00:00+00,0,49,22,22,5178,269720
9162,9,2020/06/12 00:00:00+00,0,12,5,6,6589,269722
9162,9,2020/07/29 00:00:00+00,0,17,8,8,7279,269725
9162,9,2020/03/03 00:00:00+00,0,1,14,0,9,269726
9162,9,2020/04/20 00:00:00+00,0,32,30,18,5210,269727
9162,9,2020/06/13 00:00:00+00,0,5,4,0,6594,269729
9162,9,2020/07/30 00:00:00+00,0,19,7,9,7298,269732
9162,9,2020/03/04 00:00:00+00,0,3,8,1,12,269733
9162,9,2020/04/21 00:00:00+00,0,55,21,18,5265,269734
9162,9,2020/06/14 00:00:00+00,0,11,0,9,6605,269736
9162,9,2020/07/31 00:00:00+00,0,17,7,8,7315,269739
9162,9,2020/03/05 00:00:00+00,0,2,6,1,14,269740
9162,9,2020/04/22 00:00:00+00,0,57,20,25,5322,269741
9162,9,2020/06/15 00:00:00+00,0,4,5,0,6609,269743
9162,9,2020/08/01 00:00:00+00,0,11,6,5,7326,269746
9162,9,2020/03/06 00:00:00+00,0,13,19,8,27,269747
9162,9,2020/04/23 00:00:00+00,0,78,27,25,5400,269748
9162,9,2020/06/16 00:00:00+00,0,9,4,3,6618,269750
9162,9,2020/08/02 00:00:00+00,0,9,6,6,7335,269753
9162,9,2020/03/07 00:00:00+00,0,0,20,0,27,269754
9162,9,2020/04/24 00:00:00+00,0,56,28,23,5456,269755
9162,9,2020/06/17 00:00:00+00,0,13,6,4,6631,269757
9162,9,2020/08/03 00:00:00+00,0,26,19,12,7361,269760
9162,9,2020/03/08 00:00:00+00,0,0,26,0,27,269761
9162,9,2020/04/25 00:00:00+00,0,47,23,31,5503,269762
9162,9,2020/06/18 00:00:00+00,0,4,3,2,6635,269764
9162,9,2020/06/19 00:00:00+00,0,11,6,7,6646,269765
9162,9,2020/06/20 00:00:00+00,0,22,8,20,6668,269766
9162,9,2020/06/21 00:00:00+00,0,14,7,9,6682,269767
9162,9,2020/06/22 00:00:00+00,0,4,9,1,6686,269768
9162,9,2020/06/23 00:00:00+00,0,18,7,11,6704,269769
9162,9,2020/06/24 00:00:00+00,0,13,12,2,6717,269770
9162,9,2020/06/25 00:00:00+00,0,18,10,7,6735,269771
9162,9,2020/06/26 00:00:00+00,0,17,16,8,6752,269772
9162,9,2020/06/27 00:00:00+00,0,12,7,4,6764,269773
9162,9,2020/06/28 00:00:00+00,0,10,14,8,6774,269774
9162,9,2020/06/29 00:00:00+00,0,21,10,12,6795,269775
9162,9,2020/06/30 00:00:00+00,0,40,6,21,6835,269776
9162,9,2020/07/01 00:00:00+00,0,10,5,4,6845,269777
9162,9,2020/07/02 00:00:00+00,0,23,8,10,6868,269778
9162,9,2020/07/03 00:00:00+00,0,20,8,10,6888,269779
9162,9,2020/07/04 00:00:00+00,0,14,3,11,6902,269780
9162,9,2020/07/05 00:00:00+00,0,4,6,4,6906,269781
9162,9,2020/07/06 00:00:00+00,0,23,5,12,6929,269782
9162,9,2020/07/07 00:00:00+00,0,35,8,27,6964,269783
9162,9,2020/07/08 00:00:00+00,0,21,7,9,6985,269784
9162,9,2020/07/09 00:00:00+00,0,11,4,7,6996,269785
9162,9,2020/07/10 00:00:00+00,0,18,7,4,7014,269786
9162,9,2020/07/11 00:00:00+00,0,2,7,2,7016,269787
9162,9,2020/07/12 00:00:00+00,0,7,5,3,7023,269788
9162,9,2020/07/13 00:00:00+00,0,15,15,6,7038,269789
9162,9,2020/07/14 00:00:00+00,0,11,6,6,7049,269790
9162,9,2020/07/15 00:00:00+00,0,20,12,15,7069,269791
9162,9,2020/07/16 00:00:00+00,0,26,7,10,7095,269792
9162,9,2020/07/17 00:00:00+00,0,26,10,20,7121,269793
9162,9,2020/07/18 00:00:00+00,0,6,7,4,7127,269794
9162,9,2020/08/04 00:00:00+00,0,18,7,11,7379,269796
9162,9,2020/04/26 00:00:00+00,0,33,12,16,5536,269798
9162,9,2020/03/09 00:00:00+00,0,23,51,14,50,269801
9162,9,2020/08/05 00:00:00+00,0,12,14,6,7391,269802
9162,9,2020/04/27 00:00:00+00,0,79,29,47,5615,269804
9162,9,2020/03/10 00:00:00+00,0,31,63,21,81,269807
9162,9,2020/08/06 00:00:00+00,0,35,11,18,7426,269808
9162,9,2020/04/28 00:00:00+00,0,50,19,16,5665,269810
9162,9,2020/03/11 00:00:00+00,0,23,71,16,104,269813
9162,9,2020/08/07 00:00:00+00,0,19,10,16,7445,269814
9162,9,2020/04/29 00:00:00+00,0,41,17,23,5706,269816
9162,9,2020/03/12 00:00:00+00,0,18,89,11,122,269819
9162,9,2020/08/08 00:00:00+00,0,8,19,5,7453,269820
9162,9,2020/04/30 00:00:00+00,0,44,24,17,5750,269822
9162,9,2020/03/13 00:00:00+00,0,48,110,33,170,269825
9162,9,2020/08/09 00:00:00+00,0,2,21,1,7455,269826
9162,9,2020/05/01 00:00:00+00,0,59,26,32,5809,269828
9162,9,2020/08/10 00:00:00+00,0,29,31,13,7484,269831
9162,9,2020/03/14 00:00:00+00,0,64,110,44,234,269832
9162,9,2020/05/02 00:00:00+00,0,33,12,18,5842,269834
9162,9,2020/08/11 00:00:00+00,0,43,28,26,7527,269837
9162,9,2020/03/15 00:00:00+00,0,19,135,16,253,269838
9162,9,2020/05/03 00:00:00+00,0,25,20,5,5867,269840
9162,9,2020/08/12 00:00:00+00,0,44,24,28,7571,269843
9162,9,2020/03/16 00:00:00+00,0,67,155,35,320,269844
9162,9,2020/05/04 00:00:00+00,0,34,14,15,5901,269846
9162,9,2020/08/13 00:00:00+00,0,55,28,33,7626,269849
9162,9,2020/03/17 00:00:00+00,0,144,140,82,464,269850
9162,9,2020/05/05 00:00:00+00,0,30,21,10,5931,269852
9162,9,2020/08/14 00:00:00+00,0,55,22,27,7681,269855
9162,9,2020/03/18 00:00:00+00,0,212,153,110,676,269856
9162,9,2020/05/06 00:00:00+00,0,19,11,9,5950,269858
9162,9,2020/08/15 00:00:00+00,0,27,19,14,7708,269861
9162,9,2020/03/19 00:00:00+00,0,173,108,77,849,269862
9162,9,2020/05/07 00:00:00+00,0,30,20,11,5980,269864
9162,9,2020/08/16 00:00:00+00,0,48,25,37,7756,269867
9162,9,2020/03/20 00:00:00+00,0,195,127,86,1044,269868
9162,9,2020/05/08 00:00:00+00,0,43,10,21,6023,269870
9162,9,2020/08/17 00:00:00+00,0,86,35,50,7842,269873
9162,9,2020/03/21 00:00:00+00,0,176,83,65,1220,269874
9162,9,2020/05/09 00:00:00+00,0,24,10,15,6047,269876
9162,9,2020/08/18 00:00:00+00,0,61,33,33,7903,269879
9162,9,2020/03/22 00:00:00+00,0,88,85,37,1308,269880
9162,9,2020/05/10 00:00:00+00,0,22,10,9,6069,269882
9162,9,2020/08/19 00:00:00+00,0,88,24,53,7991,269885
9162,9,2020/03/23 00:00:00+00,0,93,117,44,1401,269886
9162,9,2020/05/11 00:00:00+00,0,61,9,40,6130,269888
9162,9,2020/08/20 00:00:00+00,0,86,16,56,8077,269907
9162,9,2020/03/24 00:00:00+00,0,170,61,80,1571,269909
9162,9,2020/05/12 00:00:00+00,0,27,9,12,6157,269910
9162,9,2020/08/21 00:00:00+00,0,71,35,45,8148,269911
9162,9,2020/03/25 00:00:00+00,0,239,111,103,1810,269914
9162,9,2020/05/13 00:00:00+00,0,35,4,14,6192,269915
9162,9,2020/08/22 00:00:00+00,0,31,22,21,8179,269916
9162,9,2020/03/26 00:00:00+00,0,258,66,102,2068,269919
9162,9,2020/05/14 00:00:00+00,0,23,5,13,6215,269920
9162,9,2020/08/23 00:00:00+00,0,41,31,25,8220,269921
9162,9,2020/03/27 00:00:00+00,0,258,110,109,2326,269924
9162,9,2020/05/15 00:00:00+00,0,18,7,12,6233,269925
9162,9,2020/08/24 00:00:00+00,0,87,34,52,8307,269926
9162,9,2020/03/28 00:00:00+00,0,139,79,58,2465,269929
9162,9,2020/05/16 00:00:00+00,0,9,3,3,6242,269930
9162,9,2020/08/25 00:00:00+00,0,85,38,54,8392,269931
9162,9,2020/03/29 00:00:00+00,0,178,65,74,2643,269934
9162,9,2020/05/17 00:00:00+00,0,11,4,5,6253,269935
9162,9,2020/08/26 00:00:00+00,0,105,36,69,8497,269936
9162,9,2020/03/30 00:00:00+00,0,118,69,46,2761,269939
9162,9,2020/05/18 00:00:00+00,0,7,12,4,6260,269940
9162,9,2020/08/27 00:00:00+00,0,108,19,55,8605,269941
9162,9,2020/03/31 00:00:00+00,0,310,68,119,3071,269944
9162,9,2020/05/19 00:00:00+00,0,12,6,10,6272,269945
9162,9,2020/08/28 00:00:00+00,0,65,26,44,8670,269946
9162,9,2020/04/01 00:00:00+00,0,231,90,87,3302,269949
9162,9,2020/05/20 00:00:00+00,0,20,7,9,6292,269950
9162,9,2020/08/29 00:00:00+00,0,53,15,29,8723,269951
9162,9,2020/04/02 00:00:00+00,0,143,49,53,3445,269954
9162,9,2020/05/21 00:00:00+00,0,19,5,8,6311,269955
9162,9,2020/08/30 00:00:00+00,0,26,17,17,8749,269956
9162,9,2020/04/03 00:00:00+00,0,177,57,85,3622,269959
9162,9,2020/05/22 00:00:00+00,0,21,7,17,6332,269960
9162,9,2020/08/31 00:00:00+00,0,71,29,35,8820,269961
9162,9,2020/04/04 00:00:00+00,0,134,49,59,3756,269964
9162,9,2020/05/23 00:00:00+00,0,2,6,1,6334,269965
9162,9,2020/09/01 00:00:00+00,0,83,45,59,8903,269966
9162,9,2020/04/05 00:00:00+00,0,84,47,27,3840,269969
9162,9,2020/05/24 00:00:00+00,0,6,10,2,6340,269970
9162,9,2020/09/02 00:00:00+00,0,69,31,47,8972,269971
9162,9,2020/04/06 00:00:00+00,0,118,51,40,3958,269974
9162,9,2020/05/25 00:00:00+00,0,14,5,5,6354,269975
9162,9,2020/09/03 00:00:00+00,0,88,36,51,9060,269976
9162,9,2020/04/07 00:00:00+00,0,141,48,40,4099,269979
9162,9,2020/05/26 00:00:00+00,0,46,12,25,6400,269980
9162,9,2020/09/04 00:00:00+00,0,116,35,81,9176,269981
9162,9,2020/04/08 00:00:00+00,0,154,50,65,4253,269984
9162,9,2020/05/27 00:00:00+00,0,34,5,20,6434,269985
9162,9,2020/09/05 00:00:00+00,0,104,30,66,9280,269986
9162,9,2020/04/09 00:00:00+00,0,112,48,48,4365,269989
9162,9,2020/05/28 00:00:00+00,0,6,6,2,6440,269990
9162,9,2020/09/06 00:00:00+00,0,61,28,38,9341,269991
9162,9,2020/05/29 00:00:00+00,0,14,4,9,6454,269994
9162,9,2021/02/04 00:00:00+00,0,132,34,92,52068,270001
9162,9,2021/02/05 00:00:00+00,0,141,35,91,52209,270002
9162,9,2021/02/06 00:00:00+00,0,68,27,42,52277,270003
9162,9,2021/02/07 00:00:00+00,0,30,18,20,52307,270004
9162,9,2021/02/08 00:00:00+00,0,71,38,51,52378,270005
9162,9,2021/02/09 00:00:00+00,0,146,37,92,52524,270006
9162,9,2021/02/10 00:00:00+00,0,100,25,59,52624,270007
9162,9,2021/02/11 00:00:00+00,0,94,28,71,52718,270008
9162,9,2021/02/12 00:00:00+00,0,74,27,45,52792,270009
9162,9,2020/12/16 00:00:00+00,0,644,74,534,38173,270010
9162,9,2021/02/13 00:00:00+00,0,44,33,26,52836,270011
9162,9,2021/02/14 00:00:00+00,0,19,21,11,52855,270012
9162,9,2021/02/15 00:00:00+00,0,60,44,46,52915,270013
9162,9,2021/02/16 00:00:00+00,0,33,20,24,52948,270014
9162,9,2021/02/17 00:00:00+00,0,116,30,57,53064,270015
9162,9,2021/02/18 00:00:00+00,0,107,31,65,53171,270016
9162,9,2021/02/19 00:00:00+00,0,80,26,57,53251,270017
9162,9,2021/02/20 00:00:00+00,0,64,23,34,53315,270018
9162,9,2021/02/21 00:00:00+00,0,23,27,12,53338,270019
9162,9,2021/02/22 00:00:00+00,0,60,35,43,53398,270020
9162,9,2021/02/23 00:00:00+00,0,91,25,56,53489,270021
9162,9,2021/02/24 00:00:00+00,0,119,18,83,53608,270022
9162,9,2021/02/25 00:00:00+00,0,84,39,50,53692,270023
9162,9,2021/02/26 00:00:00+00,0,126,42,87,53818,270024
9162,9,2021/02/27 00:00:00+00,0,70,38,52,53888,270025
9162,9,2021/02/28 00:00:00+00,0,45,33,35,53933,270026
9162,9,2021/03/01 00:00:00+00,0,75,41,51,54008,270027
9162,9,2021/03/02 00:00:00+00,0,160,45,113,54168,270028
9162,9,2021/03/03 00:00:00+00,0,152,43,105,54320,270029
9162,9,2021/03/04 00:00:00+00,0,111,48,79,54431,270030
9162,9,2021/03/05 00:00:00+00,0,144,44,96,54575,270031
9162,9,2021/03/06 00:00:00+00,0,115,48,79,54690,270032
9162,9,2021/03/07 00:00:00+00,0,61,32,37,54751,270033
9162,9,2021/03/08 00:00:00+00,0,123,60,75,54874,270034
9162,9,2021/03/09 00:00:00+00,0,165,54,117,55039,270035
9162,9,2021/03/10 00:00:00+00,0,218,47,151,55257,270036
9162,9,2021/03/11 00:00:00+00,0,170,59,122,55427,270037
9162,9,2021/03/12 00:00:00+00,0,165,54,110,55592,270038
9162,9,2021/03/13 00:00:00+00,0,104,58,72,55696,270039
9162,9,2021/03/14 00:00:00+00,0,88,48,65,55784,270040
9162,9,2021/03/15 00:00:00+00,0,144,64,106,55928,270041
9162,9,2021/03/16 00:00:00+00,0,201,80,141,56129,270042
9162,9,2021/03/17 00:00:00+00,0,235,56,144,56364,270043
9162,9,2021/03/18 00:00:00+00,0,208,60,137,56572,270044
9162,9,2021/03/19 00:00:00+00,0,223,51,154,56795,270045
9162,9,2021/03/20 00:00:00+00,0,147,54,102,56942,270046
9162,9,2021/03/21 00:00:00+00,0,134,58,101,57076,270047
9162,9,2021/03/22 00:00:00+00,0,101,79,76,57177,270048
9162,9,2021/03/23 00:00:00+00,0,239,59,160,57416,270049
9162,9,2021/03/24 00:00:00+00,0,278,72,198,57694,270050
9162,9,2021/03/25 00:00:00+00,0,265,93,193,57959,270051
9162,9,2021/07/04 00:00:00+00,0,11,17,3,73666,270052
9162,9,2021/07/05 00:00:00+00,0,22,27,1,73688,270053
9162,9,2020/12/17 00:00:00+00,0,815,77,683,38988,270054
9162,9,2021/07/06 00:00:00+00,0,34,43,7,73722,270055
9162,9,2020/12/18 00:00:00+00,0,704,70,601,39692,270056
9162,9,2021/07/07 00:00:00+00,0,22,21,3,73744,270057
9162,9,2020/12/19 00:00:00+00,0,600,64,510,40292,270058
9162,9,2021/07/08 00:00:00+00,0,45,32,11,73789,270059
9162,9,2020/12/20 00:00:00+00,0,208,63,178,40500,270060
9162,9,2021/07/09 00:00:00+00,0,37,24,4,73826,270061
9162,9,2020/12/21 00:00:00+00,0,265,77,213,40765,270062
9162,9,2021/07/10 00:00:00+00,0,20,20,6,73846,270063
9162,9,2020/12/22 00:00:00+00,0,363,58,322,41128,270064
9162,9,2021/07/11 00:00:00+00,0,14,38,1,73860,270065
9162,9,2020/12/23 00:00:00+00,0,604,74,505,41732,270066
9162,9,2021/07/12 00:00:00+00,0,36,41,11,73896,270067
9162,9,2020/12/24 00:00:00+00,0,289,59,246,42021,270068
9162,9,2021/07/13 00:00:00+00,0,52,33,12,73948,270069
9162,9,2020/12/25 00:00:00+00,0,0,44,0,42021,270070
9162,9,2021/07/14 00:00:00+00,0,49,43,8,73997,270071
9162,9,2020/12/26 00:00:00+00,0,586,54,471,42607,270072
9162,9,2021/07/15 00:00:00+00,0,53,28,9,74050,270073
9162,9,2020/12/27 00:00:00+00,0,357,57,299,42964,270074
9162,9,2021/07/16 00:00:00+00,0,48,42,7,74098,270075
9162,9,2020/12/28 00:00:00+00,0,229,81,186,43193,270076
9162,9,2021/07/17 00:00:00+00,0,20,30,7,74118,270077
9162,9,2020/12/29 00:00:00+00,0,538,54,445,43731,270078
9162,9,2021/07/18 00:00:00+00,0,19,34,4,74137,270079
9162,9,2020/12/30 00:00:00+00,0,648,70,528,44379,270080
9162,9,2021/07/19 00:00:00+00,0,57,62,11,74194,270081
9162,9,2020/12/31 00:00:00+00,0,346,51,285,44725,270082
9162,9,2021/07/20 00:00:00+00,0,56,68,10,74250,270083
9162,9,2021/01/01 00:00:00+00,0,1,55,0,44726,270084
9162,9,2021/07/21 00:00:00+00,0,68,49,7,74318,270085
9162,9,2021/01/02 00:00:00+00,0,337,71,276,45063,270086
9162,9,2021/07/22 00:00:00+00,0,69,41,11,74387,270087
9162,9,2021/01/03 00:00:00+00,0,217,86,161,45280,270088
9162,9,2021/07/23 00:00:00+00,0,62,45,8,74449,270089
9162,9,2021/01/04 00:00:00+00,0,286,73,215,45566,270090
9162,9,2021/07/24 00:00:00+00,0,39,41,8,74488,270091
9162,9,2021/01/05 00:00:00+00,0,463,63,367,46029,270092
9162,9,2021/07/25 00:00:00+00,0,18,39,3,74506,270093
9162,9,2021/01/06 00:00:00+00,0,344,51,277,46373,270094
9162,9,2021/07/26 00:00:00+00,0,67,64,10,74573,270095
9162,9,2021/01/07 00:00:00+00,0,380,35,316,46753,270096
9162,9,2021/07/27 00:00:00+00,0,88,49,15,74661,270097
9162,9,2021/01/08 00:00:00+00,0,515,53,444,47268,270098
9162,9,2021/07/28 00:00:00+00,0,59,39,18,74720,270099
9162,9,2021/01/09 00:00:00+00,0,369,33,332,47637,270100
9162,9,2021/07/29 00:00:00+00,0,71,39,19,74791,270101
9162,9,2021/01/10 00:00:00+00,0,140,36,130,47777,270102
9162,9,2021/07/30 00:00:00+00,0,63,42,16,74854,270103
9162,9,2021/01/11 00:00:00+00,0,204,49,184,47981,270104
9162,9,2021/07/31 00:00:00+00,0,59,48,12,74913,270105
9162,9,2021/01/12 00:00:00+00,0,392,54,368,48373,270106
9162,9,2021/08/01 00:00:00+00,0,25,38,5,74938,270107
9162,9,2021/01/13 00:00:00+00,0,366,50,333,48739,270108
9162,9,2021/08/02 00:00:00+00,0,56,61,13,74994,270109
9162,9,2021/01/14 00:00:00+00,0,274,65,234,49013,270110
9162,9,2021/08/03 00:00:00+00,0,62,50,9,75056,270111
9162,9,2021/01/15 00:00:00+00,0,267,68,223,49280,270112
9162,9,2021/08/04 00:00:00+00,0,67,59,13,75123,270113
9162,9,2021/01/16 00:00:00+00,0,217,58,165,49497,270114
9162,9,2021/08/05 00:00:00+00,0,46,44,9,75169,270115
9162,9,2021/01/17 00:00:00+00,0,86,65,75,49583,270116
9162,9,2021/08/06 00:00:00+00,0,104,46,22,75273,270117
9162,9,2021/01/18 00:00:00+00,0,135,78,106,49718,270118
9162,9,2021/08/07 00:00:00+00,0,46,47,9,75319,270119
9162,9,2021/01/19 00:00:00+00,0,238,80,181,49956,270120
9162,9,2021/08/08 00:00:00+00,0,19,58,5,75338,270121
9162,9,2021/01/20 00:00:00+00,0,252,48,185,50208,270122
9162,9,2021/08/09 00:00:00+00,0,67,80,15,75405,270123
9162,9,2021/01/21 00:00:00+00,0,176,58,127,50384,270124
9162,9,2021/08/10 00:00:00+00,0,116,60,19,75521,270125
9162,9,2021/01/22 00:00:00+00,0,178,50,138,50562,270126
9162,9,2021/08/11 00:00:00+00,0,78,70,12,75599,270127
9162,9,2021/01/23 00:00:00+00,0,131,45,89,50693,270128
9162,9,2021/08/12 00:00:00+00,0,72,74,15,75671,270129
9162,9,2021/01/24 00:00:00+00,0,60,60,48,50753,270130
9162,9,2021/08/13 00:00:00+00,0,59,79,8,75730,270131
9162,9,2021/01/25 00:00:00+00,0,92,80,61,50845,270132
9162,9,2021/08/14 00:00:00+00,0,77,73,17,75807,270133
9162,9,2021/01/26 00:00:00+00,0,197,51,141,51042,270134
9162,9,2021/08/15 00:00:00+00,0,46,80,8,75853,270135
9162,9,2021/01/27 00:00:00+00,0,173,62,122,51215,270136
9162,9,2021/08/16 00:00:00+00,0,116,122,23,75969,270137
9162,9,2021/08/17 00:00:00+00,0,149,86,35,76118,270138
9162,9,2021/08/18 00:00:00+00,0,142,101,36,76260,270139
9162,9,2021/08/19 00:00:00+00,0,122,84,39,76382,270140
9162,9,2021/08/20 00:00:00+00,0,178,83,67,76560,270141
9162,9,2021/08/21 00:00:00+00,0,128,109,51,76688,270142
9162,9,2021/08/22 00:00:00+00,0,68,100,19,76756,270143
9162,9,2020/10/27 00:00:00+00,0,328,66,273,15985,270144
9162,9,2021/01/28 00:00:00+00,0,133,70,93,51348,270145
9162,9,2020/10/28 00:00:00+00,0,359,90,281,16344,270146
9162,9,2021/01/29 00:00:00+00,0,140,59,93,51488,270147
9162,9,2020/10/29 00:00:00+00,0,457,67,338,16801,270148
9162,9,2020/10/30 00:00:00+00,0,366,71,266,17167,270149
9162,9,2021/01/30 00:00:00+00,0,113,42,79,51601,270150
9162,9,2020/10/31 00:00:00+00,0,202,68,141,17369,270151
9162,9,2021/01/31 00:00:00+00,0,47,44,24,51648,270152
9162,9,2020/11/01 00:00:00+00,0,258,73,192,17627,270153
9162,9,2021/02/01 00:00:00+00,0,78,32,39,51726,270154
9162,9,2020/11/02 00:00:00+00,0,331,107,247,17958,270155
9162,9,2021/02/02 00:00:00+00,0,100,37,70,51826,270156
9162,9,2020/11/03 00:00:00+00,0,498,85,403,18456,270157
9162,9,2021/02/03 00:00:00+00,0,110,40,71,51936,270158
9162,9,2020/11/04 00:00:00+00,0,359,76,318,18815,270159
9162,9,2021/10/12 00:00:00+00,0,358,207,115,89381,270160
9162,9,2020/11/05 00:00:00+00,0,430,88,350,19245,270161
9162,9,2021/10/13 00:00:00+00,0,333,176,122,89714,270162
9162,9,2020/11/06 00:00:00+00,0,632,92,515,19877,270163
9162,9,2021/10/14 00:00:00+00,0,328,196,131,90042,270164
9162,9,2020/11/07 00:00:00+00,0,501,59,380,20378,270165
9162,9,2021/10/15 00:00:00+00,0,396,231,173,90438,270166
9162,9,2020/11/08 00:00:00+00,0,318,63,254,20696,270167
9162,9,2021/10/16 00:00:00+00,0,246,177,113,90684,270168
9162,9,2020/11/09 00:00:00+00,0,447,69,353,21143,270169
9162,9,2021/10/17 00:00:00+00,0,132,179,53,90816,270170
9162,9,2020/11/10 00:00:00+00,0,560,50,413,21703,270171
9162,9,2021/10/18 00:00:00+00,0,353,238,175,91169,270172
9162,9,2020/11/11 00:00:00+00,0,610,56,472,22313,270173
9162,9,2021/10/19 00:00:00+00,0,596,223,289,91765,270174
9162,9,2020/11/12 00:00:00+00,0,544,33,488,22857,270175
9162,9,2021/10/20 00:00:00+00,0,425,246,196,92190,270176
9162,9,2020/11/13 00:00:00+00,0,415,44,360,23272,270177
9162,9,2021/10/21 00:00:00+00,0,522,202,258,92712,270178
9162,9,2020/11/14 00:00:00+00,0,500,27,460,23772,270179
9162,9,2021/10/22 00:00:00+00,0,511,217,265,93223,270180
9162,9,2020/11/15 00:00:00+00,0,198,28,185,23970,270181
9162,9,2021/10/23 00:00:00+00,0,357,213,171,93580,270182
9162,9,2020/11/16 00:00:00+00,0,215,32,193,24185,270183
9162,9,2021/10/24 00:00:00+00,0,176,218,92,93756,270184
9162,9,2020/11/17 00:00:00+00,0,575,37,537,24760,270185
9162,9,2021/10/25 00:00:00+00,0,456,278,230,94212,270186
9162,9,2020/11/18 00:00:00+00,0,520,29,478,25280,270187
9162,9,2021/10/26 00:00:00+00,0,762,296,374,94974,270188
9162,9,2020/11/19 00:00:00+00,0,668,35,624,25948,270189
9162,9,2021/10/27 00:00:00+00,0,551,285,264,95525,270190
9162,9,2020/11/20 00:00:00+00,0,491,41,467,26439,270191
9162,9,2021/10/28 00:00:00+00,0,580,294,290,96105,270192
9162,9,2020/11/21 00:00:00+00,0,293,33,271,26732,270193
9162,9,2021/10/29 00:00:00+00,0,659,280,304,96764,270194
9162,9,2020/11/22 00:00:00+00,0,231,45,210,26963,270195
9162,9,2021/10/30 00:00:00+00,0,297,336,145,97061,270196
9162,9,2020/11/23 00:00:00+00,0,355,53,335,27318,270197
9162,9,2021/10/31 00:00:00+00,0,249,274,117,97310,270198
9162,9,2020/11/24 00:00:00+00,0,497,59,455,27815,270199
9162,9,2021/11/01 00:00:00+00,0,326,412,146,97636,270200
9162,9,2020/11/25 00:00:00+00,0,491,79,439,28306,270201
9162,9,2021/11/02 00:00:00+00,0,673,461,312,98309,270202
9162,9,2020/11/26 00:00:00+00,0,620,72,552,28926,270203
9162,9,2021/11/03 00:00:00+00,0,874,442,368,99183,270204
9162,9,2020/11/27 00:00:00+00,0,103,62,94,29029,270205
9162,9,2021/11/04 00:00:00+00,0,423,381,222,99606,270206
9162,9,2020/11/28 00:00:00+00,0,268,67,230,29297,270207
9162,9,2021/11/05 00:00:00+00,0,243,403,109,99849,270208
9162,9,2020/11/29 00:00:00+00,0,468,73,396,29765,270209
9162,9,2021/11/06 00:00:00+00,0,118,378,60,99967,270210
9162,9,2020/11/30 00:00:00+00,0,417,97,335,30182,270211
9162,9,2021/11/07 00:00:00+00,0,83,374,37,100050,270212
9162,9,2020/12/01 00:00:00+00,0,430,91,352,30612,270213
9162,9,2021/11/08 00:00:00+00,0,282,501,157,100332,270214
9162,9,2020/12/02 00:00:00+00,0,483,94,394,31095,270215
9162,9,2021/11/09 00:00:00+00,0,469,498,266,100801,270216
9162,9,2020/12/03 00:00:00+00,0,619,106,519,31714,270217
9162,9,2021/11/10 00:00:00+00,0,841,468,464,101642,270218
9162,9,2020/12/04 00:00:00+00,0,239,98,186,31953,270219
9162,9,2021/11/11 00:00:00+00,0,1079,479,547,102721,270220
9162,9,2020/12/05 00:00:00+00,0,208,105,167,32161,270221
9162,9,2021/11/12 00:00:00+00,0,1313,494,724,104034,270222
9162,9,2020/12/06 00:00:00+00,0,538,79,443,32699,270223
9162,9,2021/11/13 00:00:00+00,0,1120,473,661,105154,270224
9162,9,2020/12/07 00:00:00+00,0,610,108,506,33309,270225
9162,9,2021/11/14 00:00:00+00,0,1235,491,687,106389,270226
9162,9,2020/12/08 00:00:00+00,0,489,122,381,33798,270227
9162,9,2021/11/15 00:00:00+00,0,1200,661,701,107589,270228
9162,9,2020/12/09 00:00:00+00,0,590,81,477,34388,270229
9162,9,2021/11/16 00:00:00+00,0,2189,581,1134,109778,270230
9162,9,2020/12/10 00:00:00+00,0,375,74,304,34763,270231
9162,9,2021/11/17 00:00:00+00,0,3308,482,1736,113086,270232
9162,9,2020/12/11 00:00:00+00,0,593,97,490,35356,270233
9162,9,2021/11/18 00:00:00+00,0,1477,477,832,114563,270234
9162,9,2020/12/12 00:00:00+00,0,383,96,322,35739,270235
9162,9,2021/11/19 00:00:00+00,0,1225,544,689,115788,270236
9162,9,2020/12/13 00:00:00+00,0,394,68,336,36133,270237
9162,9,2021/11/20 00:00:00+00,0,680,508,367,116468,270238
9162,9,2020/12/14 00:00:00+00,0,526,102,420,36659,270239
9162,9,2021/11/21 00:00:00+00,0,973,438,538,117441,270240
9162,9,2020/12/15 00:00:00+00,0,870,76,727,37529,270241
9162,9,2021/11/22 00:00:00+00,0,689,478,394,118130,270242
9162,9,2021/11/23 00:00:00+00,0,1446,488,819,119576,270243
9162,9,2021/11/24 00:00:00+00,0,1573,442,932,121149,270244
9162,9,2021/11/25 00:00:00+00,0,1352,399,744,122501,270245
9162,9,2021/11/26 00:00:00+00,0,781,403,429,123282,270246
9162,9,2021/11/27 00:00:00+00,0,829,391,467,124111,270247
9162,9,2021/11/28 00:00:00+00,0,782,305,454,124893,270248
9162,9,2021/11/29 00:00:00+00,0,571,405,306,125464,270249
9162,9,2021/11/30 00:00:00+00,0,1108,417,654,126572,270250
9162,9,2021/03/26 00:00:00+00,0,296,76,206,58255,270251
9162,9,2021/03/27 00:00:00+00,0,182,89,127,58437,270252
9162,9,2021/03/28 00:00:00+00,0,110,64,81,58547,270253
9162,9,2021/03/29 00:00:00+00,0,167,104,100,58714,270254
9162,9,2021/03/30 00:00:00+00,0,289,108,193,59003,270255
9162,9,2021/03/31 00:00:00+00,0,313,88,208,59316,270256
9162,9,2021/04/01 00:00:00+00,0,253,113,125,59569,270257
9162,9,2021/04/02 00:00:00+00,0,181,90,95,59750,270258
9162,9,2021/04/03 00:00:00+00,0,123,106,65,59873,270259
9162,9,2021/04/04 00:00:00+00,0,118,116,57,59991,270260
9162,9,2021/04/05 00:00:00+00,0,88,135,48,60079,270261
9162,9,2021/04/06 00:00:00+00,0,265,143,148,60344,270262
9162,9,2021/04/07 00:00:00+00,0,426,131,239,60770,270263
9162,9,2021/04/08 00:00:00+00,0,348,119,197,61118,270264
9162,9,2021/04/09 00:00:00+00,0,304,132,178,61422,270265
9162,9,2021/04/10 00:00:00+00,0,282,157,162,61704,270266
9162,9,2021/04/11 00:00:00+00,0,245,114,142,61949,270267
9162,9,2021/04/12 00:00:00+00,0,292,156,172,62241,270268
9162,9,2021/04/13 00:00:00+00,0,471,121,295,62712,270269
9162,9,2021/04/14 00:00:00+00,0,523,140,349,63235,270270
9162,9,2021/04/15 00:00:00+00,0,401,133,233,63636,270271
9162,9,2021/04/16 00:00:00+00,0,389,150,240,64025,270272
9162,9,2021/04/17 00:00:00+00,0,269,181,169,64294,270273
9162,9,2021/04/18 00:00:00+00,0,184,131,106,64478,270274
9162,9,2021/04/19 00:00:00+00,0,247,183,128,64725,270275
9162,9,2021/04/20 00:00:00+00,0,538,171,293,65263,270276
9162,9,2021/04/21 00:00:00+00,0,421,189,204,65684,270277
9162,9,2021/04/22 00:00:00+00,0,369,162,181,66053,270278
9162,9,2021/04/23 00:00:00+00,0,346,150,174,66399,270279
9162,9,2021/04/24 00:00:00+00,0,165,154,79,66564,270280
9162,9,2021/04/25 00:00:00+00,0,190,132,69,66754,270281
9162,9,2021/04/26 00:00:00+00,0,302,191,136,67056,270282
9162,9,2021/04/27 00:00:00+00,0,430,184,185,67486,270283
9162,9,2021/04/28 00:00:00+00,0,400,129,192,67886,270284
9162,9,2021/04/29 00:00:00+00,0,301,92,138,68187,270285
9162,9,2021/04/30 00:00:00+00,0,274,145,130,68461,270286
9162,9,2021/05/01 00:00:00+00,0,185,137,101,68646,270287
9162,9,2021/05/02 00:00:00+00,0,180,111,71,68826,270288
9162,9,2021/05/03 00:00:00+00,0,175,148,60,69001,270289
9162,9,2021/05/04 00:00:00+00,0,298,133,98,69299,270290
9162,9,2021/05/05 00:00:00+00,0,354,139,134,69653,270291
9162,9,2021/05/06 00:00:00+00,0,261,103,116,69914,270292
9162,9,2021/05/07 00:00:00+00,0,181,99,70,70095,270293
9162,9,2021/05/08 00:00:00+00,0,126,93,47,70221,270294
9162,9,2021/05/09 00:00:00+00,0,70,76,27,70291,270295
9162,9,2021/05/10 00:00:00+00,0,131,108,48,70422,270296
9162,9,2021/05/11 00:00:00+00,0,251,91,88,70673,270297
9162,9,2021/05/12 00:00:00+00,0,191,81,70,70864,270298
9162,9,2021/05/13 00:00:00+00,0,109,72,39,70973,270299
9162,9,2021/05/14 00:00:00+00,0,131,79,43,71104,270300
9162,9,2021/05/15 00:00:00+00,0,58,67,20,71162,270301
9162,9,2021/05/16 00:00:00+00,0,100,81,36,71262,270302
9162,9,2021/05/17 00:00:00+00,0,119,76,52,71381,270303
9162,9,2021/05/18 00:00:00+00,0,163,65,59,71544,270304
9162,9,2021/05/19 00:00:00+00,0,143,66,51,71687,270305
9162,9,2021/05/20 00:00:00+00,0,155,42,55,71842,270306
9162,9,2021/05/21 00:00:00+00,0,83,38,35,71925,270307
9162,9,2021/05/22 00:00:00+00,0,60,49,23,71985,270308
9162,9,2021/05/23 00:00:00+00,0,37,48,13,72022,270309
9162,9,2021/05/24 00:00:00+00,0,54,56,32,72076,270310
9162,9,2021/05/25 00:00:00+00,0,91,45,40,72167,270311
9162,9,2021/05/26 00:00:00+00,0,103,49,28,72270,270312
9162,9,2021/05/27 00:00:00+00,0,63,46,26,72333,270313
9162,9,2021/05/28 00:00:00+00,0,94,40,32,72427,270314
9162,9,2021/05/29 00:00:00+00,0,39,27,18,72466,270315
9162,9,2021/05/30 00:00:00+00,0,45,22,21,72511,270316
9162,9,2021/05/31 00:00:00+00,0,45,29,15,72556,270317
9162,9,2021/06/01 00:00:00+00,0,93,26,45,72649,270318
9162,9,2021/06/02 00:00:00+00,0,63,35,30,72712,270319
9162,9,2021/06/03 00:00:00+00,0,31,24,17,72743,270320
9162,9,2021/06/04 00:00:00+00,0,39,32,13,72782,270321
9162,9,2021/06/05 00:00:00+00,0,56,22,16,72838,270322
9162,9,2021/06/06 00:00:00+00,0,20,35,5,72858,270323
9162,9,2021/06/07 00:00:00+00,0,51,33,17,72909,270324
9162,9,2021/06/08 00:00:00+00,0,69,22,28,72978,270325
9162,9,2021/06/09 00:00:00+00,0,43,27,13,73021,270326
9162,9,2021/06/10 00:00:00+00,0,56,26,20,73077,270327
9162,9,2021/06/11 00:00:00+00,0,21,20,10,73098,270328
9162,9,2021/06/12 00:00:00+00,0,26,25,9,73124,270329
9162,9,2021/06/13 00:00:00+00,0,16,14,7,73140,270330
9162,9,2021/06/14 00:00:00+00,0,39,20,10,73179,270331
9162,9,2021/06/15 00:00:00+00,0,47,15,12,73226,270332
9162,9,2021/06/16 00:00:00+00,0,27,17,8,73253,270333
9162,9,2021/06/17 00:00:00+00,0,29,15,16,73282,270334
9162,9,2021/06/18 00:00:00+00,0,21,17,9,73303,270335
9162,9,2021/06/19 00:00:00+00,0,15,14,3,73318,270336
9162,9,2021/06/20 00:00:00+00,0,7,15,2,73325,270337
9162,9,2021/06/21 00:00:00+00,0,11,25,3,73336,270338
9162,9,2021/06/22 00:00:00+00,0,43,15,7,73379,270339
9162,9,2021/06/23 00:00:00+00,0,23,21,5,73402,270340
9162,9,2021/06/24 00:00:00+00,0,22,17,6,73424,270341
9162,9,2021/06/25 00:00:00+00,0,21,11,5,73445,270342
9162,9,2021/06/26 00:00:00+00,0,16,12,4,73461,270343
9162,9,2021/06/27 00:00:00+00,0,18,12,4,73479,270344
9162,9,2021/06/28 00:00:00+00,0,32,34,11,73511,270345
9162,9,2021/06/29 00:00:00+00,0,33,25,8,73544,270346
9162,9,2021/06/30 00:00:00+00,0,38,39,7,73582,270347
9162,9,2021/07/01 00:00:00+00,0,22,14,6,73604,270348
9162,9,2021/07/02 00:00:00+00,0,33,25,6,73637,270349
9162,9,2021/07/03 00:00:00+00,0,18,20,7,73655,270350
9162,9,2021/08/23 00:00:00+00,0,182,133,61,76938,270351
9162,9,2021/08/24 00:00:00+00,0,272,103,104,77210,270352
9162,9,2021/08/25 00:00:00+00,0,249,135,137,77459,270353
9162,9,2021/08/26 00:00:00+00,0,270,109,133,77729,270354
9162,9,2021/08/27 00:00:00+00,0,169,107,99,77898,270355
9162,9,2021/08/28 00:00:00+00,0,201,123,100,78099,270356
9162,9,2021/08/29 00:00:00+00,0,120,104,67,78219,270357
9162,9,2021/08/30 00:00:00+00,0,279,137,134,78498,270358
9162,9,2021/08/31 00:00:00+00,0,338,129,178,78836,270359
9162,9,2021/09/01 00:00:00+00,0,306,123,188,79142,270360
9162,9,2021/09/02 00:00:00+00,0,335,145,168,79477,270361
9162,9,2021/09/03 00:00:00+00,0,253,144,137,79730,270362
9162,9,2021/09/04 00:00:00+00,0,206,138,113,79936,270363
9162,9,2021/09/05 00:00:00+00,0,120,123,65,80056,270364
9162,9,2021/09/06 00:00:00+00,0,223,169,87,80279,270365
9162,9,2021/09/07 00:00:00+00,0,340,160,121,80619,270366
9162,9,2021/09/08 00:00:00+00,0,337,171,142,80956,270367
9162,9,2021/09/09 00:00:00+00,0,279,153,106,81235,270368
9162,9,2021/09/10 00:00:00+00,0,254,167,115,81489,270369
9162,9,2021/09/11 00:00:00+00,0,222,160,83,81711,270370
9162,9,2021/09/12 00:00:00+00,0,142,126,47,81853,270371
9162,9,2021/09/13 00:00:00+00,0,227,168,73,82080,270372
9162,9,2021/09/14 00:00:00+00,0,444,136,157,82524,270373
9162,9,2021/09/15 00:00:00+00,0,373,121,183,82897,270374
9162,9,2021/09/16 00:00:00+00,0,301,149,158,83198,270375
9162,9,2021/09/17 00:00:00+00,0,293,122,128,83491,270376
9162,9,2021/09/18 00:00:00+00,0,183,98,94,83674,270377
9162,9,2021/09/19 00:00:00+00,0,105,110,51,83779,270378
9162,9,2021/09/20 00:00:00+00,0,278,157,131,84057,270379
9162,9,2021/09/21 00:00:00+00,0,315,136,158,84372,270380
9162,9,2021/09/22 00:00:00+00,0,289,129,117,84661,270381
9162,9,2021/09/23 00:00:00+00,0,275,134,116,84936,270382
9162,9,2021/09/24 00:00:00+00,0,218,156,107,85154,270383
9162,9,2021/09/25 00:00:00+00,0,164,119,68,85318,270384
9162,9,2021/09/26 00:00:00+00,0,139,123,52,85457,270385
9162,9,2021/09/27 00:00:00+00,0,274,180,99,85731,270386
9162,9,2021/09/28 00:00:00+00,0,379,169,169,86110,270387
9162,9,2021/09/29 00:00:00+00,0,271,152,121,86381,270388
9162,9,2021/09/30 00:00:00+00,0,244,131,101,86625,270389
9162,9,2021/10/01 00:00:00+00,0,281,147,118,86906,270390
9162,9,2021/10/02 00:00:00+00,0,171,129,71,87077,270391
9162,9,2021/10/03 00:00:00+00,0,132,112,56,87209,270392
9162,9,2021/10/04 00:00:00+00,0,236,168,94,87445,270393
9162,9,2021/10/05 00:00:00+00,0,320,168,139,87765,270394
9162,9,2021/10/06 00:00:00+00,0,295,132,122,88060,270395
9162,9,2021/10/07 00:00:00+00,0,291,117,123,88351,270396
9162,9,2021/10/08 00:00:00+00,0,226,139,102,88577,270397
9162,9,2021/10/09 00:00:00+00,0,190,148,85,88767,270398
9162,9,2021/10/10 00:00:00+00,0,92,148,31,88859,270399
9162,9,2021/10/11 00:00:00+00,0,164,195,65,89023,270400
9162,9,2022/11/16 00:00:00+00,0,247,6,238,695144,270401
9162,9,2022/11/17 00:00:00+00,0,235,6,230,695379,270402
9162,9,2022/11/18 00:00:00+00,0,191,6,187,695570,270403
9162,9,2022/11/19 00:00:00+00,0,18,7,16,695588,270404
9162,9,2022/11/20 00:00:00+00,0,0,7,0,695588,270405
9162,9,2022/11/21 00:00:00+00,0,497,19,477,696085,270406
9162,9,2022/11/22 00:00:00+00,0,322,4,310,696407,270407
9162,9,2022/11/23 00:00:00+00,0,270,10,266,696677,270408
9162,9,2022/11/24 00:00:00+00,0,274,8,265,696951,270409
9162,9,2022/11/25 00:00:00+00,0,138,11,136,697089,270410
9162,9,2022/11/26 00:00:00+00,0,18,6,18,697107,270411
9162,9,2022/11/27 00:00:00+00,0,0,10,0,697107,270412
9162,9,2022/11/28 00:00:00+00,0,519,4,496,697626,270413
9162,9,2022/11/29 00:00:00+00,0,307,7,299,697933,270414
9162,9,2022/11/30 00:00:00+00,0,269,7,264,698202,270415
9162,9,2022/12/01 00:00:00+00,0,281,9,271,698483,270416
9162,9,2022/12/02 00:00:00+00,0,197,3,192,698680,270417
9162,9,2022/12/03 00:00:00+00,0,0,8,0,698680,270418
9162,9,2022/12/04 00:00:00+00,0,0,11,0,698680,270419
9162,9,2022/12/05 00:00:00+00,0,453,7,441,699133,270420
9162,9,2022/12/06 00:00:00+00,0,392,13,380,699525,270421
9162,9,2022/12/07 00:00:00+00,0,320,16,307,699845,270422
9162,9,2022/12/08 00:00:00+00,0,289,9,276,700134,270423
9162,9,2022/12/09 00:00:00+00,0,284,9,279,700418,270424
9162,9,2022/12/10 00:00:00+00,0,0,12,0,700418,270425
9162,9,2022/12/11 00:00:00+00,0,0,6,0,700418,270426
9162,9,2022/12/12 00:00:00+00,0,545,15,518,700963,270427
9162,9,2022/01/20 00:00:00+00,0,4228,1573,2312,181002,270428
9162,9,2022/12/13 00:00:00+00,0,401,13,386,701364,270429
9162,9,2022/12/14 00:00:00+00,0,346,12,329,701710,270430
9162,9,2022/01/21 00:00:00+00,0,4631,1790,2658,185633,270431
9162,9,2022/12/15 00:00:00+00,0,299,14,285,702009,270432
9162,9,2022/01/22 00:00:00+00,0,2411,1780,1311,188044,270433
9162,9,2022/12/16 00:00:00+00,0,262,13,250,702271,270434
9162,9,2022/01/23 00:00:00+00,0,3481,1884,2035,191525,270435
9162,9,2022/12/17 00:00:00+00,0,0,8,0,702271,270436
9162,9,2022/01/24 00:00:00+00,0,5189,2127,2902,196714,270437
9162,9,2022/12/18 00:00:00+00,0,0,5,0,702271,270438
9162,9,2022/01/25 00:00:00+00,0,4822,1959,2579,201536,270439
9162,9,2022/12/19 00:00:00+00,0,614,32,578,702885,270440
9162,9,2022/01/26 00:00:00+00,0,4478,1699,2436,206014,270441
9162,9,2022/12/20 00:00:00+00,0,463,14,445,703348,270442
9162,9,2022/01/27 00:00:00+00,0,3762,1524,2297,209776,270443
9162,9,2022/12/21 00:00:00+00,0,441,15,429,703789,270444
9162,9,2022/01/28 00:00:00+00,0,3812,1534,2315,213588,270445
9162,9,2022/12/22 00:00:00+00,0,369,20,347,704158,270446
9162,9,2022/01/29 00:00:00+00,0,2185,1525,1323,215773,270447
9162,9,2022/12/23 00:00:00+00,0,349,14,334,704507,270448
9162,9,2022/01/30 00:00:00+00,0,3788,1451,2239,219561,270449
9162,9,2022/12/24 00:00:00+00,0,0,6,0,704507,270450
9162,9,2022/01/31 00:00:00+00,0,5182,1718,3051,224743,270451
9162,9,2022/12/25 00:00:00+00,0,0,10,0,704507,270452
9162,9,2022/02/01 00:00:00+00,0,4854,1753,3076,229597,270453
9162,9,2022/12/26 00:00:00+00,0,0,13,0,704507,270454
9162,9,2022/02/02 00:00:00+00,0,5834,1434,3649,235431,270455
9162,9,2022/12/27 00:00:00+00,0,787,15,751,705294,270456
9162,9,2022/02/03 00:00:00+00,0,7445,1247,4934,242876,270457
9162,9,2022/12/28 00:00:00+00,0,368,10,356,705662,270458
9162,9,2022/02/04 00:00:00+00,0,6163,1130,4188,249039,270459
9162,9,2022/12/29 00:00:00+00,0,329,12,320,705991,270460
9162,9,2022/02/05 00:00:00+00,0,3459,1102,2382,252498,270461
9162,9,2022/12/30 00:00:00+00,0,199,8,189,706190,270462
9162,9,2022/02/06 00:00:00+00,0,4216,1048,2826,256714,270463
9162,9,2022/12/31 00:00:00+00,0,7,7,7,706197,270464
9162,9,2022/02/07 00:00:00+00,0,4260,1127,2909,260974,270465
9162,9,2023/01/01 00:00:00+00,0,7,10,7,706204,270466
9162,9,2022/02/08 00:00:00+00,0,5199,965,3566,266173,270467
9162,9,2023/01/02 00:00:00+00,0,368,12,355,706572,270468
9162,9,2022/02/09 00:00:00+00,0,5068,842,3622,271241,270469
9162,9,2023/01/03 00:00:00+00,0,256,6,242,706828,270470
9162,9,2022/02/10 00:00:00+00,0,4674,726,3504,275915,270471
9162,9,2023/01/04 00:00:00+00,0,294,2,284,707122,270472
9162,9,2022/02/11 00:00:00+00,0,3746,824,2845,279661,270473
9162,9,2022/02/12 00:00:00+00,0,1661,844,1230,281322,270474
9162,9,2022/02/13 00:00:00+00,0,2025,823,1449,283347,270475
9162,9,2022/02/14 00:00:00+00,0,2562,1065,1727,285909,270476
9162,9,2022/02/15 00:00:00+00,0,3684,966,2652,289593,270477
9162,9,2022/02/16 00:00:00+00,0,4643,873,3358,294236,270478
9162,9,2022/02/17 00:00:00+00,0,4010,771,2916,298246,270479
9162,9,2022/02/18 00:00:00+00,0,3314,816,2421,301560,270480
9162,9,2022/02/19 00:00:00+00,0,1582,847,1106,303142,270481
9162,9,2022/02/20 00:00:00+00,0,1993,790,1325,305135,270482
9162,9,2022/02/21 00:00:00+00,0,2426,924,1630,307561,270483
9162,9,2022/02/22 00:00:00+00,0,3498,880,2427,311059,270484
9162,9,2022/02/23 00:00:00+00,0,3576,713,2560,314635,270485
9162,9,2022/02/24 00:00:00+00,0,3584,605,2679,318219,270486
9162,9,2022/02/25 00:00:00+00,0,2867,671,2066,321086,270487
9162,9,2022/02/26 00:00:00+00,0,1449,690,1026,322535,270488
9162,9,2022/02/27 00:00:00+00,0,1815,694,1342,324350,270489
9162,9,2022/02/28 00:00:00+00,0,2477,844,1713,326827,270490
9162,9,2022/03/01 00:00:00+00,0,1971,978,1357,328798,270491
9162,9,2022/03/02 00:00:00+00,0,3984,870,2827,332782,270492
9162,9,2022/03/03 00:00:00+00,0,3326,828,2400,336108,270493
9162,9,2022/03/04 00:00:00+00,0,2733,856,2006,338841,270494
9162,9,2022/03/05 00:00:00+00,0,1429,924,1007,340270,270495
9162,9,2022/03/06 00:00:00+00,0,2289,1033,1606,342559,270496
9162,9,2022/03/07 00:00:00+00,0,2630,1337,1904,345189,270497
9162,9,2022/03/08 00:00:00+00,0,3710,1309,2617,348899,270498
9162,9,2022/03/09 00:00:00+00,0,4278,1013,3105,353177,270499
9162,9,2022/03/10 00:00:00+00,0,4488,1007,3303,357665,270500
9162,9,2022/04/30 00:00:00+00,0,1149,189,1094,498874,270501
9162,9,2022/05/01 00:00:00+00,0,863,296,849,499737,270502
9162,9,2022/05/02 00:00:00+00,0,960,370,926,500697,270503
9162,9,2022/05/03 00:00:00+00,0,1605,470,1243,502302,270504
9162,9,2022/05/04 00:00:00+00,0,1711,408,1158,504013,270505
9162,9,2022/05/05 00:00:00+00,0,1462,342,1007,505475,270506
9162,9,2022/05/06 00:00:00+00,0,1266,357,859,506741,270507
9162,9,2022/05/07 00:00:00+00,0,923,370,612,507664,270508
9162,9,2022/05/08 00:00:00+00,0,626,435,385,508290,270509
9162,9,2022/05/09 00:00:00+00,0,1001,441,608,509291,270510
9162,9,2022/05/10 00:00:00+00,0,1505,432,992,510796,270511
9162,9,2022/05/11 00:00:00+00,0,1540,314,1002,512336,270512
9162,9,2022/05/12 00:00:00+00,0,1272,315,893,513608,270513
9162,9,2022/05/13 00:00:00+00,0,1022,257,694,514630,270514
9162,9,2022/05/14 00:00:00+00,0,796,265,499,515426,270515
9162,9,2022/05/15 00:00:00+00,0,559,287,338,515985,270516
9162,9,2022/05/16 00:00:00+00,0,814,276,510,516799,270517
9162,9,2022/05/17 00:00:00+00,0,942,249,637,517741,270518
9162,9,2022/05/18 00:00:00+00,0,891,231,616,518632,270519
9162,9,2022/05/19 00:00:00+00,0,866,203,584,519498,270520
9162,9,2022/05/20 00:00:00+00,0,772,184,500,520270,270521
9162,9,2022/05/21 00:00:00+00,0,439,177,274,520709,270522
9162,9,2022/05/22 00:00:00+00,0,313,194,182,521022,270523
9162,9,2022/05/23 00:00:00+00,0,542,186,341,521564,270524
9162,9,2022/05/24 00:00:00+00,0,777,228,530,522341,270525
9162,9,2022/05/25 00:00:00+00,0,590,214,357,522931,270526
9162,9,2022/05/26 00:00:00+00,0,451,170,289,523382,270527
9162,9,2022/05/27 00:00:00+00,0,333,168,187,523715,270528
9162,9,2022/05/28 00:00:00+00,0,547,186,322,524262,270529
9162,9,2022/05/29 00:00:00+00,0,313,192,180,524575,270530
9162,9,2022/05/30 00:00:00+00,0,393,230,251,524968,270531
9162,9,2022/05/31 00:00:00+00,0,871,249,583,525839,270532
9162,9,2022/06/01 00:00:00+00,0,743,246,487,526582,270533
9162,9,2022/06/02 00:00:00+00,0,623,208,409,527205,270534
9162,9,2022/06/03 00:00:00+00,0,689,222,442,527894,270535
9162,9,2022/06/04 00:00:00+00,0,2,273,1,527896,270536
9162,9,2022/06/05 00:00:00+00,0,7,305,2,527903,270537
9162,9,2022/06/06 00:00:00+00,0,8,306,2,527911,270538
9162,9,2022/06/07 00:00:00+00,0,1568,335,952,529479,270539
9162,9,2022/06/08 00:00:00+00,0,1412,333,887,530891,270540
9162,9,2022/06/09 00:00:00+00,0,1140,295,708,532031,270541
9162,9,2022/06/10 00:00:00+00,0,956,257,648,532987,270542
9162,9,2022/06/11 00:00:00+00,0,0,277,0,532987,270543
9162,9,2022/06/12 00:00:00+00,0,7,283,4,532994,270544
9162,9,2022/06/13 00:00:00+00,0,1603,386,1033,534597,270545
9162,9,2022/06/14 00:00:00+00,0,1399,343,900,535996,270546
9162,9,2022/06/15 00:00:00+00,0,1210,302,775,537206,270547
9162,9,2022/06/16 00:00:00+00,0,2,333,2,537208,270548
9162,9,2022/06/17 00:00:00+00,0,1273,355,824,538481,270549
9162,9,2022/06/18 00:00:00+00,0,15,386,10,538496,270550
9162,9,2022/03/11 00:00:00+00,0,3995,1000,2926,361660,270551
9162,9,2022/03/12 00:00:00+00,0,3154,1037,2377,364814,270552
9162,9,2022/03/13 00:00:00+00,0,3495,1081,2561,368309,270553
9162,9,2022/03/14 00:00:00+00,0,3885,1317,2841,372194,270554
9162,9,2022/03/15 00:00:00+00,0,4540,1229,3241,376734,270555
9162,9,2022/03/16 00:00:00+00,0,4807,1047,3517,381541,270556
9162,9,2022/03/17 00:00:00+00,0,4667,898,3555,386208,270557
9162,9,2022/03/18 00:00:00+00,0,4370,953,3359,390578,270558
9162,9,2022/03/19 00:00:00+00,0,2822,909,2170,393400,270559
9162,9,2022/03/20 00:00:00+00,0,3893,983,2962,397293,270560
9162,9,2022/03/21 00:00:00+00,0,4073,1206,3201,401366,270561
9162,9,2022/03/22 00:00:00+00,0,4697,1023,3533,406063,270562
9162,9,2022/03/23 00:00:00+00,0,5216,883,3867,411279,270563
9162,9,2022/03/24 00:00:00+00,0,5225,776,3933,416504,270564
9162,9,2022/03/25 00:00:00+00,0,4157,758,3190,420661,270565
9162,9,2022/03/26 00:00:00+00,0,2814,811,2197,423475,270566
9162,9,2022/03/27 00:00:00+00,0,3271,848,2506,426746,270567
9162,9,2022/03/28 00:00:00+00,0,4666,880,3497,431412,270568
9162,9,2022/03/29 00:00:00+00,0,4840,811,3635,436252,270569
9162,9,2022/03/30 00:00:00+00,0,5183,648,3972,441435,270570
9162,9,2022/03/31 00:00:00+00,0,4012,485,3062,445447,270571
9162,9,2022/04/01 00:00:00+00,0,2926,554,2248,448373,270572
9162,9,2022/04/02 00:00:00+00,0,1843,472,1429,450216,270573
9162,9,2022/04/03 00:00:00+00,0,1584,499,1281,451800,270574
9162,9,2022/04/04 00:00:00+00,0,2010,588,1550,453810,270575
9162,9,2022/04/05 00:00:00+00,0,2693,515,2061,456503,270576
9162,9,2022/04/06 00:00:00+00,0,3494,383,2764,459997,270577
9162,9,2022/04/07 00:00:00+00,0,3288,312,2574,463285,270578
9162,9,2022/04/08 00:00:00+00,0,2611,280,2118,465896,270579
9162,9,2022/04/09 00:00:00+00,0,1616,230,1322,467512,270580
9162,9,2022/04/10 00:00:00+00,0,1359,171,1086,468871,270581
9162,9,2022/04/11 00:00:00+00,0,1927,139,1598,470798,270582
9162,9,2022/04/12 00:00:00+00,0,2555,75,2209,473353,270583
9162,9,2022/04/13 00:00:00+00,0,2183,16,1994,475536,270584
9162,9,2022/04/14 00:00:00+00,0,1999,17,1950,477535,270585
9162,9,2022/04/15 00:00:00+00,0,1318,9,1300,478853,270586
9162,9,2022/04/16 00:00:00+00,0,1114,13,1099,479967,270587
9162,9,2022/04/17 00:00:00+00,0,969,9,960,480936,270588
9162,9,2022/04/18 00:00:00+00,0,915,9,905,481851,270589
9162,9,2022/04/19 00:00:00+00,0,1493,12,1479,483344,270590
9162,9,2022/04/20 00:00:00+00,0,1987,14,1978,485331,270591
9162,9,2022/04/21 00:00:00+00,0,1751,16,1735,487082,270592
9162,9,2022/04/22 00:00:00+00,0,1285,18,1268,488367,270593
9162,9,2022/04/23 00:00:00+00,0,1112,12,1104,489479,270594
9162,9,2022/04/24 00:00:00+00,0,1136,12,1130,490615,270595
9162,9,2022/04/25 00:00:00+00,0,1333,36,1323,491948,270596
9162,9,2022/04/26 00:00:00+00,0,1888,34,1863,493836,270597
9162,9,2022/04/27 00:00:00+00,0,1601,58,1586,495437,270598
9162,9,2022/04/28 00:00:00+00,0,1327,88,1306,496764,270599
9162,9,2022/04/29 00:00:00+00,0,961,112,908,497725,270600
9162,9,2022/09/27 00:00:00+00,0,3042,79,2922,642100,270601
9162,9,2022/09/28 00:00:00+00,0,3146,56,3060,645246,270602
9162,9,2022/09/29 00:00:00+00,0,1994,55,1938,647240,270603
9162,9,2022/09/30 00:00:00+00,0,1880,55,1846,649120,270604
9162,9,2022/10/01 00:00:00+00,0,1558,66,1529,650678,270605
9162,9,2022/10/02 00:00:00+00,0,28,65,25,650706,270606
9162,9,2022/10/03 00:00:00+00,0,71,91,70,650777,270607
9162,9,2022/10/04 00:00:00+00,0,3019,89,2871,653796,270608
9162,9,2022/10/05 00:00:00+00,0,5964,73,5816,659760,270609
9162,9,2022/08/08 00:00:00+00,0,1290,124,1065,613868,270610
9162,9,2022/10/06 00:00:00+00,0,4180,43,4060,663940,270611
9162,9,2022/10/07 00:00:00+00,0,2839,59,2786,666779,270612
9162,9,2022/10/08 00:00:00+00,0,1560,51,1546,668339,270613
9162,9,2022/10/09 00:00:00+00,0,2268,40,2224,670607,270614
9162,9,2022/08/09 00:00:00+00,0,792,98,654,614660,270615
9162,9,2022/10/10 00:00:00+00,0,3220,52,3132,673827,270616
9162,9,2022/08/10 00:00:00+00,0,595,84,473,615255,270617
9162,9,2022/10/11 00:00:00+00,0,2742,44,2659,676569,270618
9162,9,2022/08/11 00:00:00+00,0,564,53,456,615819,270619
9162,9,2022/10/12 00:00:00+00,0,1981,36,1909,678550,270620
9162,9,2022/08/12 00:00:00+00,0,537,77,451,616356,270621
9162,9,2022/10/13 00:00:00+00,0,1576,37,1529,680126,270622
9162,9,2022/08/13 00:00:00+00,0,1,82,1,616357,270623
9162,9,2022/10/14 00:00:00+00,0,1335,25,1292,681461,270624
9162,9,2022/08/14 00:00:00+00,0,0,70,0,616357,270625
9162,9,2022/10/15 00:00:00+00,0,973,18,950,682434,270626
9162,9,2022/08/15 00:00:00+00,0,5,105,2,616362,270627
9162,9,2022/10/16 00:00:00+00,0,2,23,2,682436,270628
9162,9,2022/08/16 00:00:00+00,0,1158,105,928,617520,270629
9162,9,2022/10/17 00:00:00+00,0,1258,23,1210,683694,270630
9162,9,2022/08/17 00:00:00+00,0,807,81,666,618327,270631
9162,9,2022/10/18 00:00:00+00,0,1271,24,1242,684965,270632
9162,9,2022/08/18 00:00:00+00,0,622,75,506,618949,270633
9162,9,2022/10/19 00:00:00+00,0,962,21,934,685927,270634
9162,9,2022/08/19 00:00:00+00,0,491,83,414,619440,270635
9162,9,2022/10/20 00:00:00+00,0,719,9,691,686646,270636
9162,9,2022/08/20 00:00:00+00,0,1,60,1,619441,270637
9162,9,2022/10/21 00:00:00+00,0,660,8,649,687306,270638
9162,9,2022/08/21 00:00:00+00,0,1,82,0,619442,270639
9162,9,2022/10/22 00:00:00+00,0,439,8,435,687745,270640
9162,9,2022/08/22 00:00:00+00,0,747,93,578,620189,270641
9162,9,2022/08/23 00:00:00+00,0,649,80,529,620838,270642
9162,9,2022/08/24 00:00:00+00,0,493,97,409,621331,270643
9162,9,2022/08/25 00:00:00+00,0,537,80,417,621868,270644
9162,9,2022/08/26 00:00:00+00,0,380,83,315,622248,270645
9162,9,2022/08/27 00:00:00+00,0,1,72,1,622249,270646
9162,9,2022/08/28 00:00:00+00,0,0,88,0,622249,270647
9162,9,2022/08/29 00:00:00+00,0,920,80,694,623169,270648
9162,9,2022/08/30 00:00:00+00,0,630,78,503,623799,270649
9162,9,2022/08/31 00:00:00+00,0,509,66,415,624308,270650
9162,9,2022/09/01 00:00:00+00,0,407,62,331,624715,270651
9162,9,2022/09/02 00:00:00+00,0,354,56,296,625069,270652
9162,9,2022/09/03 00:00:00+00,0,9,78,8,625078,270653
9162,9,2022/09/04 00:00:00+00,0,8,69,5,625086,270654
9162,9,2022/09/05 00:00:00+00,0,858,87,696,625944,270655
9162,9,2022/09/06 00:00:00+00,0,628,95,530,626572,270656
9162,9,2022/09/07 00:00:00+00,0,479,81,394,627051,270657
9162,9,2022/09/08 00:00:00+00,0,418,67,333,627469,270658
9162,9,2022/09/09 00:00:00+00,0,416,71,346,627885,270659
9162,9,2022/09/10 00:00:00+00,0,6,83,5,627891,270660
9162,9,2022/09/11 00:00:00+00,0,14,82,11,627905,270661
9162,9,2022/09/12 00:00:00+00,0,831,87,643,628736,270662
9162,9,2022/09/13 00:00:00+00,0,683,111,568,629419,270663
9162,9,2022/09/14 00:00:00+00,0,590,110,476,630009,270664
9162,9,2022/09/15 00:00:00+00,0,619,101,507,630628,270665
9162,9,2022/09/16 00:00:00+00,0,520,127,444,631148,270666
9162,9,2022/09/17 00:00:00+00,0,1,121,1,631149,270667
9162,9,2022/09/18 00:00:00+00,0,13,118,9,631162,270668
9162,9,2022/09/19 00:00:00+00,0,1203,163,898,632365,270669
9162,9,2022/09/20 00:00:00+00,0,890,171,718,633255,270670
9162,9,2022/09/21 00:00:00+00,0,806,224,654,634061,270671
9162,9,2022/09/22 00:00:00+00,0,909,212,751,634970,270672
9162,9,2022/09/23 00:00:00+00,0,1088,223,888,636058,270673
9162,9,2022/09/24 00:00:00+00,0,979,220,777,637037,270674
9162,9,2022/09/25 00:00:00+00,0,28,103,24,637065,270675
9162,9,2022/09/26 00:00:00+00,0,1993,86,1488,639058,270676
9162,9,2022/06/19 00:00:00+00,0,11,447,5,538507,270677
9162,9,2021/12/01 00:00:00+00,0,1499,442,847,128071,270678
9162,9,2022/10/23 00:00:00+00,0,0,11,0,687745,270679
9162,9,2021/12/02 00:00:00+00,0,1108,323,608,129179,270680
9162,9,2022/10/24 00:00:00+00,0,716,24,693,688461,270681
9162,9,2021/12/03 00:00:00+00,0,924,330,497,130103,270682
9162,9,2022/06/20 00:00:00+00,0,1513,499,1006,540020,270683
9162,9,2022/10/25 00:00:00+00,0,703,10,694,689164,270684
9162,9,2021/12/04 00:00:00+00,0,549,300,335,130652,270685
9162,9,2022/06/21 00:00:00+00,0,1820,491,1158,541840,270686
9162,9,2022/10/26 00:00:00+00,0,534,10,518,689698,270687
9162,9,2021/12/05 00:00:00+00,0,597,262,315,131249,270688
9162,9,2022/06/22 00:00:00+00,0,2241,413,1397,544081,270689
9162,9,2022/10/27 00:00:00+00,0,473,10,460,690171,270690
9162,9,2021/12/06 00:00:00+00,0,339,331,189,131588,270691
9162,9,2022/06/23 00:00:00+00,0,1937,363,1296,546018,270692
9162,9,2022/10/28 00:00:00+00,0,303,9,292,690474,270693
9162,9,2021/12/07 00:00:00+00,0,1217,266,671,132805,270694
9162,9,2022/06/24 00:00:00+00,0,1171,462,799,547189,270695
9162,9,2022/10/29 00:00:00+00,0,310,5,302,690784,270696
9162,9,2021/12/08 00:00:00+00,0,833,254,455,133638,270697
9162,9,2022/06/25 00:00:00+00,0,3,436,0,547192,270698
9162,9,2022/10/30 00:00:00+00,0,0,10,0,690784,270699
9162,9,2021/12/09 00:00:00+00,0,641,198,391,134279,270700
9162,9,2022/06/26 00:00:00+00,0,1,535,0,547193,270701
9162,9,2022/10/31 00:00:00+00,0,346,7,334,691130,270702
9162,9,2021/12/10 00:00:00+00,0,553,251,315,134832,270703
9162,9,2022/06/27 00:00:00+00,0,2220,629,1412,549413,270704
9162,9,2022/11/01 00:00:00+00,0,0,9,0,691130,270705
9162,9,2021/12/11 00:00:00+00,0,387,185,200,135219,270706
9162,9,2022/06/28 00:00:00+00,0,1960,554,1210,551373,270707
9162,9,2022/11/02 00:00:00+00,0,580,8,562,691710,270708
9162,9,2021/12/12 00:00:00+00,0,266,194,161,135485,270709
9162,9,2022/06/29 00:00:00+00,0,2213,456,1496,553586,270710
9162,9,2022/11/03 00:00:00+00,0,340,5,332,692050,270711
9162,9,2021/12/13 00:00:00+00,0,395,239,217,135880,270712
9162,9,2022/06/30 00:00:00+00,0,2262,413,1503,555848,270713
9162,9,2022/11/04 00:00:00+00,0,349,7,344,692399,270714
9162,9,2021/12/14 00:00:00+00,0,765,231,418,136645,270715
9162,9,2022/07/01 00:00:00+00,0,1616,502,1121,557464,270716
9162,9,2022/11/05 00:00:00+00,0,1,4,1,692400,270717
9162,9,2021/12/15 00:00:00+00,0,636,211,372,137281,270718
9162,9,2022/07/02 00:00:00+00,0,21,502,12,557485,270719
9162,9,2022/11/06 00:00:00+00,0,1,7,1,692401,270720
9162,9,2021/12/16 00:00:00+00,0,476,171,286,137757,270721
9162,9,2022/07/03 00:00:00+00,0,26,582,16,557511,270722
9162,9,2022/11/07 00:00:00+00,0,604,9,589,693005,270723
9162,9,2021/12/17 00:00:00+00,0,628,175,366,138385,270724
9162,9,2022/07/04 00:00:00+00,0,2780,702,1897,560291,270725
9162,9,2022/11/08 00:00:00+00,0,389,3,380,693394,270726
9162,9,2021/12/18 00:00:00+00,0,225,188,136,138610,270727
9162,9,2022/07/05 00:00:00+00,0,2765,591,1899,563056,270728
9162,9,2022/11/09 00:00:00+00,0,330,8,324,693724,270729
9162,9,2021/12/19 00:00:00+00,0,353,175,206,138963,270730
9162,9,2022/07/06 00:00:00+00,0,2393,488,1683,565449,270731
9162,9,2022/11/10 00:00:00+00,0,256,6,250,693980,270732
9162,9,2021/12/20 00:00:00+00,0,350,214,211,139313,270733
9162,9,2022/07/07 00:00:00+00,0,2806,492,1965,568255,270734
9162,9,2022/11/11 00:00:00+00,0,200,8,196,694180,270735
9162,9,2021/12/21 00:00:00+00,0,641,189,358,139954,270736
9162,9,2022/07/08 00:00:00+00,0,1768,431,1297,570023,270737
9162,9,2022/11/12 00:00:00+00,0,37,8,36,694217,270738
9162,9,2021/12/22 00:00:00+00,0,543,180,307,140497,270739
9162,9,2022/07/09 00:00:00+00,0,36,472,29,570059,270740
9162,9,2022/11/13 00:00:00+00,0,0,6,0,694217,270741
9162,9,2021/12/23 00:00:00+00,0,414,234,238,140911,270742
9162,9,2022/07/10 00:00:00+00,0,26,569,17,570085,270743
9162,9,2022/11/14 00:00:00+00,0,436,9,420,694653,270744
9162,9,2021/12/24 00:00:00+00,0,348,240,195,141259,270745
9162,9,2022/07/11 00:00:00+00,0,2603,637,1860,572688,270746
9162,9,2022/11/15 00:00:00+00,0,244,12,238,694897,270747
9162,9,2021/12/25 00:00:00+00,0,12,242,6,141271,270748
9162,9,2022/07/12 00:00:00+00,0,2894,569,2131,575582,270749
9162,9,2021/12/26 00:00:00+00,0,414,281,225,141685,270750
9162,9,2022/07/13 00:00:00+00,0,2449,576,1770,578031,270751
9162,9,2021/12/27 00:00:00+00,0,644,391,319,142329,270752
9162,9,2022/07/14 00:00:00+00,0,2173,572,1535,580204,270753
9162,9,2021/12/28 00:00:00+00,0,613,352,302,142942,270754
9162,9,2022/07/15 00:00:00+00,0,2336,540,1702,582540,270755
9162,9,2021/12/29 00:00:00+00,0,624,332,332,143566,270756
9162,9,2022/07/16 00:00:00+00,0,5,552,4,582545,270757
9162,9,2021/12/30 00:00:00+00,0,682,335,312,144248,270758
9162,9,2022/07/17 00:00:00+00,0,8,614,5,582553,270759
9162,9,2021/12/31 00:00:00+00,0,421,319,213,144669,270760
9162,9,2022/07/18 00:00:00+00,0,2900,578,2097,585453,270761
9162,9,2022/01/01 00:00:00+00,0,8,471,5,144677,270762
9162,9,2022/07/19 00:00:00+00,0,3138,584,2133,588591,270763
9162,9,2022/01/02 00:00:00+00,0,617,591,292,145294,270764
9162,9,2022/07/20 00:00:00+00,0,3115,507,2228,591706,270765
9162,9,2022/01/03 00:00:00+00,0,805,839,410,146099,270766
9162,9,2022/07/21 00:00:00+00,0,2803,446,2056,594509,270767
9162,9,2022/07/22 00:00:00+00,0,2103,398,1461,596612,270768
9162,9,2022/07/23 00:00:00+00,0,8,380,6,596620,270769
9162,9,2022/07/24 00:00:00+00,0,18,322,15,596638,270770
9162,9,2022/07/25 00:00:00+00,0,2599,320,1912,599237,270771
9162,9,2022/07/26 00:00:00+00,0,2204,292,1537,601441,270772
9162,9,2022/07/27 00:00:00+00,0,2458,199,1842,603899,270773
9162,9,2022/07/28 00:00:00+00,0,1609,159,1203,605508,270774
9162,9,2022/07/29 00:00:00+00,0,1185,152,971,606693,270775
9162,9,2022/07/30 00:00:00+00,0,7,156,7,606700,270776
9162,9,2022/07/31 00:00:00+00,0,7,135,6,606707,270777
9162,9,2022/08/01 00:00:00+00,0,1930,166,1525,608637,270778
9162,9,2022/08/02 00:00:00+00,0,1354,139,1117,609991,270779
9162,9,2022/08/03 00:00:00+00,0,1013,103,829,611004,270780
9162,9,2022/08/04 00:00:00+00,0,763,98,654,611767,270781
9162,9,2022/08/05 00:00:00+00,0,794,76,667,612561,270782
9162,9,2022/08/06 00:00:00+00,0,12,111,10,612573,270783
9162,9,2022/08/07 00:00:00+00,0,5,82,2,612578,270784
9162,9,2022/01/04 00:00:00+00,0,1073,644,530,147172,270785
9162,9,2022/01/05 00:00:00+00,0,1344,649,718,148516,270786
9162,9,2022/01/06 00:00:00+00,0,1278,652,692,149794,270787
9162,9,2022/01/07 00:00:00+00,0,1465,681,773,151259,270788
9162,9,2022/01/08 00:00:00+00,0,1094,817,612,152353,270789
9162,9,2022/01/09 00:00:00+00,0,1032,869,564,153385,270790
9162,9,2022/01/10 00:00:00+00,0,1748,1142,1022,155133,270791
9162,9,2022/01/11 00:00:00+00,0,2316,1061,1257,157449,270792
9162,9,2022/01/12 00:00:00+00,0,2373,964,1338,159822,270793
9162,9,2022/01/13 00:00:00+00,0,2220,1028,1202,162042,270794
9162,9,2022/01/14 00:00:00+00,0,2236,1106,1228,164278,270795
9162,9,2022/01/15 00:00:00+00,0,1809,1337,1048,166087,270796
9162,9,2022/01/16 00:00:00+00,0,1773,1546,1055,167860,270797
9162,9,2022/01/17 00:00:00+00,0,2247,1816,1240,170107,270798
9162,9,2022/01/18 00:00:00+00,0,3326,1836,1823,173433,270799
9162,9,2022/01/19 00:00:00+00,0,3341,1790,1772,176774,270800
9162,9,2023/02/24 00:00:00+00,0,230,4,220,716730,270801
9162,9,2023/02/25 00:00:00+00,0,0,5,0,716730,270802
9162,9,2023/02/26 00:00:00+00,0,0,8,0,716730,270804
9162,9,2023/02/27 00:00:00+00,0,269,9,253,716999,270805
9162,9,2023/02/28 00:00:00+00,0,304,11,289,717303,270806
9162,9,2023/01/05 00:00:00+00,0,158,10,154,707280,270808
9162,9,2023/03/01 00:00:00+00,0,303,8,293,717606,270809
9162,9,2023/01/06 00:00:00+00,0,0,2,0,707280,270813
9162,9,2023/03/02 00:00:00+00,0,168,4,156,717774,270814
9162,9,2023/01/07 00:00:00+00,0,0,11,0,707280,270818
9162,9,2023/03/03 00:00:00+00,0,118,5,116,717892,270819
9162,9,2023/01/08 00:00:00+00,0,1,10,0,707281,270823
9162,9,2023/03/04 00:00:00+00,0,0,4,0,717892,270824
9162,9,2023/01/09 00:00:00+00,0,555,11,527,707836,270828
9162,9,2023/03/05 00:00:00+00,0,0,7,0,717892,270829
9162,9,2023/01/10 00:00:00+00,0,305,9,294,708141,270833
9162,9,2023/03/06 00:00:00+00,0,225,8,210,718117,270834
9162,9,2023/01/11 00:00:00+00,0,250,5,241,708391,270838
9162,9,2023/03/07 00:00:00+00,0,127,6,120,718244,270839
9162,9,2023/01/12 00:00:00+00,0,191,2,183,708582,270843
9162,9,2023/03/08 00:00:00+00,0,129,3,124,718373,270844
9162,9,2023/01/13 00:00:00+00,0,117,9,116,708699,270848
9162,9,2023/03/09 00:00:00+00,0,113,4,108,718486,270849
9162,9,2023/01/14 00:00:00+00,0,0,5,0,708699,270853
9162,9,2023/03/10 00:00:00+00,0,118,3,111,718604,270854
9162,9,2023/01/15 00:00:00+00,0,0,2,0,708699,270858
9162,9,2023/03/11 00:00:00+00,0,0,5,0,718604,270859
9162,9,2023/01/16 00:00:00+00,0,286,9,268,708985,270863
9162,9,2023/03/12 00:00:00+00,0,0,2,0,718604,270864
9162,9,2023/01/17 00:00:00+00,0,156,5,149,709141,270868
9162,9,2023/03/13 00:00:00+00,0,168,4,163,718772,270869
9162,9,2023/01/18 00:00:00+00,0,181,9,168,709322,270873
9162,9,2023/03/14 00:00:00+00,0,128,4,125,718900,270874
9162,9,2023/01/19 00:00:00+00,0,118,5,111,709440,270878
9162,9,2023/03/15 00:00:00+00,0,123,4,118,719023,270879
9162,9,2023/01/20 00:00:00+00,0,142,11,136,709582,270883
9162,9,2023/03/16 00:00:00+00,0,106,4,100,719129,270884
9162,9,2023/01/21 00:00:00+00,0,0,2,0,709582,270888
9162,9,2023/03/17 00:00:00+00,0,75,5,70,719204,270889
9162,9,2023/01/22 00:00:00+00,0,0,6,0,709582,270893
9162,9,2023/03/18 00:00:00+00,0,0,3,0,719204,270894
9162,9,2023/01/23 00:00:00+00,0,245,9,228,709827,270927
9162,9,2023/03/19 00:00:00+00,0,0,6,0,719204,270929
9162,9,2023/01/24 00:00:00+00,0,200,7,190,710027,270930
9162,9,2023/03/20 00:00:00+00,0,166,1,155,719370,270932
9162,9,2023/01/25 00:00:00+00,0,184,7,178,710211,270933
9162,9,2023/03/21 00:00:00+00,0,127,3,121,719497,270935
9162,9,2023/01/26 00:00:00+00,0,188,8,181,710399,270936
9162,9,2023/03/22 00:00:00+00,0,69,2,68,719566,270938
9162,9,2023/01/27 00:00:00+00,0,154,11,141,710553,270940
9162,9,2023/03/23 00:00:00+00,0,87,3,84,719653,270942
9162,9,2023/01/28 00:00:00+00,0,0,4,0,710553,270944
9162,9,2023/03/24 00:00:00+00,0,90,0,87,719743,270946
9162,9,2023/01/29 00:00:00+00,0,0,8,0,710553,270948
9162,9,2023/03/25 00:00:00+00,0,0,1,0,719743,270950
9162,9,2023/01/30 00:00:00+00,0,378,12,363,710931,270952
9162,9,2023/03/26 00:00:00+00,0,0,0,0,719743,270954
9162,9,2023/01/31 00:00:00+00,0,314,8,299,711245,270956
9162,9,2023/03/27 00:00:00+00,0,107,2,105,719850,270958
9162,9,2023/02/01 00:00:00+00,0,221,12,214,711466,270960
9162,9,2023/03/28 00:00:00+00,2,51,0,51,719903,270962
9162,9,2023/02/02 00:00:00+00,0,231,10,220,711697,270964
9162,9,2023/03/29 00:00:00+00,49,0,0,49,719952,270966
9162,9,2023/02/03 00:00:00+00,0,216,12,208,711913,270968
9162,9,2023/02/04 00:00:00+00,0,0,8,0,711913,270972
9162,9,2023/02/05 00:00:00+00,0,0,6,0,711913,270976
9162,9,2023/02/06 00:00:00+00,0,363,12,346,712276,270980
9162,9,2023/02/07 00:00:00+00,0,297,12,283,712573,270984
9162,9,2023/02/08 00:00:00+00,0,347,14,333,712920,270988
9162,9,2023/02/09 00:00:00+00,0,284,7,270,713204,270992
9162,9,2023/02/10 00:00:00+00,0,280,11,268,713484,270996
9162,9,2023/02/11 00:00:00+00,0,0,7,0,713484,271000
9162,9,2023/02/12 00:00:00+00,0,1,16,0,713485,271004
9162,9,2023/02/13 00:00:00+00,0,470,20,447,713955,271008
9162,9,2023/02/14 00:00:00+00,0,352,3,326,714307,271012
9162,9,2023/02/15 00:00:00+00,0,307,11,303,714614,271016
9162,9,2023/02/16 00:00:00+00,0,279,8,268,714893,271020
9162,9,2023/02/17 00:00:00+00,0,215,10,207,715108,271087
9162,9,2023/02/18 00:00:00+00,0,0,10,0,715108,271092
9162,9,2023/02/19 00:00:00+00,0,0,15,0,715108,271096
9162,9,2023/02/20 00:00:00+00,0,491,24,457,715599,271100
9162,9,2023/02/21 00:00:00+00,0,238,14,225,715837,271104
9162,9,2023/02/22 00:00:00+00,0,397,12,369,716234,271108
9162,9,2023/02/23 00:00:00+00,0,266,12,253,716500,271112
